EESchema Schematic File Version 2
LIBS:power
LIBS:device
LIBS:switches
LIBS:relays
LIBS:motors
LIBS:transistors
LIBS:conn
LIBS:linear
LIBS:regul
LIBS:74xx
LIBS:cmos4000
LIBS:adc-dac
LIBS:memory
LIBS:xilinx
LIBS:microcontrollers
LIBS:dsp
LIBS:microchip
LIBS:analog_switches
LIBS:motorola
LIBS:texas
LIBS:intel
LIBS:audio
LIBS:interface
LIBS:digital-audio
LIBS:philips
LIBS:display
LIBS:cypress
LIBS:siliconi
LIBS:opto
LIBS:atmel
LIBS:contrib
LIBS:valves
LIBS:TOPI_MCP3208_4-20ma_V0-cache
EELAYER 25 0
EELAYER END
$Descr A4 11693 8268
encoding utf-8
Sheet 1 1
Title ""
Date ""
Rev ""
Comp ""
Comment1 ""
Comment2 ""
Comment3 ""
Comment4 ""
$EndDescr
$Comp
L MCP3208 U1
U 1 1 5AD84482
P 7075 3850
F 0 "U1" H 6875 4375 50  0000 R CNN
F 1 "MCP3208" H 6875 4300 50  0000 R CNN
F 2 "Housings_DIP:DIP-16_W7.62mm" H 7175 3950 50  0001 C CNN
F 3 "" H 7175 3950 50  0001 C CNN
	1    7075 3850
	1    0    0    -1  
$EndComp
$Comp
L GND #PWR01
U 1 1 5AD84B97
P 2875 1150
F 0 "#PWR01" H 2875 900 50  0001 C CNN
F 1 "GND" H 2875 1000 50  0000 C CNN
F 2 "" H 2875 1150 50  0001 C CNN
F 3 "" H 2875 1150 50  0001 C CNN
	1    2875 1150
	1    0    0    -1  
$EndComp
$Comp
L GND #PWR02
U 1 1 5AD84C92
P 3325 1150
F 0 "#PWR02" H 3325 900 50  0001 C CNN
F 1 "GND" H 3325 1000 50  0000 C CNN
F 2 "" H 3325 1150 50  0001 C CNN
F 3 "" H 3325 1150 50  0001 C CNN
	1    3325 1150
	1    0    0    -1  
$EndComp
$Comp
L GND #PWR03
U 1 1 5AD84CEC
P 3775 1150
F 0 "#PWR03" H 3775 900 50  0001 C CNN
F 1 "GND" H 3775 1000 50  0000 C CNN
F 2 "" H 3775 1150 50  0001 C CNN
F 3 "" H 3775 1150 50  0001 C CNN
	1    3775 1150
	1    0    0    -1  
$EndComp
$Comp
L GND #PWR04
U 1 1 5AD84CFE
P 4225 1150
F 0 "#PWR04" H 4225 900 50  0001 C CNN
F 1 "GND" H 4225 1000 50  0000 C CNN
F 2 "" H 4225 1150 50  0001 C CNN
F 3 "" H 4225 1150 50  0001 C CNN
	1    4225 1150
	1    0    0    -1  
$EndComp
$Comp
L GND #PWR05
U 1 1 5AD84EB8
P 4725 1150
F 0 "#PWR05" H 4725 900 50  0001 C CNN
F 1 "GND" H 4725 1000 50  0000 C CNN
F 2 "" H 4725 1150 50  0001 C CNN
F 3 "" H 4725 1150 50  0001 C CNN
	1    4725 1150
	1    0    0    -1  
$EndComp
$Comp
L GND #PWR06
U 1 1 5AD84ECA
P 5175 1150
F 0 "#PWR06" H 5175 900 50  0001 C CNN
F 1 "GND" H 5175 1000 50  0000 C CNN
F 2 "" H 5175 1150 50  0001 C CNN
F 3 "" H 5175 1150 50  0001 C CNN
	1    5175 1150
	1    0    0    -1  
$EndComp
$Comp
L GND #PWR07
U 1 1 5AD84EDC
P 5625 1150
F 0 "#PWR07" H 5625 900 50  0001 C CNN
F 1 "GND" H 5625 1000 50  0000 C CNN
F 2 "" H 5625 1150 50  0001 C CNN
F 3 "" H 5625 1150 50  0001 C CNN
	1    5625 1150
	1    0    0    -1  
$EndComp
$Comp
L GND #PWR08
U 1 1 5AD84EEE
P 6075 1150
F 0 "#PWR08" H 6075 900 50  0001 C CNN
F 1 "GND" H 6075 1000 50  0000 C CNN
F 2 "" H 6075 1150 50  0001 C CNN
F 3 "" H 6075 1150 50  0001 C CNN
	1    6075 1150
	1    0    0    -1  
$EndComp
$Comp
L GND #PWR09
U 1 1 5AD87230
P 6975 4500
F 0 "#PWR09" H 6975 4250 50  0001 C CNN
F 1 "GND" H 6975 4350 50  0000 C CNN
F 2 "" H 6975 4500 50  0001 C CNN
F 3 "" H 6975 4500 50  0001 C CNN
	1    6975 4500
	1    0    0    -1  
$EndComp
$Comp
L Screw_Terminal_01x03 J1
U 1 1 5ADB8473
P 2775 950
F 0 "J1" H 2775 1150 50  0000 C CNN
F 1 "Screw_Terminal_01x03" H 2775 750 50  0000 C CNN
F 2 "Connectors_Terminal_Blocks:TerminalBlock_Pheonix_MKDS1.5-3pol" H 2775 950 50  0001 C CNN
F 3 "" H 2775 950 50  0001 C CNN
	1    2775 950 
	0    -1   -1   0   
$EndComp
$Comp
L Screw_Terminal_01x03 J2
U 1 1 5ADB88C3
P 3225 950
F 0 "J2" H 3225 1150 50  0000 C CNN
F 1 "Screw_Terminal_01x03" H 3225 750 50  0000 C CNN
F 2 "Connectors_Terminal_Blocks:TerminalBlock_Pheonix_MKDS1.5-3pol" H 3225 950 50  0001 C CNN
F 3 "" H 3225 950 50  0001 C CNN
	1    3225 950 
	0    -1   -1   0   
$EndComp
$Comp
L Screw_Terminal_01x03 J3
U 1 1 5ADB893C
P 3675 950
F 0 "J3" H 3675 1150 50  0000 C CNN
F 1 "Screw_Terminal_01x03" H 3675 750 50  0000 C CNN
F 2 "Connectors_Terminal_Blocks:TerminalBlock_Pheonix_MKDS1.5-3pol" H 3675 950 50  0001 C CNN
F 3 "" H 3675 950 50  0001 C CNN
	1    3675 950 
	0    -1   -1   0   
$EndComp
$Comp
L Screw_Terminal_01x03 J4
U 1 1 5ADB89AE
P 4125 950
F 0 "J4" H 4125 1150 50  0000 C CNN
F 1 "Screw_Terminal_01x03" H 4125 750 50  0000 C CNN
F 2 "Connectors_Terminal_Blocks:TerminalBlock_Pheonix_MKDS1.5-3pol" H 4125 950 50  0001 C CNN
F 3 "" H 4125 950 50  0001 C CNN
	1    4125 950 
	0    -1   -1   0   
$EndComp
$Comp
L Screw_Terminal_01x03 J5
U 1 1 5ADB8A2F
P 4625 950
F 0 "J5" H 4625 1150 50  0000 C CNN
F 1 "Screw_Terminal_01x03" H 4625 750 50  0000 C CNN
F 2 "Connectors_Terminal_Blocks:TerminalBlock_Pheonix_MKDS1.5-3pol" H 4625 950 50  0001 C CNN
F 3 "" H 4625 950 50  0001 C CNN
	1    4625 950 
	0    -1   -1   0   
$EndComp
$Comp
L Screw_Terminal_01x03 J6
U 1 1 5ADB8AB7
P 5075 950
F 0 "J6" H 5075 1150 50  0000 C CNN
F 1 "Screw_Terminal_01x03" H 5075 750 50  0000 C CNN
F 2 "Connectors_Terminal_Blocks:TerminalBlock_Pheonix_MKDS1.5-3pol" H 5075 950 50  0001 C CNN
F 3 "" H 5075 950 50  0001 C CNN
	1    5075 950 
	0    -1   -1   0   
$EndComp
$Comp
L Screw_Terminal_01x03 J7
U 1 1 5ADB8B3A
P 5525 950
F 0 "J7" H 5525 1150 50  0000 C CNN
F 1 "Screw_Terminal_01x03" H 5525 750 50  0000 C CNN
F 2 "Connectors_Terminal_Blocks:TerminalBlock_Pheonix_MKDS1.5-3pol" H 5525 950 50  0001 C CNN
F 3 "" H 5525 950 50  0001 C CNN
	1    5525 950 
	0    -1   -1   0   
$EndComp
$Comp
L Screw_Terminal_01x03 J8
U 1 1 5ADB8BB8
P 5975 950
F 0 "J8" H 5975 1150 50  0000 C CNN
F 1 "Screw_Terminal_01x03" H 5975 750 50  0000 C CNN
F 2 "Connectors_Terminal_Blocks:TerminalBlock_Pheonix_MKDS1.5-3pol" H 5975 950 50  0001 C CNN
F 3 "" H 5975 950 50  0001 C CNN
	1    5975 950 
	0    -1   -1   0   
$EndComp
$Comp
L GND #PWR010
U 1 1 5AE0BE20
P 9450 2225
F 0 "#PWR010" H 9450 1975 50  0001 C CNN
F 1 "GND" H 9450 2075 50  0000 C CNN
F 2 "" H 9450 2225 50  0001 C CNN
F 3 "" H 9450 2225 50  0001 C CNN
	1    9450 2225
	1    0    0    -1  
$EndComp
Text Notes 9375 6200 0    60   ~ 0
19	GPIO10 (SPI0_MOSI)	MCP3208 Din	\n21	GPIO9 (SPI0_MISO)	MCP3208 Dout	\n23	GPIO11 (SPI0_CLK)	MCP3208 CLK\n25	GND ground\n26	GPIO7 (SPI_CE1_N  CS\n31	GPIO6  CS\n\n
$Comp
L Conn_02x20_Odd_Even J10
U 1 1 5AE1C9CA
P 9825 2750
F 0 "J10" H 9875 3750 50  0000 C CNN
F 1 "Conn_02x20_Odd_Even" H 9875 1650 50  0000 C CNN
F 2 "Pin_Headers:Pin_Header_Angled_2x20_Pitch2.54mm" H 9825 2750 50  0001 C CNN
F 3 "" H 9825 2750 50  0001 C CNN
	1    9825 2750
	1    0    0    -1  
$EndComp
$Comp
L GND #PWR011
U 1 1 5AE326CE
P 9550 4925
F 0 "#PWR011" H 9550 4675 50  0001 C CNN
F 1 "GND" H 9550 4775 50  0000 C CNN
F 2 "" H 9550 4925 50  0001 C CNN
F 3 "" H 9550 4925 50  0001 C CNN
	1    9550 4925
	1    0    0    -1  
$EndComp
Text Notes 1575 1100 0    60   ~ 0
24 VDC
$Comp
L R R1
U 1 1 5AE33644
P 2100 2225
F 0 "R1" V 2180 2225 50  0000 C CNN
F 1 "500" V 2100 2225 50  0000 C CNN
F 2 "Resistors_THT:R_Axial_DIN0207_L6.3mm_D2.5mm_P2.54mm_Vertical" V 2030 2225 50  0001 C CNN
F 3 "" H 2100 2225 50  0001 C CNN
	1    2100 2225
	1    0    0    -1  
$EndComp
$Comp
L Screw_Terminal_01x02 J9
U 1 1 5AE395AD
P 9450 4350
F 0 "J9" H 9450 4450 50  0000 C CNN
F 1 "Screw_Terminal_01x02" V 9575 4325 50  0000 C CNN
F 2 "Connectors_Terminal_Blocks:TerminalBlock_Pheonix_MKDS1.5-2pol" H 9450 4350 50  0001 C CNN
F 3 "" H 9450 4350 50  0001 C CNN
	1    9450 4350
	0    -1   -1   0   
$EndComp
$Comp
L R R2
U 1 1 5B087F44
P 2300 1900
F 0 "R2" V 2380 1900 50  0000 C CNN
F 1 "10k" V 2300 1900 50  0000 C CNN
F 2 "Resistors_THT:R_Axial_DIN0207_L6.3mm_D2.5mm_P2.54mm_Vertical" V 2230 1900 50  0001 C CNN
F 3 "" H 2300 1900 50  0001 C CNN
	1    2300 1900
	1    0    0    -1  
$EndComp
$Comp
L R R3
U 1 1 5B087FF0
P 2300 2250
F 0 "R3" V 2380 2250 50  0000 C CNN
F 1 "10k" V 2300 2250 50  0000 C CNN
F 2 "Resistors_THT:R_Axial_DIN0207_L6.3mm_D2.5mm_P2.54mm_Vertical" V 2230 2250 50  0001 C CNN
F 3 "" H 2300 2250 50  0001 C CNN
	1    2300 2250
	1    0    0    -1  
$EndComp
$Comp
L R R4
U 1 1 5B088097
P 2300 2600
F 0 "R4" V 2380 2600 50  0000 C CNN
F 1 "10k" V 2300 2600 50  0000 C CNN
F 2 "Resistors_THT:R_Axial_DIN0207_L6.3mm_D2.5mm_P2.54mm_Vertical" V 2230 2600 50  0001 C CNN
F 3 "" H 2300 2600 50  0001 C CNN
	1    2300 2600
	1    0    0    -1  
$EndComp
$Comp
L Jumper_NC_Small JP1
U 1 1 5B0892A4
P 2100 1850
F 0 "JP1" H 2100 1930 50  0000 C CNN
F 1 "Jumper_NC_Small" H 2110 1790 50  0000 C CNN
F 2 "Pin_Headers:Pin_Header_Straight_1x02_Pitch2.54mm" H 2100 1850 50  0001 C CNN
F 3 "" H 2100 1850 50  0001 C CNN
	1    2100 1850
	0    1    1    0   
$EndComp
$Comp
L D D1
U 1 1 5B08A098
P 2550 2225
F 0 "D1" H 2550 2325 50  0000 C CNN
F 1 "D" H 2550 2125 50  0000 C CNN
F 2 "Diodes_THT:D_A-405_P2.54mm_Vertical_AnodeUp" H 2550 2225 50  0001 C CNN
F 3 "" H 2550 2225 50  0001 C CNN
	1    2550 2225
	0    1    1    0   
$EndComp
$Comp
L D D2
U 1 1 5B08A1CF
P 2550 2625
F 0 "D2" H 2550 2725 50  0000 C CNN
F 1 "D" H 2550 2525 50  0000 C CNN
F 2 "Diodes_THT:D_A-405_P2.54mm_Vertical_AnodeUp" H 2550 2625 50  0001 C CNN
F 3 "" H 2550 2625 50  0001 C CNN
	1    2550 2625
	0    1    1    0   
$EndComp
Text GLabel 9600 1675 1    60   Output ~ 0
3.3V
Text GLabel 2550 1925 1    60   Input ~ 0
3.3V
$Comp
L GND #PWR012
U 1 1 5B08BA76
P 2300 2825
F 0 "#PWR012" H 2300 2575 50  0001 C CNN
F 1 "GND" H 2300 2675 50  0000 C CNN
F 2 "" H 2300 2825 50  0001 C CNN
F 3 "" H 2300 2825 50  0001 C CNN
	1    2300 2825
	1    0    0    -1  
$EndComp
$Comp
L C_Small C1
U 1 1 5B08CC85
P 1925 2250
F 0 "C1" H 1935 2320 50  0000 L CNN
F 1 "100nFl" H 1935 2170 50  0000 L CNN
F 2 "Capacitors_THT:C_Disc_D3.4mm_W2.1mm_P2.50mm" H 1925 2250 50  0001 C CNN
F 3 "" H 1925 2250 50  0001 C CNN
	1    1925 2250
	1    0    0    -1  
$EndComp
$Comp
L R R5
U 1 1 5B08D2F1
P 2950 2275
F 0 "R5" V 3030 2275 50  0000 C CNN
F 1 "500" V 2950 2275 50  0000 C CNN
F 2 "Resistors_THT:R_Axial_DIN0207_L6.3mm_D2.5mm_P2.54mm_Vertical" V 2880 2275 50  0001 C CNN
F 3 "" H 2950 2275 50  0001 C CNN
	1    2950 2275
	1    0    0    -1  
$EndComp
$Comp
L R R6
U 1 1 5B08D2F8
P 3150 1950
F 0 "R6" V 3230 1950 50  0000 C CNN
F 1 "10k" V 3150 1950 50  0000 C CNN
F 2 "Resistors_THT:R_Axial_DIN0207_L6.3mm_D2.5mm_P2.54mm_Vertical" V 3080 1950 50  0001 C CNN
F 3 "" H 3150 1950 50  0001 C CNN
	1    3150 1950
	1    0    0    -1  
$EndComp
$Comp
L R R7
U 1 1 5B08D2FE
P 3150 2300
F 0 "R7" V 3230 2300 50  0000 C CNN
F 1 "10k" V 3150 2300 50  0000 C CNN
F 2 "Resistors_THT:R_Axial_DIN0207_L6.3mm_D2.5mm_P2.54mm_Vertical" V 3080 2300 50  0001 C CNN
F 3 "" H 3150 2300 50  0001 C CNN
	1    3150 2300
	1    0    0    -1  
$EndComp
$Comp
L R R8
U 1 1 5B08D304
P 3150 2650
F 0 "R8" V 3230 2650 50  0000 C CNN
F 1 "10k" V 3150 2650 50  0000 C CNN
F 2 "Resistors_THT:R_Axial_DIN0207_L6.3mm_D2.5mm_P2.54mm_Vertical" V 3080 2650 50  0001 C CNN
F 3 "" H 3150 2650 50  0001 C CNN
	1    3150 2650
	1    0    0    -1  
$EndComp
$Comp
L Jumper_NC_Small JP2
U 1 1 5B08D30C
P 2950 1900
F 0 "JP2" H 2950 1980 50  0000 C CNN
F 1 "Jumper_NC_Small" H 2960 1840 50  0000 C CNN
F 2 "Pin_Headers:Pin_Header_Straight_1x02_Pitch2.54mm" H 2950 1900 50  0001 C CNN
F 3 "" H 2950 1900 50  0001 C CNN
	1    2950 1900
	0    1    1    0   
$EndComp
$Comp
L D D3
U 1 1 5B08D317
P 3400 2275
F 0 "D3" H 3400 2375 50  0000 C CNN
F 1 "D" H 3400 2175 50  0000 C CNN
F 2 "Diodes_THT:D_A-405_P2.54mm_Vertical_AnodeUp" H 3400 2275 50  0001 C CNN
F 3 "" H 3400 2275 50  0001 C CNN
	1    3400 2275
	0    1    1    0   
$EndComp
$Comp
L D D4
U 1 1 5B08D31D
P 3400 2675
F 0 "D4" H 3400 2775 50  0000 C CNN
F 1 "D" H 3400 2575 50  0000 C CNN
F 2 "Diodes_THT:D_A-405_P2.54mm_Vertical_AnodeUp" H 3400 2675 50  0001 C CNN
F 3 "" H 3400 2675 50  0001 C CNN
	1    3400 2675
	0    1    1    0   
$EndComp
Text GLabel 3400 1975 1    60   Input ~ 0
3.3V
$Comp
L GND #PWR013
U 1 1 5B08D328
P 3150 2875
F 0 "#PWR013" H 3150 2625 50  0001 C CNN
F 1 "GND" H 3150 2725 50  0000 C CNN
F 2 "" H 3150 2875 50  0001 C CNN
F 3 "" H 3150 2875 50  0001 C CNN
	1    3150 2875
	1    0    0    -1  
$EndComp
$Comp
L C_Small C2
U 1 1 5B08D334
P 2775 2300
F 0 "C2" H 2785 2370 50  0000 L CNN
F 1 "100nFl" H 2785 2220 50  0000 L CNN
F 2 "Capacitors_THT:C_Disc_D3.4mm_W2.1mm_P2.50mm" H 2775 2300 50  0001 C CNN
F 3 "" H 2775 2300 50  0001 C CNN
	1    2775 2300
	1    0    0    -1  
$EndComp
$Comp
L R R9
U 1 1 5B08D5EE
P 3775 2275
F 0 "R9" V 3855 2275 50  0000 C CNN
F 1 "500" V 3775 2275 50  0000 C CNN
F 2 "Resistors_THT:R_Axial_DIN0207_L6.3mm_D2.5mm_P2.54mm_Vertical" V 3705 2275 50  0001 C CNN
F 3 "" H 3775 2275 50  0001 C CNN
	1    3775 2275
	1    0    0    -1  
$EndComp
$Comp
L R R10
U 1 1 5B08D5F5
P 3975 1950
F 0 "R10" V 4055 1950 50  0000 C CNN
F 1 "10k" V 3975 1950 50  0000 C CNN
F 2 "Resistors_THT:R_Axial_DIN0207_L6.3mm_D2.5mm_P2.54mm_Vertical" V 3905 1950 50  0001 C CNN
F 3 "" H 3975 1950 50  0001 C CNN
	1    3975 1950
	1    0    0    -1  
$EndComp
$Comp
L R R11
U 1 1 5B08D5FB
P 3975 2300
F 0 "R11" V 4055 2300 50  0000 C CNN
F 1 "10k" V 3975 2300 50  0000 C CNN
F 2 "Resistors_THT:R_Axial_DIN0207_L6.3mm_D2.5mm_P2.54mm_Vertical" V 3905 2300 50  0001 C CNN
F 3 "" H 3975 2300 50  0001 C CNN
	1    3975 2300
	1    0    0    -1  
$EndComp
$Comp
L R R12
U 1 1 5B08D601
P 3975 2650
F 0 "R12" V 4055 2650 50  0000 C CNN
F 1 "10k" V 3975 2650 50  0000 C CNN
F 2 "Resistors_THT:R_Axial_DIN0207_L6.3mm_D2.5mm_P2.54mm_Vertical" V 3905 2650 50  0001 C CNN
F 3 "" H 3975 2650 50  0001 C CNN
	1    3975 2650
	1    0    0    -1  
$EndComp
$Comp
L Jumper_NC_Small JP3
U 1 1 5B08D609
P 3775 1900
F 0 "JP3" H 3775 1980 50  0000 C CNN
F 1 "Jumper_NC_Small" H 3785 1840 50  0000 C CNN
F 2 "Pin_Headers:Pin_Header_Straight_1x02_Pitch2.54mm" H 3775 1900 50  0001 C CNN
F 3 "" H 3775 1900 50  0001 C CNN
	1    3775 1900
	0    1    1    0   
$EndComp
$Comp
L D D5
U 1 1 5B08D614
P 4225 2275
F 0 "D5" H 4225 2375 50  0000 C CNN
F 1 "D" H 4225 2175 50  0000 C CNN
F 2 "Diodes_THT:D_A-405_P2.54mm_Vertical_AnodeUp" H 4225 2275 50  0001 C CNN
F 3 "" H 4225 2275 50  0001 C CNN
	1    4225 2275
	0    1    1    0   
$EndComp
$Comp
L D D6
U 1 1 5B08D61A
P 4225 2675
F 0 "D6" H 4225 2775 50  0000 C CNN
F 1 "D" H 4225 2575 50  0000 C CNN
F 2 "Diodes_THT:D_A-405_P2.54mm_Vertical_AnodeUp" H 4225 2675 50  0001 C CNN
F 3 "" H 4225 2675 50  0001 C CNN
	1    4225 2675
	0    1    1    0   
$EndComp
Text GLabel 4225 1975 1    60   Input ~ 0
3.3V
$Comp
L GND #PWR014
U 1 1 5B08D625
P 3975 2875
F 0 "#PWR014" H 3975 2625 50  0001 C CNN
F 1 "GND" H 3975 2725 50  0000 C CNN
F 2 "" H 3975 2875 50  0001 C CNN
F 3 "" H 3975 2875 50  0001 C CNN
	1    3975 2875
	1    0    0    -1  
$EndComp
$Comp
L C_Small C3
U 1 1 5B08D631
P 3600 2300
F 0 "C3" H 3610 2370 50  0000 L CNN
F 1 "100nFl" H 3610 2220 50  0000 L CNN
F 2 "Capacitors_THT:C_Disc_D3.4mm_W2.1mm_P2.50mm" H 3600 2300 50  0001 C CNN
F 3 "" H 3600 2300 50  0001 C CNN
	1    3600 2300
	1    0    0    -1  
$EndComp
$Comp
L R R13
U 1 1 5B08D63B
P 4625 2325
F 0 "R13" V 4705 2325 50  0000 C CNN
F 1 "500" V 4625 2325 50  0000 C CNN
F 2 "Resistors_THT:R_Axial_DIN0207_L6.3mm_D2.5mm_P2.54mm_Vertical" V 4555 2325 50  0001 C CNN
F 3 "" H 4625 2325 50  0001 C CNN
	1    4625 2325
	1    0    0    -1  
$EndComp
$Comp
L R R14
U 1 1 5B08D642
P 4825 2000
F 0 "R14" V 4905 2000 50  0000 C CNN
F 1 "10k" V 4825 2000 50  0000 C CNN
F 2 "Resistors_THT:R_Axial_DIN0207_L6.3mm_D2.5mm_P2.54mm_Vertical" V 4755 2000 50  0001 C CNN
F 3 "" H 4825 2000 50  0001 C CNN
	1    4825 2000
	1    0    0    -1  
$EndComp
$Comp
L R R15
U 1 1 5B08D648
P 4825 2350
F 0 "R15" V 4905 2350 50  0000 C CNN
F 1 "10k" V 4825 2350 50  0000 C CNN
F 2 "Resistors_THT:R_Axial_DIN0207_L6.3mm_D2.5mm_P2.54mm_Vertical" V 4755 2350 50  0001 C CNN
F 3 "" H 4825 2350 50  0001 C CNN
	1    4825 2350
	1    0    0    -1  
$EndComp
$Comp
L R R16
U 1 1 5B08D64E
P 4825 2700
F 0 "R16" V 4905 2700 50  0000 C CNN
F 1 "10k" V 4825 2700 50  0000 C CNN
F 2 "Resistors_THT:R_Axial_DIN0207_L6.3mm_D2.5mm_P2.54mm_Vertical" V 4755 2700 50  0001 C CNN
F 3 "" H 4825 2700 50  0001 C CNN
	1    4825 2700
	1    0    0    -1  
$EndComp
$Comp
L Jumper_NC_Small JP4
U 1 1 5B08D656
P 4625 1950
F 0 "JP4" H 4625 2030 50  0000 C CNN
F 1 "Jumper_NC_Small" H 4635 1890 50  0000 C CNN
F 2 "Pin_Headers:Pin_Header_Straight_1x02_Pitch2.54mm" H 4625 1950 50  0001 C CNN
F 3 "" H 4625 1950 50  0001 C CNN
	1    4625 1950
	0    1    1    0   
$EndComp
$Comp
L D D7
U 1 1 5B08D661
P 5075 2325
F 0 "D7" H 5075 2425 50  0000 C CNN
F 1 "D" H 5075 2225 50  0000 C CNN
F 2 "Diodes_THT:D_A-405_P2.54mm_Vertical_AnodeUp" H 5075 2325 50  0001 C CNN
F 3 "" H 5075 2325 50  0001 C CNN
	1    5075 2325
	0    1    1    0   
$EndComp
$Comp
L D D8
U 1 1 5B08D667
P 5075 2725
F 0 "D8" H 5075 2825 50  0000 C CNN
F 1 "D" H 5075 2625 50  0000 C CNN
F 2 "Diodes_THT:D_A-405_P2.54mm_Vertical_AnodeUp" H 5075 2725 50  0001 C CNN
F 3 "" H 5075 2725 50  0001 C CNN
	1    5075 2725
	0    1    1    0   
$EndComp
Text GLabel 5075 2025 1    60   Input ~ 0
3.3V
$Comp
L GND #PWR015
U 1 1 5B08D672
P 4825 2925
F 0 "#PWR015" H 4825 2675 50  0001 C CNN
F 1 "GND" H 4825 2775 50  0000 C CNN
F 2 "" H 4825 2925 50  0001 C CNN
F 3 "" H 4825 2925 50  0001 C CNN
	1    4825 2925
	1    0    0    -1  
$EndComp
$Comp
L C_Small C4
U 1 1 5B08D67E
P 4450 2350
F 0 "C4" H 4460 2420 50  0000 L CNN
F 1 "100nFl" H 4460 2270 50  0000 L CNN
F 2 "Capacitors_THT:C_Disc_D3.4mm_W2.1mm_P2.50mm" H 4450 2350 50  0001 C CNN
F 3 "" H 4450 2350 50  0001 C CNN
	1    4450 2350
	1    0    0    -1  
$EndComp
$Comp
L R R17
U 1 1 5B08E462
P 5500 2325
F 0 "R17" V 5580 2325 50  0000 C CNN
F 1 "500" V 5500 2325 50  0000 C CNN
F 2 "Resistors_THT:R_Axial_DIN0207_L6.3mm_D2.5mm_P2.54mm_Vertical" V 5430 2325 50  0001 C CNN
F 3 "" H 5500 2325 50  0001 C CNN
	1    5500 2325
	1    0    0    -1  
$EndComp
$Comp
L R R18
U 1 1 5B08E469
P 5700 2000
F 0 "R18" V 5780 2000 50  0000 C CNN
F 1 "10k" V 5700 2000 50  0000 C CNN
F 2 "Resistors_THT:R_Axial_DIN0207_L6.3mm_D2.5mm_P2.54mm_Vertical" V 5630 2000 50  0001 C CNN
F 3 "" H 5700 2000 50  0001 C CNN
	1    5700 2000
	1    0    0    -1  
$EndComp
$Comp
L R R19
U 1 1 5B08E46F
P 5700 2350
F 0 "R19" V 5780 2350 50  0000 C CNN
F 1 "10k" V 5700 2350 50  0000 C CNN
F 2 "Resistors_THT:R_Axial_DIN0207_L6.3mm_D2.5mm_P2.54mm_Vertical" V 5630 2350 50  0001 C CNN
F 3 "" H 5700 2350 50  0001 C CNN
	1    5700 2350
	1    0    0    -1  
$EndComp
$Comp
L R R20
U 1 1 5B08E475
P 5700 2700
F 0 "R20" V 5780 2700 50  0000 C CNN
F 1 "10k" V 5700 2700 50  0000 C CNN
F 2 "Resistors_THT:R_Axial_DIN0207_L6.3mm_D2.5mm_P2.54mm_Vertical" V 5630 2700 50  0001 C CNN
F 3 "" H 5700 2700 50  0001 C CNN
	1    5700 2700
	1    0    0    -1  
$EndComp
$Comp
L Jumper_NC_Small JP5
U 1 1 5B08E47D
P 5500 1950
F 0 "JP5" H 5500 2030 50  0000 C CNN
F 1 "Jumper_NC_Small" H 5510 1890 50  0000 C CNN
F 2 "Pin_Headers:Pin_Header_Straight_1x02_Pitch2.54mm" H 5500 1950 50  0001 C CNN
F 3 "" H 5500 1950 50  0001 C CNN
	1    5500 1950
	0    1    1    0   
$EndComp
$Comp
L D D9
U 1 1 5B08E488
P 5950 2325
F 0 "D9" H 5950 2425 50  0000 C CNN
F 1 "D" H 5950 2225 50  0000 C CNN
F 2 "Diodes_THT:D_A-405_P2.54mm_Vertical_AnodeUp" H 5950 2325 50  0001 C CNN
F 3 "" H 5950 2325 50  0001 C CNN
	1    5950 2325
	0    1    1    0   
$EndComp
$Comp
L D D10
U 1 1 5B08E48E
P 5950 2725
F 0 "D10" H 5950 2825 50  0000 C CNN
F 1 "D" H 5950 2625 50  0000 C CNN
F 2 "Diodes_THT:D_A-405_P2.54mm_Vertical_AnodeUp" H 5950 2725 50  0001 C CNN
F 3 "" H 5950 2725 50  0001 C CNN
	1    5950 2725
	0    1    1    0   
$EndComp
Text GLabel 5950 2025 1    60   Input ~ 0
3.3V
$Comp
L GND #PWR016
U 1 1 5B08E499
P 5700 2925
F 0 "#PWR016" H 5700 2675 50  0001 C CNN
F 1 "GND" H 5700 2775 50  0000 C CNN
F 2 "" H 5700 2925 50  0001 C CNN
F 3 "" H 5700 2925 50  0001 C CNN
	1    5700 2925
	1    0    0    -1  
$EndComp
$Comp
L C_Small C5
U 1 1 5B08E4A5
P 5325 2350
F 0 "C5" H 5335 2420 50  0000 L CNN
F 1 "100nFl" H 5335 2270 50  0000 L CNN
F 2 "Capacitors_THT:C_Disc_D3.4mm_W2.1mm_P2.50mm" H 5325 2350 50  0001 C CNN
F 3 "" H 5325 2350 50  0001 C CNN
	1    5325 2350
	1    0    0    -1  
$EndComp
$Comp
L R R21
U 1 1 5B08E4AF
P 6350 2375
F 0 "R21" V 6430 2375 50  0000 C CNN
F 1 "500" V 6350 2375 50  0000 C CNN
F 2 "Resistors_THT:R_Axial_DIN0207_L6.3mm_D2.5mm_P2.54mm_Vertical" V 6280 2375 50  0001 C CNN
F 3 "" H 6350 2375 50  0001 C CNN
	1    6350 2375
	1    0    0    -1  
$EndComp
$Comp
L R R22
U 1 1 5B08E4B6
P 6550 2050
F 0 "R22" V 6630 2050 50  0000 C CNN
F 1 "10k" V 6550 2050 50  0000 C CNN
F 2 "Resistors_THT:R_Axial_DIN0207_L6.3mm_D2.5mm_P2.54mm_Vertical" V 6480 2050 50  0001 C CNN
F 3 "" H 6550 2050 50  0001 C CNN
	1    6550 2050
	1    0    0    -1  
$EndComp
$Comp
L R R23
U 1 1 5B08E4BC
P 6550 2400
F 0 "R23" V 6630 2400 50  0000 C CNN
F 1 "10k" V 6550 2400 50  0000 C CNN
F 2 "Resistors_THT:R_Axial_DIN0207_L6.3mm_D2.5mm_P2.54mm_Vertical" V 6480 2400 50  0001 C CNN
F 3 "" H 6550 2400 50  0001 C CNN
	1    6550 2400
	1    0    0    -1  
$EndComp
$Comp
L R R24
U 1 1 5B08E4C2
P 6550 2750
F 0 "R24" V 6630 2750 50  0000 C CNN
F 1 "10k" V 6550 2750 50  0000 C CNN
F 2 "Resistors_THT:R_Axial_DIN0207_L6.3mm_D2.5mm_P2.54mm_Vertical" V 6480 2750 50  0001 C CNN
F 3 "" H 6550 2750 50  0001 C CNN
	1    6550 2750
	1    0    0    -1  
$EndComp
$Comp
L Jumper_NC_Small JP6
U 1 1 5B08E4CA
P 6350 2000
F 0 "JP6" H 6350 2080 50  0000 C CNN
F 1 "Jumper_NC_Small" H 6360 1940 50  0000 C CNN
F 2 "Pin_Headers:Pin_Header_Straight_1x02_Pitch2.54mm" H 6350 2000 50  0001 C CNN
F 3 "" H 6350 2000 50  0001 C CNN
	1    6350 2000
	0    1    1    0   
$EndComp
$Comp
L D D11
U 1 1 5B08E4D5
P 6800 2375
F 0 "D11" H 6800 2475 50  0000 C CNN
F 1 "D" H 6800 2275 50  0000 C CNN
F 2 "Diodes_THT:D_A-405_P2.54mm_Vertical_AnodeUp" H 6800 2375 50  0001 C CNN
F 3 "" H 6800 2375 50  0001 C CNN
	1    6800 2375
	0    1    1    0   
$EndComp
$Comp
L D D12
U 1 1 5B08E4DB
P 6800 2775
F 0 "D12" H 6800 2875 50  0000 C CNN
F 1 "D" H 6800 2675 50  0000 C CNN
F 2 "Diodes_THT:D_A-405_P2.54mm_Vertical_AnodeUp" H 6800 2775 50  0001 C CNN
F 3 "" H 6800 2775 50  0001 C CNN
	1    6800 2775
	0    1    1    0   
$EndComp
Text GLabel 6800 2075 1    60   Input ~ 0
3.3V
$Comp
L GND #PWR017
U 1 1 5B08E4E6
P 6550 2975
F 0 "#PWR017" H 6550 2725 50  0001 C CNN
F 1 "GND" H 6550 2825 50  0000 C CNN
F 2 "" H 6550 2975 50  0001 C CNN
F 3 "" H 6550 2975 50  0001 C CNN
	1    6550 2975
	1    0    0    -1  
$EndComp
$Comp
L C_Small C6
U 1 1 5B08E4F2
P 6175 2400
F 0 "C6" H 6185 2470 50  0000 L CNN
F 1 "100nFl" H 6185 2320 50  0000 L CNN
F 2 "Capacitors_THT:C_Disc_D3.4mm_W2.1mm_P2.50mm" H 6175 2400 50  0001 C CNN
F 3 "" H 6175 2400 50  0001 C CNN
	1    6175 2400
	1    0    0    -1  
$EndComp
$Comp
L R R25
U 1 1 5B08E4FC
P 7175 2375
F 0 "R25" V 7255 2375 50  0000 C CNN
F 1 "500" V 7175 2375 50  0000 C CNN
F 2 "Resistors_THT:R_Axial_DIN0207_L6.3mm_D2.5mm_P2.54mm_Vertical" V 7105 2375 50  0001 C CNN
F 3 "" H 7175 2375 50  0001 C CNN
	1    7175 2375
	1    0    0    -1  
$EndComp
$Comp
L R R26
U 1 1 5B08E503
P 7375 2050
F 0 "R26" V 7455 2050 50  0000 C CNN
F 1 "10k" V 7375 2050 50  0000 C CNN
F 2 "Resistors_THT:R_Axial_DIN0207_L6.3mm_D2.5mm_P2.54mm_Vertical" V 7305 2050 50  0001 C CNN
F 3 "" H 7375 2050 50  0001 C CNN
	1    7375 2050
	1    0    0    -1  
$EndComp
$Comp
L R R27
U 1 1 5B08E509
P 7375 2400
F 0 "R27" V 7455 2400 50  0000 C CNN
F 1 "10k" V 7375 2400 50  0000 C CNN
F 2 "Resistors_THT:R_Axial_DIN0207_L6.3mm_D2.5mm_P2.54mm_Vertical" V 7305 2400 50  0001 C CNN
F 3 "" H 7375 2400 50  0001 C CNN
	1    7375 2400
	1    0    0    -1  
$EndComp
$Comp
L R R28
U 1 1 5B08E50F
P 7375 2750
F 0 "R28" V 7455 2750 50  0000 C CNN
F 1 "10k" V 7375 2750 50  0000 C CNN
F 2 "Resistors_THT:R_Axial_DIN0207_L6.3mm_D2.5mm_P2.54mm_Vertical" V 7305 2750 50  0001 C CNN
F 3 "" H 7375 2750 50  0001 C CNN
	1    7375 2750
	1    0    0    -1  
$EndComp
$Comp
L Jumper_NC_Small JP7
U 1 1 5B08E517
P 7175 2000
F 0 "JP7" H 7175 2080 50  0000 C CNN
F 1 "Jumper_NC_Small" H 7185 1940 50  0000 C CNN
F 2 "Pin_Headers:Pin_Header_Straight_1x02_Pitch2.54mm" H 7175 2000 50  0001 C CNN
F 3 "" H 7175 2000 50  0001 C CNN
	1    7175 2000
	0    1    1    0   
$EndComp
$Comp
L D D13
U 1 1 5B08E522
P 7625 2375
F 0 "D13" H 7625 2475 50  0000 C CNN
F 1 "D" H 7625 2275 50  0000 C CNN
F 2 "Diodes_THT:D_A-405_P2.54mm_Vertical_AnodeUp" H 7625 2375 50  0001 C CNN
F 3 "" H 7625 2375 50  0001 C CNN
	1    7625 2375
	0    1    1    0   
$EndComp
$Comp
L D D14
U 1 1 5B08E528
P 7625 2775
F 0 "D14" H 7625 2875 50  0000 C CNN
F 1 "D" H 7625 2675 50  0000 C CNN
F 2 "Diodes_THT:D_A-405_P2.54mm_Vertical_AnodeUp" H 7625 2775 50  0001 C CNN
F 3 "" H 7625 2775 50  0001 C CNN
	1    7625 2775
	0    1    1    0   
$EndComp
Text GLabel 7625 2075 1    60   Input ~ 0
3.3V
$Comp
L GND #PWR018
U 1 1 5B08E533
P 7375 2975
F 0 "#PWR018" H 7375 2725 50  0001 C CNN
F 1 "GND" H 7375 2825 50  0000 C CNN
F 2 "" H 7375 2975 50  0001 C CNN
F 3 "" H 7375 2975 50  0001 C CNN
	1    7375 2975
	1    0    0    -1  
$EndComp
$Comp
L C_Small C7
U 1 1 5B08E53F
P 7000 2400
F 0 "C7" H 7010 2470 50  0000 L CNN
F 1 "100nFl" H 7010 2320 50  0000 L CNN
F 2 "Capacitors_THT:C_Disc_D3.4mm_W2.1mm_P2.50mm" H 7000 2400 50  0001 C CNN
F 3 "" H 7000 2400 50  0001 C CNN
	1    7000 2400
	1    0    0    -1  
$EndComp
$Comp
L R R29
U 1 1 5B08E549
P 8025 2425
F 0 "R29" V 8105 2425 50  0000 C CNN
F 1 "500" V 8025 2425 50  0000 C CNN
F 2 "Resistors_THT:R_Axial_DIN0207_L6.3mm_D2.5mm_P2.54mm_Vertical" V 7955 2425 50  0001 C CNN
F 3 "" H 8025 2425 50  0001 C CNN
	1    8025 2425
	1    0    0    -1  
$EndComp
$Comp
L R R30
U 1 1 5B08E550
P 8225 2100
F 0 "R30" V 8305 2100 50  0000 C CNN
F 1 "10k" V 8225 2100 50  0000 C CNN
F 2 "Resistors_THT:R_Axial_DIN0207_L6.3mm_D2.5mm_P2.54mm_Vertical" V 8155 2100 50  0001 C CNN
F 3 "" H 8225 2100 50  0001 C CNN
	1    8225 2100
	1    0    0    -1  
$EndComp
$Comp
L R R31
U 1 1 5B08E556
P 8225 2450
F 0 "R31" V 8305 2450 50  0000 C CNN
F 1 "10k" V 8225 2450 50  0000 C CNN
F 2 "Resistors_THT:R_Axial_DIN0207_L6.3mm_D2.5mm_P2.54mm_Vertical" V 8155 2450 50  0001 C CNN
F 3 "" H 8225 2450 50  0001 C CNN
	1    8225 2450
	1    0    0    -1  
$EndComp
$Comp
L R R32
U 1 1 5B08E55C
P 8225 2800
F 0 "R32" V 8305 2800 50  0000 C CNN
F 1 "10k" V 8225 2800 50  0000 C CNN
F 2 "Resistors_THT:R_Axial_DIN0207_L6.3mm_D2.5mm_P2.54mm_Vertical" V 8155 2800 50  0001 C CNN
F 3 "" H 8225 2800 50  0001 C CNN
	1    8225 2800
	1    0    0    -1  
$EndComp
$Comp
L Jumper_NC_Small JP8
U 1 1 5B08E564
P 8025 2050
F 0 "JP8" H 8025 2130 50  0000 C CNN
F 1 "Jumper_NC_Small" H 8035 1990 50  0000 C CNN
F 2 "Pin_Headers:Pin_Header_Straight_1x02_Pitch2.54mm" H 8025 2050 50  0001 C CNN
F 3 "" H 8025 2050 50  0001 C CNN
	1    8025 2050
	0    1    1    0   
$EndComp
$Comp
L D D15
U 1 1 5B08E56F
P 8475 2425
F 0 "D15" H 8475 2525 50  0000 C CNN
F 1 "D" H 8475 2325 50  0000 C CNN
F 2 "Diodes_THT:D_A-405_P2.54mm_Vertical_AnodeUp" H 8475 2425 50  0001 C CNN
F 3 "" H 8475 2425 50  0001 C CNN
	1    8475 2425
	0    1    1    0   
$EndComp
$Comp
L D D16
U 1 1 5B08E575
P 8475 2825
F 0 "D16" H 8475 2925 50  0000 C CNN
F 1 "D" H 8475 2725 50  0000 C CNN
F 2 "Diodes_THT:D_A-405_P2.54mm_Vertical_AnodeUp" H 8475 2825 50  0001 C CNN
F 3 "" H 8475 2825 50  0001 C CNN
	1    8475 2825
	0    1    1    0   
$EndComp
Text GLabel 8475 2125 1    60   Input ~ 0
3.3V
$Comp
L GND #PWR019
U 1 1 5B08E580
P 8225 3025
F 0 "#PWR019" H 8225 2775 50  0001 C CNN
F 1 "GND" H 8225 2875 50  0000 C CNN
F 2 "" H 8225 3025 50  0001 C CNN
F 3 "" H 8225 3025 50  0001 C CNN
	1    8225 3025
	1    0    0    -1  
$EndComp
$Comp
L C_Small C8
U 1 1 5B08E58C
P 7850 2450
F 0 "C8" H 7860 2520 50  0000 L CNN
F 1 "100nFl" H 7860 2370 50  0000 L CNN
F 2 "Capacitors_THT:C_Disc_D3.4mm_W2.1mm_P2.50mm" H 7850 2450 50  0001 C CNN
F 3 "" H 7850 2450 50  0001 C CNN
	1    7850 2450
	1    0    0    -1  
$EndComp
Text GLabel 8250 3300 2    60   Input ~ 0
3.3V
Text GLabel 8150 3850 2    60   Output ~ 0
Dout
Text GLabel 8150 3975 2    60   Input ~ 0
Din
Text GLabel 8150 3725 2    60   Input ~ 0
CLK
Text GLabel 8450 4900 2    60   Input ~ 0
GPIO_26
Text GLabel 9200 2925 0    60   Output ~ 0
CLK
Text GLabel 9025 2750 0    60   Output ~ 0
Din
Text GLabel 9450 2850 0    60   Input ~ 0
Dout
Text GLabel 10250 3050 2    60   Output ~ 0
GPIO_26
Text GLabel 10900 4575 2    60   Output ~ 0
24V
Text GLabel 1375 1475 0    60   Input ~ 0
24V
Text GLabel 9150 3350 0    60   Output ~ 0
GPIO_31
NoConn ~ 10125 1850
NoConn ~ 10125 1950
NoConn ~ 10125 2050
NoConn ~ 10125 2150
NoConn ~ 10125 2250
NoConn ~ 10125 2350
NoConn ~ 10125 2450
NoConn ~ 10125 2550
NoConn ~ 10125 2650
NoConn ~ 10125 2750
NoConn ~ 10125 2850
NoConn ~ 9625 1950
NoConn ~ 9625 2050
NoConn ~ 9625 2150
NoConn ~ 9625 2350
NoConn ~ 9625 2450
NoConn ~ 9625 2550
NoConn ~ 9625 2650
NoConn ~ 9625 3150
NoConn ~ 9625 3250
NoConn ~ 9625 3450
NoConn ~ 9625 3550
NoConn ~ 9625 3650
NoConn ~ 9625 3750
NoConn ~ 10125 3750
NoConn ~ 10125 3650
NoConn ~ 10125 3550
NoConn ~ 10125 3450
NoConn ~ 10125 3350
NoConn ~ 10125 3250
NoConn ~ 10125 3150
NoConn ~ 10125 2950
$Comp
L Polyfuse F1
U 1 1 5B095ED9
P 10650 4575
F 0 "F1" V 10550 4575 50  0000 C CNN
F 1 "2A" V 10750 4575 50  0000 C CNN
F 2 "Fuse_Holders_and_Fuses:Fuse_TE5_Littlefuse-395Series" H 10700 4375 50  0001 L CNN
F 3 "" H 10650 4575 50  0001 C CNN
	1    10650 4575
	0    1    1    0   
$EndComp
$Comp
L Jumper_NC_Small JP9
U 1 1 5B099BEE
P 8100 4900
F 0 "JP9" H 8100 4980 50  0000 C CNN
F 1 "Jumper_NC_Small" H 8110 4840 50  0000 C CNN
F 2 "Pin_Headers:Pin_Header_Straight_1x02_Pitch2.54mm" H 8100 4900 50  0001 C CNN
F 3 "" H 8100 4900 50  0001 C CNN
	1    8100 4900
	1    0    0    -1  
$EndComp
$Comp
L Jumper_NC_Small JP10
U 1 1 5B099D25
P 8100 5100
F 0 "JP10" H 8100 5180 50  0000 C CNN
F 1 "Jumper_NC_Small" H 8110 5040 50  0000 C CNN
F 2 "Pin_Headers:Pin_Header_Straight_1x02_Pitch2.54mm" H 8100 5100 50  0001 C CNN
F 3 "" H 8100 5100 50  0001 C CNN
	1    8100 5100
	1    0    0    -1  
$EndComp
Text GLabel 8450 5100 2    60   Input ~ 0
GPIO_31
NoConn ~ 9625 3050
$Comp
L C C9
U 1 1 5B18E854
P 7975 3525
F 0 "C9" H 8000 3625 50  0000 L CNN
F 1 "0.1uF" H 8000 3425 50  0000 L CNN
F 2 "Capacitors_THT:C_Disc_D5.0mm_W2.5mm_P2.50mm" H 8013 3375 50  0001 C CNN
F 3 "" H 7975 3525 50  0001 C CNN
	1    7975 3525
	0    1    1    0   
$EndComp
$Comp
L GND #PWR020
U 1 1 5B18EAE4
P 8575 3575
F 0 "#PWR020" H 8575 3325 50  0001 C CNN
F 1 "GND" H 8575 3425 50  0000 C CNN
F 2 "" H 8575 3575 50  0001 C CNN
F 3 "" H 8575 3575 50  0001 C CNN
	1    8575 3575
	1    0    0    -1  
$EndComp
$Comp
L R R33
U 1 1 5B18FB13
P 7975 4225
F 0 "R33" V 8055 4225 50  0000 C CNN
F 1 "10k" V 7975 4225 50  0000 C CNN
F 2 "Resistors_THT:R_Axial_DIN0207_L6.3mm_D2.5mm_P2.54mm_Vertical" V 7905 4225 50  0001 C CNN
F 3 "" H 7975 4225 50  0001 C CNN
	1    7975 4225
	1    0    0    -1  
$EndComp
Wire Notes Line
	2675 900  2725 900 
Wire Notes Line
	3125 900  3175 900 
Wire Notes Line
	3575 900  3625 900 
Wire Notes Line
	4025 900  4075 900 
Wire Notes Line
	4525 900  4575 900 
Wire Notes Line
	4975 900  5025 900 
Wire Notes Line
	5425 900  5475 900 
Wire Notes Line
	5875 900  5925 900 
Wire Wire Line
	3125 1475 3125 1150
Connection ~ 8275 2025
Wire Wire Line
	9600 1850 9625 1850
Wire Wire Line
	2300 1725 2300 1750
Wire Wire Line
	2300 2050 2300 2100
Wire Wire Line
	2300 2400 2300 2450
Wire Wire Line
	1925 1725 2300 1725
Wire Wire Line
	2100 1575 2100 1750
Wire Wire Line
	2100 1950 2100 2075
Wire Wire Line
	2300 2425 2675 2425
Connection ~ 2300 2425
Wire Wire Line
	2550 2375 2550 2475
Connection ~ 2550 2425
Wire Wire Line
	2300 2750 2300 2825
Wire Wire Line
	9600 1675 9600 1850
Wire Wire Line
	2550 1925 2550 2075
Wire Wire Line
	2675 1150 2675 1475
Wire Wire Line
	1375 1475 5875 1475
Wire Wire Line
	5875 1475 5875 1150
Wire Wire Line
	5425 1475 5425 1150
Connection ~ 5425 1475
Wire Wire Line
	4975 1150 4975 1475
Connection ~ 4975 1475
Wire Wire Line
	4525 1150 4525 1475
Connection ~ 4525 1475
Wire Wire Line
	4025 1150 4025 1475
Connection ~ 4025 1475
Wire Wire Line
	3575 1150 3575 1475
Connection ~ 3575 1475
Connection ~ 3125 1475
Connection ~ 2675 1475
Wire Wire Line
	2100 2375 2100 2800
Wire Wire Line
	1925 2800 2550 2800
Connection ~ 2300 2800
Wire Wire Line
	2550 2800 2550 2775
Wire Wire Line
	1925 1725 1925 2150
Connection ~ 2100 1725
Wire Wire Line
	1925 2350 1925 2800
Connection ~ 2100 2800
Wire Wire Line
	3150 1775 3150 1800
Wire Wire Line
	3150 2100 3150 2150
Wire Wire Line
	3150 2450 3150 2500
Wire Wire Line
	2775 1775 3150 1775
Wire Wire Line
	2950 1600 2950 1800
Wire Wire Line
	2950 2000 2950 2125
Wire Wire Line
	3150 2475 3525 2475
Connection ~ 3150 2475
Wire Wire Line
	3400 2425 3400 2525
Connection ~ 3400 2475
Wire Wire Line
	3150 2800 3150 2875
Wire Wire Line
	3400 1975 3400 2125
Wire Wire Line
	2950 2425 2950 2850
Wire Wire Line
	2775 2850 3400 2850
Connection ~ 3150 2850
Wire Wire Line
	3400 2850 3400 2825
Wire Wire Line
	2775 1775 2775 2200
Connection ~ 2950 1775
Wire Wire Line
	2775 2400 2775 2850
Connection ~ 2950 2850
Wire Wire Line
	3975 1775 3975 1800
Wire Wire Line
	3975 2100 3975 2150
Wire Wire Line
	3975 2450 3975 2500
Wire Wire Line
	3600 1775 3975 1775
Wire Wire Line
	3775 1650 3775 1800
Wire Wire Line
	3775 2000 3775 2125
Wire Wire Line
	3975 2475 4350 2475
Connection ~ 3975 2475
Wire Wire Line
	4225 2425 4225 2525
Connection ~ 4225 2475
Wire Wire Line
	3975 2800 3975 2875
Wire Wire Line
	4225 1975 4225 2125
Wire Wire Line
	3775 2425 3775 2850
Wire Wire Line
	3600 2850 4225 2850
Connection ~ 3975 2850
Wire Wire Line
	4225 2850 4225 2825
Connection ~ 3925 1775
Wire Wire Line
	3600 1775 3600 2200
Connection ~ 3775 1775
Wire Wire Line
	3600 2400 3600 2850
Connection ~ 3775 2850
Wire Wire Line
	4825 1825 4825 1850
Wire Wire Line
	4825 2150 4825 2200
Wire Wire Line
	4825 2500 4825 2550
Wire Wire Line
	4450 1825 4825 1825
Wire Wire Line
	4625 1625 4625 1850
Wire Wire Line
	4625 2050 4625 2175
Wire Wire Line
	4825 2525 5200 2525
Connection ~ 4825 2525
Wire Wire Line
	5075 2475 5075 2575
Connection ~ 5075 2525
Wire Wire Line
	4825 2850 4825 2925
Wire Wire Line
	5075 2025 5075 2175
Wire Wire Line
	4625 2475 4625 2900
Wire Wire Line
	4450 2900 5075 2900
Connection ~ 4825 2900
Wire Wire Line
	5075 2900 5075 2875
Connection ~ 4775 1825
Wire Wire Line
	4450 1825 4450 2250
Connection ~ 4625 1825
Wire Wire Line
	4450 2450 4450 2900
Connection ~ 4625 2900
Wire Wire Line
	5700 1825 5700 1850
Wire Wire Line
	5700 2150 5700 2200
Wire Wire Line
	5700 2500 5700 2550
Wire Wire Line
	5325 1825 5700 1825
Wire Wire Line
	5500 1575 5500 1850
Wire Wire Line
	5500 2050 5500 2175
Wire Wire Line
	5700 2525 6075 2525
Connection ~ 5700 2525
Wire Wire Line
	5950 2475 5950 2575
Connection ~ 5950 2525
Wire Wire Line
	5700 2850 5700 2925
Wire Wire Line
	5950 2025 5950 2175
Wire Wire Line
	5500 2475 5500 2900
Wire Wire Line
	5325 2900 5950 2900
Connection ~ 5700 2900
Wire Wire Line
	5950 2900 5950 2875
Connection ~ 5650 1825
Wire Wire Line
	5325 1825 5325 2250
Connection ~ 5500 1825
Wire Wire Line
	5325 2450 5325 2900
Connection ~ 5500 2900
Wire Wire Line
	6550 1875 6550 1900
Wire Wire Line
	6550 2200 6550 2250
Wire Wire Line
	6550 2550 6550 2600
Wire Wire Line
	6175 1875 6550 1875
Wire Wire Line
	6350 1625 6350 1900
Wire Wire Line
	6350 2100 6350 2225
Wire Wire Line
	6550 2575 6925 2575
Connection ~ 6550 2575
Wire Wire Line
	6800 2525 6800 2625
Connection ~ 6800 2575
Wire Wire Line
	6550 2900 6550 2975
Wire Wire Line
	6800 2075 6800 2225
Wire Wire Line
	6350 2525 6350 2950
Wire Wire Line
	6175 2950 6800 2950
Connection ~ 6550 2950
Wire Wire Line
	6800 2950 6800 2925
Connection ~ 6500 1875
Wire Wire Line
	6175 1875 6175 2300
Connection ~ 6350 1875
Wire Wire Line
	6175 2500 6175 2950
Connection ~ 6350 2950
Wire Wire Line
	7375 1875 7375 1900
Wire Wire Line
	7375 2200 7375 2250
Wire Wire Line
	7375 2550 7375 2600
Wire Wire Line
	7000 1875 7375 1875
Wire Wire Line
	7175 1575 7175 1900
Wire Wire Line
	7175 2100 7175 2225
Wire Wire Line
	7375 2575 7750 2575
Connection ~ 7375 2575
Wire Wire Line
	7625 2525 7625 2625
Connection ~ 7625 2575
Wire Wire Line
	7375 2900 7375 2975
Wire Wire Line
	7625 2075 7625 2225
Wire Wire Line
	7175 2525 7175 2950
Wire Wire Line
	7000 2950 7625 2950
Connection ~ 7375 2950
Wire Wire Line
	7625 2950 7625 2925
Connection ~ 7325 1875
Wire Wire Line
	7000 1875 7000 2300
Connection ~ 7175 1875
Wire Wire Line
	7000 2500 7000 2950
Connection ~ 7175 2950
Wire Wire Line
	8225 1925 8225 1950
Wire Wire Line
	8225 2250 8225 2300
Wire Wire Line
	8225 2600 8225 2650
Wire Wire Line
	7850 1925 8225 1925
Wire Wire Line
	8025 1475 8025 1950
Wire Wire Line
	8025 2150 8025 2275
Wire Wire Line
	8225 2625 8600 2625
Connection ~ 8225 2625
Wire Wire Line
	8475 2575 8475 2675
Connection ~ 8475 2625
Wire Wire Line
	8225 2950 8225 3025
Wire Wire Line
	8475 2125 8475 2275
Wire Wire Line
	8025 2575 8025 3000
Wire Wire Line
	7850 3000 8475 3000
Connection ~ 8225 3000
Wire Wire Line
	8475 3000 8475 2975
Connection ~ 8175 1925
Wire Wire Line
	7850 1925 7850 2350
Connection ~ 8025 1925
Wire Wire Line
	7850 2550 7850 3000
Connection ~ 8025 3000
Wire Wire Line
	2775 1150 2775 1575
Wire Wire Line
	2775 1575 2100 1575
Wire Wire Line
	3225 1150 3225 1600
Wire Wire Line
	3225 1600 2950 1600
Wire Wire Line
	3675 1150 3675 1650
Wire Wire Line
	3675 1650 3775 1650
Wire Wire Line
	4125 1150 4125 1625
Wire Wire Line
	4125 1625 4625 1625
Wire Wire Line
	4625 1150 4625 1575
Wire Wire Line
	4625 1575 5500 1575
Wire Wire Line
	5075 1150 5075 1625
Wire Wire Line
	5075 1625 6350 1625
Wire Wire Line
	5525 1150 5525 1575
Wire Wire Line
	5525 1575 7175 1575
Wire Wire Line
	5975 1150 5975 1475
Wire Wire Line
	5975 1475 8025 1475
Wire Wire Line
	2675 2425 2675 3550
Wire Wire Line
	2675 3550 6475 3550
Wire Wire Line
	3525 2475 3525 3650
Wire Wire Line
	3525 3650 6475 3650
Wire Wire Line
	4350 2475 4350 3750
Wire Wire Line
	4350 3750 6475 3750
Wire Wire Line
	5200 2525 5200 3850
Wire Wire Line
	5200 3850 6475 3850
Wire Wire Line
	6075 2525 6075 3950
Wire Wire Line
	6075 3950 6475 3950
Wire Wire Line
	6925 2575 6925 3150
Wire Wire Line
	6925 3150 6200 3150
Wire Wire Line
	7750 2575 7750 3250
Wire Wire Line
	7750 3250 6375 3250
Wire Wire Line
	6375 3250 6375 4150
Wire Wire Line
	6375 4150 6475 4150
Wire Wire Line
	6300 3200 8600 3200
Wire Wire Line
	8600 3200 8600 2625
Wire Wire Line
	6975 4450 7275 4450
Wire Wire Line
	6975 4500 6975 4450
Wire Wire Line
	8150 3350 8150 3300
Wire Wire Line
	8150 3300 8250 3300
Connection ~ 7275 3350
Wire Wire Line
	7675 3750 8150 3750
Wire Wire Line
	8150 3750 8150 3725
Wire Wire Line
	7675 3950 8125 3950
Wire Wire Line
	8125 3950 8125 3975
Wire Wire Line
	8125 3975 8150 3975
Wire Wire Line
	7675 4050 7725 4050
Wire Wire Line
	7675 3850 8150 3850
Wire Wire Line
	9625 2950 9200 2950
Wire Wire Line
	9200 2950 9200 2925
Wire Wire Line
	9025 2750 9625 2750
Wire Wire Line
	9450 2850 9625 2850
Wire Wire Line
	10125 3050 10250 3050
Wire Wire Line
	9550 4550 9550 4575
Wire Wire Line
	9550 4925 9550 4700
Wire Wire Line
	9550 4700 9450 4700
Wire Wire Line
	9450 4700 9450 4550
Wire Wire Line
	9150 3350 9625 3350
Wire Wire Line
	10800 4575 10900 4575
Wire Wire Line
	9550 4575 10500 4575
Wire Wire Line
	7725 4050 7725 5100
Wire Wire Line
	7725 4900 8000 4900
Wire Wire Line
	7725 5100 8000 5100
Connection ~ 7725 4900
Wire Wire Line
	8200 4900 8450 4900
Wire Wire Line
	8200 5100 8450 5100
Wire Wire Line
	6300 3200 6300 4250
Wire Wire Line
	6300 4250 6475 4250
Wire Wire Line
	6200 3150 6200 4050
Wire Wire Line
	6200 4050 6475 4050
Wire Wire Line
	9250 2225 9625 2225
Wire Wire Line
	9625 2225 9625 2250
Wire Wire Line
	7825 3350 7825 4050
Connection ~ 7825 3350
Wire Wire Line
	8125 3525 8575 3525
Wire Wire Line
	8575 3525 8575 3575
Wire Wire Line
	6975 3350 8150 3350
Wire Wire Line
	7275 3350 7275 3325
Wire Wire Line
	7825 4050 7975 4050
Wire Wire Line
	7975 4050 7975 4075
Connection ~ 7825 3525
Wire Wire Line
	7975 4375 7725 4375
Connection ~ 7725 4375
$Comp
L PWR_FLAG #FLG021
U 1 1 5B194229
P 9375 1750
F 0 "#FLG021" H 9375 1825 50  0001 C CNN
F 1 "PWR_FLAG" H 9375 1900 50  0000 C CNN
F 2 "" H 9375 1750 50  0001 C CNN
F 3 "" H 9375 1750 50  0001 C CNN
	1    9375 1750
	1    0    0    -1  
$EndComp
Wire Wire Line
	9375 1750 9600 1750
Connection ~ 9600 1750
$Comp
L PWR_FLAG #FLG022
U 1 1 5B194710
P 9250 2200
F 0 "#FLG022" H 9250 2275 50  0001 C CNN
F 1 "PWR_FLAG" H 9250 2350 50  0000 C CNN
F 2 "" H 9250 2200 50  0001 C CNN
F 3 "" H 9250 2200 50  0001 C CNN
	1    9250 2200
	1    0    0    -1  
$EndComp
Wire Wire Line
	9250 2225 9250 2200
Connection ~ 9450 2225
$EndSCHEMATC
