EESchema Schematic File Version 2
LIBS:power
LIBS:device
LIBS:switches
LIBS:relays
LIBS:motors
LIBS:transistors
LIBS:conn
LIBS:linear
LIBS:regul
LIBS:74xx
LIBS:cmos4000
LIBS:adc-dac
LIBS:memory
LIBS:xilinx
LIBS:microcontrollers
LIBS:dsp
LIBS:microchip
LIBS:analog_switches
LIBS:motorola
LIBS:texas
LIBS:intel
LIBS:audio
LIBS:interface
LIBS:digital-audio
LIBS:philips
LIBS:display
LIBS:cypress
LIBS:siliconi
LIBS:opto
LIBS:atmel
LIBS:contrib
LIBS:valves
EELAYER 25 0
EELAYER END
$Descr A4 11693 8268
encoding utf-8
Sheet 1 1
Title ""
Date ""
Rev ""
Comp ""
Comment1 ""
Comment2 ""
Comment3 ""
Comment4 ""
$EndDescr
$Comp
L Conn_02x20_Odd_Even J8
U 1 1 5B07F10C
P 4350 1975
F 0 "J8" H 4400 2975 50  0000 C CNN
F 1 "Conn_02x20_Odd_Even" H 4400 875 50  0000 C CNN
F 2 "Connectors_IDC:IDC-Header_2x20_Pitch2.54mm_Straight" H 4350 1975 50  0001 C CNN
F 3 "" H 4350 1975 50  0001 C CNN
	1    4350 1975
	0    -1   -1   0   
$EndComp
Text GLabel 3550 3400 3    60   BiDi ~ 0
I2C1_SDA
Text GLabel 3650 3400 3    60   Output ~ 0
I2C1_SCL
Text GLabel 3750 3400 3    60   BiDi ~ 0
7
Text GLabel 3950 3400 3    60   BiDi ~ 0
11
Text GLabel 4050 3400 3    60   BiDi ~ 0
13
Text GLabel 4150 3400 3    60   BiDi ~ 0
15
Text GLabel 4350 3675 3    60   Output ~ 0
SPI0_MOSI
Text GLabel 4450 3675 3    60   Input ~ 0
SPI0_MISO
Text GLabel 4550 3675 3    60   Output ~ 0
SPI0_CLK
Text GLabel 4750 3400 3    60   BiDi ~ 0
27
Text GLabel 4850 3400 3    60   BiDi ~ 0
29
Text GLabel 4950 3400 3    60   BiDi ~ 0
31
Text GLabel 5050 3400 3    60   BiDi ~ 0
33
Text GLabel 5250 3400 3    60   BiDi ~ 0
37
Text GLabel 5150 750  1    60   BiDi ~ 0
36
Text GLabel 4950 750  1    60   BiDi ~ 0
32
Text GLabel 4750 750  1    60   BiDi ~ 0
28
Text GLabel 4650 750  1    60   BiDi ~ 0
26
Text GLabel 4550 750  1    60   BiDi ~ 0
24
Text GLabel 4450 750  1    60   BiDi ~ 0
22
Text GLabel 4250 750  1    60   BiDi ~ 0
18
Text GLabel 4150 750  1    60   BiDi ~ 0
16
Text GLabel 3950 750  1    60   BiDi ~ 0
12
Text GLabel 3850 750  1    60   BiDi ~ 0
10
Text GLabel 3750 750  1    60   BiDi ~ 0
8
$Comp
L Conn_02x20_Odd_Even J3
U 1 1 5B0803AE
P 1450 6075
F 0 "J3" H 1500 7075 50  0000 C CNN
F 1 "Conn_02x20_Odd_Even" H 1500 4975 50  0000 C CNN
F 2 "Socket_Strips:Socket_Strip_Straight_2x20_Pitch2.54mm" H 1450 6075 50  0001 C CNN
F 3 "" H 1450 6075 50  0001 C CNN
	1    1450 6075
	1    0    0    -1  
$EndComp
Text GLabel 1175 5275 0    60   BiDi ~ 0
I2C1_SDA
Text GLabel 1175 5375 0    60   Input ~ 0
I2C1_SCL
Text GLabel 1175 5475 0    60   BiDi ~ 0
7
Text GLabel 1175 5675 0    60   BiDi ~ 0
11
Text GLabel 1175 5775 0    60   BiDi ~ 0
13
Text GLabel 1175 5875 0    60   BiDi ~ 0
15
Text GLabel 1175 6075 0    60   Input ~ 0
SPI0_MOSI
Text GLabel 1175 6175 0    60   Output ~ 0
SPI0_MISO
Text GLabel 1175 6275 0    60   Input ~ 0
SPI0_CLK
Text GLabel 1175 6475 0    60   BiDi ~ 0
27
Text GLabel 1175 6575 0    60   BiDi ~ 0
29
Text GLabel 1175 6675 0    60   BiDi ~ 0
31
Text GLabel 1175 6775 0    60   BiDi ~ 0
33
Text GLabel 1175 6875 0    60   Output ~ 0
SPI1_MISO
Text GLabel 1175 6975 0    60   BiDi ~ 0
37
Text GLabel 1800 7075 2    60   BiDi ~ 0
SPI1_SCLK
Text GLabel 1800 6975 2    60   Input ~ 0
SPI1_MOSI
Text GLabel 1800 6875 2    60   BiDi ~ 0
36
Text GLabel 1800 6675 2    60   BiDi ~ 0
32
Text GLabel 1800 6475 2    60   BiDi ~ 0
28
Text GLabel 1800 6375 2    60   BiDi ~ 0
26
Text GLabel 1800 6275 2    60   BiDi ~ 0
24
Text GLabel 1800 6175 2    60   BiDi ~ 0
22
Text GLabel 1800 5975 2    60   BiDi ~ 0
18
Text GLabel 1800 5875 2    60   BiDi ~ 0
16
Text GLabel 1800 5675 2    60   BiDi ~ 0
12
Text GLabel 1800 5575 2    60   BiDi ~ 0
10
Text GLabel 1800 5475 2    60   BiDi ~ 0
8
$Comp
L Screw_Terminal_01x02 J1
U 1 1 5B080C9E
P 900 950
F 0 "J1" H 900 1050 50  0000 C CNN
F 1 "Screw_Terminal_01x02" H 900 750 50  0000 C CNN
F 2 "Connectors_Terminal_Blocks:TerminalBlock_Pheonix_MKDS1.5-2pol" H 900 950 50  0001 C CNN
F 3 "" H 900 950 50  0001 C CNN
	1    900  950 
	0    -1   -1   0   
$EndComp
NoConn ~ 3450 1675
NoConn ~ 3550 1675
$Comp
L CP C1
U 1 1 5B0FC86C
P 875 1300
F 0 "C1" H 900 1400 50  0000 L CNN
F 1 "470uF" H 900 1200 50  0000 L CNN
F 2 "Capacitors_THT:CP_Radial_D8.0mm_P5.00mm" H 913 1150 50  0001 C CNN
F 3 "" H 875 1300 50  0001 C CNN
	1    875  1300
	0    -1   -1   0   
$EndComp
$Comp
L C_Small C2
U 1 1 5B0FC8FF
P 875 1500
F 0 "C2" H 885 1570 50  0000 L CNN
F 1 "0.1uF" H 885 1420 50  0000 L CNN
F 2 "Capacitors_THT:C_Disc_D5.0mm_W2.5mm_P2.50mm" H 875 1500 50  0001 C CNN
F 3 "" H 875 1500 50  0001 C CNN
	1    875  1500
	0    1    1    0   
$EndComp
$Comp
L D_Schottky D1
U 1 1 5B0FC940
P 725 1875
F 0 "D1" H 725 1975 50  0000 C CNN
F 1 "BAT54" H 725 1775 50  0000 C CNN
F 2 "Diodes_THT:D_A-405_P7.62mm_Horizontal" H 725 1875 50  0001 C CNN
F 3 "" H 725 1875 50  0001 C CNN
	1    725  1875
	0    -1   -1   0   
$EndComp
$Comp
L Polyfuse F1
U 1 1 5B0FF0AF
P 725 2175
F 0 "F1" V 625 2175 50  0000 C CNN
F 1 "1A" V 825 2175 50  0000 C CNN
F 2 "Fuse_Holders_and_Fuses:Fuse_TE5_Littlefuse-395Series" H 775 1975 50  0001 L CNN
F 3 "" H 725 2175 50  0001 C CNN
	1    725  2175
	1    0    0    -1  
$EndComp
$Comp
L Screw_Terminal_01x02 J2
U 1 1 5B101CEE
P 1450 925
F 0 "J2" H 1450 1025 50  0000 C CNN
F 1 "Screw_Terminal_01x02" H 1450 725 50  0000 C CNN
F 2 "Connectors_Terminal_Blocks:TerminalBlock_Pheonix_MKDS1.5-2pol" H 1450 925 50  0001 C CNN
F 3 "" H 1450 925 50  0001 C CNN
	1    1450 925 
	0    -1   -1   0   
$EndComp
$Comp
L CP C3
U 1 1 5B102AA0
P 2625 2450
F 0 "C3" H 2650 2550 50  0000 L CNN
F 1 "470uF" H 2650 2350 50  0000 L CNN
F 2 "Capacitors_THT:CP_Radial_D8.0mm_P5.00mm" H 2663 2300 50  0001 C CNN
F 3 "" H 2625 2450 50  0001 C CNN
	1    2625 2450
	1    0    0    -1  
$EndComp
$Comp
L R R1
U 1 1 5B107F50
P 3750 950
F 0 "R1" V 3750 750 50  0000 C CNN
F 1 "330" V 3750 950 50  0000 C CNN
F 2 "Resistors_THT:R_Axial_DIN0207_L6.3mm_D2.5mm_P7.62mm_Horizontal" V 3680 950 50  0001 C CNN
F 3 "" H 3750 950 50  0001 C CNN
	1    3750 950 
	1    0    0    -1  
$EndComp
$Comp
L R R3
U 1 1 5B1080F4
P 3850 950
F 0 "R3" V 3850 750 50  0000 C CNN
F 1 "330" V 3850 950 50  0000 C CNN
F 2 "Resistors_THT:R_Axial_DIN0207_L6.3mm_D2.5mm_P7.62mm_Horizontal" V 3780 950 50  0001 C CNN
F 3 "" H 3850 950 50  0001 C CNN
	1    3850 950 
	1    0    0    -1  
$EndComp
$Comp
L R R4
U 1 1 5B10C1BE
P 3950 950
F 0 "R4" V 3950 775 50  0000 C CNN
F 1 "330" V 3950 950 50  0000 C CNN
F 2 "Resistors_THT:R_Axial_DIN0207_L6.3mm_D2.5mm_P7.62mm_Horizontal" V 3880 950 50  0001 C CNN
F 3 "" H 3950 950 50  0001 C CNN
	1    3950 950 
	1    0    0    -1  
$EndComp
$Comp
L R R7
U 1 1 5B10C21C
P 4150 950
F 0 "R7" V 4150 775 50  0000 C CNN
F 1 "330" V 4150 950 50  0000 C CNN
F 2 "Resistors_THT:R_Axial_DIN0207_L6.3mm_D2.5mm_P7.62mm_Horizontal" V 4080 950 50  0001 C CNN
F 3 "" H 4150 950 50  0001 C CNN
	1    4150 950 
	1    0    0    -1  
$EndComp
$Comp
L R R9
U 1 1 5B10C277
P 4250 950
F 0 "R9" V 4250 775 50  0000 C CNN
F 1 "330" V 4250 950 50  0000 C CNN
F 2 "Resistors_THT:R_Axial_DIN0207_L6.3mm_D2.5mm_P7.62mm_Horizontal" V 4180 950 50  0001 C CNN
F 3 "" H 4250 950 50  0001 C CNN
	1    4250 950 
	1    0    0    -1  
$EndComp
$Comp
L R R11
U 1 1 5B10C2CD
P 4450 950
F 0 "R11" V 4425 775 50  0000 C CNN
F 1 "330" V 4450 950 50  0000 C CNN
F 2 "Resistors_THT:R_Axial_DIN0207_L6.3mm_D2.5mm_P7.62mm_Horizontal" V 4380 950 50  0001 C CNN
F 3 "" H 4450 950 50  0001 C CNN
	1    4450 950 
	1    0    0    -1  
$EndComp
$Comp
L R R13
U 1 1 5B10C32E
P 4550 950
F 0 "R13" V 4550 775 50  0000 C CNN
F 1 "330" V 4550 950 50  0000 C CNN
F 2 "Resistors_THT:R_Axial_DIN0207_L6.3mm_D2.5mm_P7.62mm_Horizontal" V 4480 950 50  0001 C CNN
F 3 "" H 4550 950 50  0001 C CNN
	1    4550 950 
	1    0    0    -1  
$EndComp
$Comp
L R R15
U 1 1 5B10C38A
P 4650 950
F 0 "R15" V 4650 775 50  0000 C CNN
F 1 "330" V 4650 950 50  0000 C CNN
F 2 "Resistors_THT:R_Axial_DIN0207_L6.3mm_D2.5mm_P7.62mm_Horizontal" V 4580 950 50  0001 C CNN
F 3 "" H 4650 950 50  0001 C CNN
	1    4650 950 
	1    0    0    -1  
$EndComp
$Comp
L R R16
U 1 1 5B10C442
P 4750 950
F 0 "R16" V 4750 775 50  0000 C CNN
F 1 "330" V 4750 950 50  0000 C CNN
F 2 "Resistors_THT:R_Axial_DIN0207_L6.3mm_D2.5mm_P7.62mm_Horizontal" V 4680 950 50  0001 C CNN
F 3 "" H 4750 950 50  0001 C CNN
	1    4750 950 
	1    0    0    -1  
$EndComp
$Comp
L R R19
U 1 1 5B10C4B0
P 4950 950
F 0 "R19" V 4950 775 50  0000 C CNN
F 1 "330" V 4950 950 50  0000 C CNN
F 2 "Resistors_THT:R_Axial_DIN0207_L6.3mm_D2.5mm_P7.62mm_Horizontal" V 4880 950 50  0001 C CNN
F 3 "" H 4950 950 50  0001 C CNN
	1    4950 950 
	1    0    0    -1  
$EndComp
$Comp
L R R22
U 1 1 5B10C523
P 5150 950
F 0 "R22" V 5150 775 50  0000 C CNN
F 1 "330" V 5150 950 50  0000 C CNN
F 2 "Resistors_THT:R_Axial_DIN0207_L6.3mm_D2.5mm_P7.62mm_Horizontal" V 5080 950 50  0001 C CNN
F 3 "" H 5150 950 50  0001 C CNN
	1    5150 950 
	1    0    0    -1  
$EndComp
$Comp
L D_Zener_Small D6
U 1 1 5B10D5C7
P 3800 1325
F 0 "D6" H 3950 1325 50  0000 C CNN
F 1 "3v3" H 3800 1235 50  0000 C CNN
F 2 "Diodes_THT:D_DO-35_SOD27_P7.62mm_Horizontal" V 3800 1325 50  0001 C CNN
F 3 "" V 3800 1325 50  0001 C CNN
	1    3800 1325
	0    1    1    0   
$EndComp
$Comp
L D_Zener_Small D8
U 1 1 5B10FEB0
P 3900 1325
F 0 "D8" H 4050 1325 50  0000 C CNN
F 1 "3v3" H 3900 1235 50  0000 C CNN
F 2 "Diodes_THT:D_DO-35_SOD27_P7.62mm_Horizontal" V 3900 1325 50  0001 C CNN
F 3 "" V 3900 1325 50  0001 C CNN
	1    3900 1325
	0    1    1    0   
$EndComp
$Comp
L D_Zener_Small D9
U 1 1 5B10FF46
P 4000 1275
F 0 "D9" H 4150 1275 50  0000 C CNN
F 1 "3v3" H 4000 1185 50  0000 C CNN
F 2 "Diodes_THT:D_DO-35_SOD27_P7.62mm_Horizontal" V 4000 1275 50  0001 C CNN
F 3 "" V 4000 1275 50  0001 C CNN
	1    4000 1275
	0    1    1    0   
$EndComp
$Comp
L D_Zener_Small D12
U 1 1 5B10FFC9
P 4200 1275
F 0 "D12" H 4375 1275 50  0000 C CNN
F 1 "3v3" H 4200 1185 50  0000 C CNN
F 2 "Diodes_THT:D_DO-35_SOD27_P7.62mm_Horizontal" V 4200 1275 50  0001 C CNN
F 3 "" V 4200 1275 50  0001 C CNN
	1    4200 1275
	0    1    1    0   
$EndComp
$Comp
L D_Zener_Small D14
U 1 1 5B11004B
P 4300 1250
F 0 "D14" H 4450 1250 50  0000 C CNN
F 1 "3v3" H 4300 1160 50  0000 C CNN
F 2 "Diodes_THT:D_DO-35_SOD27_P7.62mm_Horizontal" V 4300 1250 50  0001 C CNN
F 3 "" V 4300 1250 50  0001 C CNN
	1    4300 1250
	0    1    1    0   
$EndComp
$Comp
L D_Zener_Small D16
U 1 1 5B1100D2
P 4500 1300
F 0 "D16" H 4675 1300 50  0000 C CNN
F 1 "3v3" H 4500 1210 50  0000 C CNN
F 2 "Diodes_THT:D_DO-35_SOD27_P7.62mm_Horizontal" V 4500 1300 50  0001 C CNN
F 3 "" V 4500 1300 50  0001 C CNN
	1    4500 1300
	0    1    1    0   
$EndComp
$Comp
L D_Zener_Small D18
U 1 1 5B11015E
P 4600 1300
F 0 "D18" H 4750 1300 50  0000 C CNN
F 1 "3v3" H 4600 1210 50  0000 C CNN
F 2 "Diodes_THT:D_DO-35_SOD27_P7.62mm_Horizontal" V 4600 1300 50  0001 C CNN
F 3 "" V 4600 1300 50  0001 C CNN
	1    4600 1300
	0    1    1    0   
$EndComp
$Comp
L D_Zener_Small D20
U 1 1 5B1101E1
P 4700 1300
F 0 "D20" H 4875 1300 50  0000 C CNN
F 1 "3v3" H 4700 1210 50  0000 C CNN
F 2 "Diodes_THT:D_DO-35_SOD27_P7.62mm_Horizontal" V 4700 1300 50  0001 C CNN
F 3 "" V 4700 1300 50  0001 C CNN
	1    4700 1300
	0    1    1    0   
$EndComp
$Comp
L D_Zener_Small D21
U 1 1 5B11026F
P 4800 1300
F 0 "D21" H 4650 1300 50  0000 C CNN
F 1 "3v3" H 4800 1210 50  0000 C CNN
F 2 "Diodes_THT:D_DO-35_SOD27_P7.62mm_Horizontal" V 4800 1300 50  0001 C CNN
F 3 "" V 4800 1300 50  0001 C CNN
	1    4800 1300
	0    1    1    0   
$EndComp
$Comp
L D_Zener_Small D24
U 1 1 5B1102FE
P 5000 1300
F 0 "D24" H 5175 1300 50  0000 C CNN
F 1 "3v3" H 5000 1210 50  0000 C CNN
F 2 "Diodes_THT:D_DO-35_SOD27_P7.62mm_Horizontal" V 5000 1300 50  0001 C CNN
F 3 "" V 5000 1300 50  0001 C CNN
	1    5000 1300
	0    1    1    0   
$EndComp
$Comp
L D_Zener_Small D27
U 1 1 5B110396
P 5200 1300
F 0 "D27" H 5350 1300 50  0000 C CNN
F 1 "3v3" H 5200 1210 50  0000 C CNN
F 2 "Diodes_THT:D_DO-35_SOD27_P7.62mm_Horizontal" V 5200 1300 50  0001 C CNN
F 3 "" V 5200 1300 50  0001 C CNN
	1    5200 1300
	0    1    1    0   
$EndComp
$Comp
L D_Zener_Small D29
U 1 1 5B11042D
P 5300 1300
F 0 "D29" H 5450 1300 50  0000 C CNN
F 1 "3v3" H 5300 1210 50  0000 C CNN
F 2 "Diodes_THT:D_DO-35_SOD27_P7.62mm_Horizontal" V 5300 1300 50  0001 C CNN
F 3 "" V 5300 1300 50  0001 C CNN
	1    5300 1300
	0    1    1    0   
$EndComp
$Comp
L D_Zener_Small D31
U 1 1 5B1104C7
P 5400 1300
F 0 "D31" H 5550 1300 50  0000 C CNN
F 1 "3v3" H 5400 1210 50  0000 C CNN
F 2 "Diodes_THT:D_DO-35_SOD27_P7.62mm_Horizontal" V 5400 1300 50  0001 C CNN
F 3 "" V 5400 1300 50  0001 C CNN
	1    5400 1300
	0    1    1    0   
$EndComp
$Comp
L R R2
U 1 1 5B1157B3
P 3750 3150
F 0 "R2" V 3750 3350 50  0000 C CNN
F 1 "330" V 3750 3150 50  0000 C CNN
F 2 "Resistors_THT:R_Axial_DIN0207_L6.3mm_D2.5mm_P7.62mm_Horizontal" V 3680 3150 50  0001 C CNN
F 3 "" H 3750 3150 50  0001 C CNN
	1    3750 3150
	1    0    0    -1  
$EndComp
$Comp
L R R5
U 1 1 5B115851
P 3950 3150
F 0 "R5" V 3950 3350 50  0000 C CNN
F 1 "330" V 3950 3150 50  0000 C CNN
F 2 "Resistors_THT:R_Axial_DIN0207_L6.3mm_D2.5mm_P7.62mm_Horizontal" V 3880 3150 50  0001 C CNN
F 3 "" H 3950 3150 50  0001 C CNN
	1    3950 3150
	1    0    0    -1  
$EndComp
$Comp
L R R6
U 1 1 5B1158FA
P 4050 3150
F 0 "R6" V 4050 3350 50  0000 C CNN
F 1 "330" V 4050 3150 50  0000 C CNN
F 2 "Resistors_THT:R_Axial_DIN0207_L6.3mm_D2.5mm_P7.62mm_Horizontal" V 3980 3150 50  0001 C CNN
F 3 "" H 4050 3150 50  0001 C CNN
	1    4050 3150
	1    0    0    -1  
$EndComp
$Comp
L R R8
U 1 1 5B11599E
P 4150 3150
F 0 "R8" V 4150 3350 50  0000 C CNN
F 1 "330" V 4150 3150 50  0000 C CNN
F 2 "Resistors_THT:R_Axial_DIN0207_L6.3mm_D2.5mm_P7.62mm_Horizontal" V 4080 3150 50  0001 C CNN
F 3 "" H 4150 3150 50  0001 C CNN
	1    4150 3150
	1    0    0    -1  
$EndComp
$Comp
L R R10
U 1 1 5B115A45
P 4350 3150
F 0 "R10" V 4350 3350 50  0000 C CNN
F 1 "330" V 4350 3150 50  0000 C CNN
F 2 "Resistors_THT:R_Axial_DIN0207_L6.3mm_D2.5mm_P7.62mm_Horizontal" V 4280 3150 50  0001 C CNN
F 3 "" H 4350 3150 50  0001 C CNN
	1    4350 3150
	1    0    0    -1  
$EndComp
$Comp
L R R12
U 1 1 5B115AF5
P 4450 3150
F 0 "R12" V 4450 3350 50  0000 C CNN
F 1 "330" V 4450 3150 50  0000 C CNN
F 2 "Resistors_THT:R_Axial_DIN0207_L6.3mm_D2.5mm_P7.62mm_Horizontal" V 4380 3150 50  0001 C CNN
F 3 "" H 4450 3150 50  0001 C CNN
	1    4450 3150
	1    0    0    -1  
$EndComp
$Comp
L R R14
U 1 1 5B115BA2
P 4550 3150
F 0 "R14" V 4550 3350 50  0000 C CNN
F 1 "330" V 4550 3150 50  0000 C CNN
F 2 "Resistors_THT:R_Axial_DIN0207_L6.3mm_D2.5mm_P7.62mm_Horizontal" V 4480 3150 50  0001 C CNN
F 3 "" H 4550 3150 50  0001 C CNN
	1    4550 3150
	1    0    0    -1  
$EndComp
$Comp
L R R17
U 1 1 5B115CBA
P 4750 3150
F 0 "R17" V 4750 3350 50  0000 C CNN
F 1 "330" V 4750 3150 50  0000 C CNN
F 2 "Resistors_THT:R_Axial_DIN0207_L6.3mm_D2.5mm_P7.62mm_Horizontal" V 4680 3150 50  0001 C CNN
F 3 "" H 4750 3150 50  0001 C CNN
	1    4750 3150
	1    0    0    -1  
$EndComp
$Comp
L R R18
U 1 1 5B115D79
P 4850 3150
F 0 "R18" V 4850 3350 50  0000 C CNN
F 1 "330" V 4850 3150 50  0000 C CNN
F 2 "Resistors_THT:R_Axial_DIN0207_L6.3mm_D2.5mm_P7.62mm_Horizontal" V 4780 3150 50  0001 C CNN
F 3 "" H 4850 3150 50  0001 C CNN
	1    4850 3150
	1    0    0    -1  
$EndComp
$Comp
L R R20
U 1 1 5B115EDF
P 4950 3150
F 0 "R20" V 4950 3350 50  0000 C CNN
F 1 "330" V 4950 3150 50  0000 C CNN
F 2 "Resistors_THT:R_Axial_DIN0207_L6.3mm_D2.5mm_P7.62mm_Horizontal" V 4880 3150 50  0001 C CNN
F 3 "" H 4950 3150 50  0001 C CNN
	1    4950 3150
	1    0    0    -1  
$EndComp
$Comp
L R R21
U 1 1 5B115FA2
P 5050 3150
F 0 "R21" V 5050 3350 50  0000 C CNN
F 1 "330" V 5050 3150 50  0000 C CNN
F 2 "Resistors_THT:R_Axial_DIN0207_L6.3mm_D2.5mm_P7.62mm_Horizontal" V 4980 3150 50  0001 C CNN
F 3 "" H 5050 3150 50  0001 C CNN
	1    5050 3150
	1    0    0    -1  
$EndComp
$Comp
L R R23
U 1 1 5B116060
P 5150 3150
F 0 "R23" V 5150 3350 50  0000 C CNN
F 1 "330" V 5150 3150 50  0000 C CNN
F 2 "Resistors_THT:R_Axial_DIN0207_L6.3mm_D2.5mm_P7.62mm_Horizontal" V 5080 3150 50  0001 C CNN
F 3 "" H 5150 3150 50  0001 C CNN
	1    5150 3150
	1    0    0    -1  
$EndComp
$Comp
L R R25
U 1 1 5B11611F
P 5250 3150
F 0 "R25" V 5250 3350 50  0000 C CNN
F 1 "330" V 5250 3150 50  0000 C CNN
F 2 "Resistors_THT:R_Axial_DIN0207_L6.3mm_D2.5mm_P7.62mm_Horizontal" V 5180 3150 50  0001 C CNN
F 3 "" H 5250 3150 50  0001 C CNN
	1    5250 3150
	1    0    0    -1  
$EndComp
$Comp
L D_Zener_Small D7
U 1 1 5B11A961
P 3800 2775
F 0 "D7" H 3925 2775 50  0000 C CNN
F 1 "3v3" H 3800 2685 50  0000 C CNN
F 2 "Diodes_THT:D_DO-35_SOD27_P7.62mm_Horizontal" V 3800 2775 50  0001 C CNN
F 3 "" V 3800 2775 50  0001 C CNN
	1    3800 2775
	0    -1   -1   0   
$EndComp
$Comp
L D_Zener_Small D10
U 1 1 5B11AA3A
P 4000 2775
F 0 "D10" H 4175 2775 50  0000 C CNN
F 1 "3v3" H 4000 2685 50  0000 C CNN
F 2 "Diodes_THT:D_DO-35_SOD27_P7.62mm_Horizontal" V 4000 2775 50  0001 C CNN
F 3 "" V 4000 2775 50  0001 C CNN
	1    4000 2775
	0    -1   -1   0   
$EndComp
$Comp
L D_Zener_Small D11
U 1 1 5B11AB14
P 4100 2775
F 0 "D11" H 4250 2775 50  0000 C CNN
F 1 "3v3" H 4100 2685 50  0000 C CNN
F 2 "Diodes_THT:D_DO-35_SOD27_P7.62mm_Horizontal" V 4100 2775 50  0001 C CNN
F 3 "" V 4100 2775 50  0001 C CNN
	1    4100 2775
	0    -1   -1   0   
$EndComp
$Comp
L D_Zener_Small D13
U 1 1 5B11ABE9
P 4200 2775
F 0 "D13" H 4350 2775 50  0000 C CNN
F 1 "3v3" H 4200 2685 50  0000 C CNN
F 2 "Diodes_THT:D_DO-35_SOD27_P7.62mm_Horizontal" V 4200 2775 50  0001 C CNN
F 3 "" V 4200 2775 50  0001 C CNN
	1    4200 2775
	0    -1   -1   0   
$EndComp
$Comp
L D_Zener_Small D15
U 1 1 5B11ACC1
P 4400 2775
F 0 "D15" H 4575 2775 50  0000 C CNN
F 1 "3v3" H 4400 2685 50  0000 C CNN
F 2 "Diodes_THT:D_DO-35_SOD27_P7.62mm_Horizontal" V 4400 2775 50  0001 C CNN
F 3 "" V 4400 2775 50  0001 C CNN
	1    4400 2775
	0    -1   -1   0   
$EndComp
$Comp
L D_Zener_Small D17
U 1 1 5B11ADA0
P 4500 2775
F 0 "D17" H 4675 2775 50  0000 C CNN
F 1 "3v3" H 4500 2685 50  0000 C CNN
F 2 "Diodes_THT:D_DO-35_SOD27_P7.62mm_Horizontal" V 4500 2775 50  0001 C CNN
F 3 "" V 4500 2775 50  0001 C CNN
	1    4500 2775
	0    -1   -1   0   
$EndComp
$Comp
L D_Zener_Small D19
U 1 1 5B11AF02
P 4600 2775
F 0 "D19" H 4775 2775 50  0000 C CNN
F 1 "3v3" H 4600 2685 50  0000 C CNN
F 2 "Diodes_THT:D_DO-35_SOD27_P7.62mm_Horizontal" V 4600 2775 50  0001 C CNN
F 3 "" V 4600 2775 50  0001 C CNN
	1    4600 2775
	0    -1   -1   0   
$EndComp
$Comp
L D_Zener_Small D22
U 1 1 5B11AFDF
P 4800 2775
F 0 "D22" H 4975 2775 50  0000 C CNN
F 1 "3v3" H 4800 2685 50  0000 C CNN
F 2 "Diodes_THT:D_DO-35_SOD27_P7.62mm_Horizontal" V 4800 2775 50  0001 C CNN
F 3 "" V 4800 2775 50  0001 C CNN
	1    4800 2775
	0    -1   -1   0   
$EndComp
$Comp
L D_Zener_Small D23
U 1 1 5B11B19D
P 4900 2775
F 0 "D23" H 5050 2775 50  0000 C CNN
F 1 "3v3" H 4900 2685 50  0000 C CNN
F 2 "Diodes_THT:D_DO-35_SOD27_P7.62mm_Horizontal" V 4900 2775 50  0001 C CNN
F 3 "" V 4900 2775 50  0001 C CNN
	1    4900 2775
	0    -1   -1   0   
$EndComp
$Comp
L D_Zener_Small D25
U 1 1 5B11B280
P 5000 2775
F 0 "D25" H 5150 2775 50  0000 C CNN
F 1 "3v3" H 5000 2685 50  0000 C CNN
F 2 "Diodes_THT:D_DO-35_SOD27_P7.62mm_Horizontal" V 5000 2775 50  0001 C CNN
F 3 "" V 5000 2775 50  0001 C CNN
	1    5000 2775
	0    -1   -1   0   
$EndComp
$Comp
L D_Zener_Small D26
U 1 1 5B11B366
P 5100 2775
F 0 "D26" H 5275 2775 50  0000 C CNN
F 1 "3v3" H 5100 2685 50  0000 C CNN
F 2 "Diodes_THT:D_DO-35_SOD27_P7.62mm_Horizontal" V 5100 2775 50  0001 C CNN
F 3 "" V 5100 2775 50  0001 C CNN
	1    5100 2775
	0    -1   -1   0   
$EndComp
$Comp
L D_Zener_Small D28
U 1 1 5B11B44F
P 5200 2775
F 0 "D28" H 5375 2775 50  0000 C CNN
F 1 "3v3" H 5200 2685 50  0000 C CNN
F 2 "Diodes_THT:D_DO-35_SOD27_P7.62mm_Horizontal" V 5200 2775 50  0001 C CNN
F 3 "" V 5200 2775 50  0001 C CNN
	1    5200 2775
	0    -1   -1   0   
$EndComp
$Comp
L D_Zener_Small D30
U 1 1 5B11B53F
P 5300 2775
F 0 "D30" H 5450 2775 50  0000 C CNN
F 1 "3v3" H 5300 2685 50  0000 C CNN
F 2 "Diodes_THT:D_DO-35_SOD27_P7.62mm_Horizontal" V 5300 2775 50  0001 C CNN
F 3 "" V 5300 2775 50  0001 C CNN
	1    5300 2775
	0    -1   -1   0   
$EndComp
$Comp
L D_Schottky D2
U 1 1 5B1063F5
P 3400 3200
F 0 "D2" H 3400 3300 50  0000 C CNN
F 1 "BAT54" H 3400 3100 50  0000 C CNN
F 2 "Diodes_THT:D_A-405_P7.62mm_Horizontal" H 3400 3200 50  0001 C CNN
F 3 "" H 3400 3200 50  0001 C CNN
	1    3400 3200
	1    0    0    -1  
$EndComp
$Comp
L D_Schottky D3
U 1 1 5B10662C
P 3400 3325
F 0 "D3" H 3400 3425 50  0000 C CNN
F 1 "BAT54" H 3400 3225 50  0000 C CNN
F 2 "Diodes_THT:D_A-405_P7.62mm_Horizontal" H 3400 3325 50  0001 C CNN
F 3 "" H 3400 3325 50  0001 C CNN
	1    3400 3325
	-1   0    0    1   
$EndComp
$Comp
L D_Schottky D5
U 1 1 5B107F18
P 3450 2900
F 0 "D5" H 3450 3000 50  0000 C CNN
F 1 "BAT54" H 3450 2800 50  0000 C CNN
F 2 "Diodes_THT:D_A-405_P7.62mm_Horizontal" H 3450 2900 50  0001 C CNN
F 3 "" H 3450 2900 50  0001 C CNN
	1    3450 2900
	-1   0    0    1   
$EndComp
$Comp
L D_Schottky D4
U 1 1 5B10802C
P 3450 2750
F 0 "D4" H 3450 2850 50  0000 C CNN
F 1 "BAT54" H 3450 2650 50  0000 C CNN
F 2 "Diodes_THT:D_A-405_P7.62mm_Horizontal" H 3450 2750 50  0001 C CNN
F 3 "" H 3450 2750 50  0001 C CNN
	1    3450 2750
	1    0    0    -1  
$EndComp
$Comp
L R R26
U 1 1 5B10D1C9
P 5350 925
F 0 "R26" V 5350 750 50  0000 C CNN
F 1 "330" V 5350 925 50  0000 C CNN
F 2 "Resistors_THT:R_Axial_DIN0207_L6.3mm_D2.5mm_P7.62mm_Horizontal" V 5280 925 50  0001 C CNN
F 3 "" H 5350 925 50  0001 C CNN
	1    5350 925 
	1    0    0    -1  
$EndComp
$Comp
L R R24
U 1 1 5B10D2C7
P 5250 925
F 0 "R24" V 5250 750 50  0000 C CNN
F 1 "330" V 5250 925 50  0000 C CNN
F 2 "Resistors_THT:R_Axial_DIN0207_L6.3mm_D2.5mm_P7.62mm_Horizontal" V 5180 925 50  0001 C CNN
F 3 "" H 5250 925 50  0001 C CNN
	1    5250 925 
	1    0    0    -1  
$EndComp
$Comp
L GND #PWR01
U 1 1 5B1161FA
P 1400 2275
F 0 "#PWR01" H 1400 2025 50  0001 C CNN
F 1 "GND" H 1400 2125 50  0000 C CNN
F 2 "" H 1400 2275 50  0001 C CNN
F 3 "" H 1400 2275 50  0001 C CNN
	1    1400 2275
	1    0    0    -1  
$EndComp
Wire Wire Line
	1750 5375 2100 5375
Wire Wire Line
	1800 5475 1750 5475
Wire Wire Line
	1800 5575 1750 5575
Wire Wire Line
	1800 5675 1750 5675
Wire Wire Line
	1750 5775 2100 5775
Wire Wire Line
	1800 5875 1750 5875
Wire Wire Line
	1800 5975 1750 5975
Wire Wire Line
	2100 6075 1750 6075
Wire Wire Line
	1800 6175 1750 6175
Wire Wire Line
	1800 6275 1750 6275
Wire Wire Line
	1800 6375 1750 6375
Wire Wire Line
	1800 6475 1750 6475
Wire Wire Line
	2100 6575 1750 6575
Wire Wire Line
	1800 6675 1750 6675
Wire Wire Line
	2100 6775 1750 6775
Wire Wire Line
	1800 6875 1750 6875
Wire Wire Line
	1800 6975 1750 6975
Wire Wire Line
	1800 7075 1750 7075
Wire Wire Line
	1250 5275 1175 5275
Wire Wire Line
	1250 5375 1175 5375
Wire Wire Line
	1250 5475 1175 5475
Wire Wire Line
	1250 5675 1175 5675
Wire Wire Line
	1250 5775 1175 5775
Wire Wire Line
	1250 5875 1175 5875
Wire Wire Line
	1250 6075 1175 6075
Wire Wire Line
	1250 6175 1175 6175
Wire Wire Line
	1250 6275 1175 6275
Wire Wire Line
	875  6375 1250 6375
Wire Wire Line
	1250 6475 1175 6475
Wire Wire Line
	1250 6575 1175 6575
Wire Wire Line
	1250 6675 1175 6675
Wire Wire Line
	1250 6775 1175 6775
Wire Wire Line
	1250 6875 1175 6875
Wire Wire Line
	1250 6975 1175 6975
Wire Wire Line
	875  7075 1250 7075
Wire Wire Line
	1025 1150 1025 2200
Wire Wire Line
	1025 1500 975  1500
Wire Wire Line
	725  1150 725  1725
Wire Wire Line
	725  1500 775  1500
Connection ~ 725  1500
Wire Wire Line
	725  1150 900  1150
Connection ~ 725  1300
Wire Wire Line
	1000 1150 1025 1150
Connection ~ 1025 1300
Wire Wire Line
	725  2325 725  2700
Wire Wire Line
	1450 1125 1450 1625
Wire Wire Line
	1450 1625 725  1625
Connection ~ 725  1625
Wire Wire Line
	3450 2175 3450 2300
Wire Wire Line
	3450 2300 3250 2300
Connection ~ 3450 2300
Wire Wire Line
	4250 2250 4250 2175
Wire Wire Line
	2400 2250 4250 2250
Wire Wire Line
	2625 2250 2625 2300
Connection ~ 4250 2250
Wire Wire Line
	2625 2600 2625 2625
Wire Wire Line
	4650 2175 4650 2300
Wire Wire Line
	5550 2300 3800 2300
Connection ~ 5350 2300
Connection ~ 4650 2300
Connection ~ 3850 2300
Wire Wire Line
	3650 1625 3650 1675
Wire Wire Line
	4050 1625 4050 1675
Wire Wire Line
	4350 1625 4350 1675
Wire Wire Line
	4850 1625 4850 1675
Wire Wire Line
	5050 1625 5050 1675
Wire Wire Line
	3650 1625 5550 1625
Connection ~ 5050 1625
Connection ~ 4850 1625
Connection ~ 4350 1625
Connection ~ 4050 1625
Connection ~ 3650 1625
Wire Wire Line
	3750 750  3750 800 
Wire Wire Line
	3850 750  3850 800 
Wire Wire Line
	3950 750  3950 800 
Wire Wire Line
	4150 750  4150 800 
Wire Wire Line
	4250 750  4250 800 
Wire Wire Line
	4450 750  4450 800 
Wire Wire Line
	4550 750  4550 800 
Wire Wire Line
	4650 750  4650 800 
Wire Wire Line
	4750 750  4750 800 
Wire Wire Line
	4950 750  4950 800 
Wire Wire Line
	5150 750  5150 800 
Wire Wire Line
	5250 1075 5250 1675
Wire Wire Line
	5350 1075 5350 1675
Wire Wire Line
	3750 1100 3750 1675
Wire Wire Line
	3750 1225 3800 1225
Connection ~ 3750 1225
Wire Wire Line
	3800 1425 3800 1625
Connection ~ 3800 1625
Wire Wire Line
	3850 1100 3850 1675
Wire Wire Line
	3900 1425 3900 1625
Connection ~ 3900 1625
Wire Wire Line
	3850 1225 3900 1225
Connection ~ 3850 1225
Wire Wire Line
	3950 1100 3950 1675
Wire Wire Line
	3950 1175 4000 1175
Connection ~ 3950 1175
Wire Wire Line
	4000 1375 4000 1625
Connection ~ 4000 1625
Wire Wire Line
	4150 1100 4150 1675
Wire Wire Line
	4250 1100 4250 1675
Wire Wire Line
	4450 1100 4450 1675
Wire Wire Line
	4550 1100 4550 1675
Wire Wire Line
	4650 1100 4650 1675
Wire Wire Line
	4750 1100 4750 1675
Wire Wire Line
	4150 1175 4200 1175
Connection ~ 4150 1175
Wire Wire Line
	4200 1375 4200 1625
Connection ~ 4200 1625
Wire Wire Line
	4250 1150 4300 1150
Connection ~ 4250 1150
Wire Wire Line
	4300 1350 4300 1625
Connection ~ 4300 1625
Wire Wire Line
	4450 1200 4500 1200
Connection ~ 4450 1200
Wire Wire Line
	4500 1400 4500 1625
Connection ~ 4500 1625
Wire Wire Line
	4550 1200 4600 1200
Connection ~ 4550 1200
Wire Wire Line
	4650 1200 4700 1200
Connection ~ 4650 1200
Wire Wire Line
	4750 1200 4800 1200
Connection ~ 4750 1200
Wire Wire Line
	4600 1400 4600 1625
Wire Wire Line
	4600 1625 4575 1625
Connection ~ 4575 1625
Wire Wire Line
	4700 1400 4700 1625
Connection ~ 4700 1625
Wire Wire Line
	4800 1400 4800 1625
Connection ~ 4800 1625
Wire Wire Line
	4950 1100 4950 1675
Wire Wire Line
	5150 1100 5150 1675
Wire Wire Line
	4950 1200 5000 1200
Connection ~ 4950 1200
Wire Wire Line
	5000 1400 5000 1625
Connection ~ 5000 1625
Wire Wire Line
	5150 1200 5200 1200
Connection ~ 5150 1200
Wire Wire Line
	5200 1400 5200 1625
Connection ~ 5200 1625
Wire Wire Line
	5250 1200 5300 1200
Connection ~ 5250 1200
Wire Wire Line
	5300 1400 5300 1625
Connection ~ 5300 1625
Wire Wire Line
	5350 1200 5400 1200
Connection ~ 5350 1200
Wire Wire Line
	5400 1400 5400 1625
Connection ~ 5400 1625
Wire Wire Line
	3750 3400 3750 3300
Wire Wire Line
	3950 3400 3950 3300
Wire Wire Line
	4050 3400 4050 3300
Wire Wire Line
	4150 3400 4150 3300
Wire Wire Line
	4350 3300 4350 3675
Wire Wire Line
	4450 3300 4450 3675
Wire Wire Line
	4550 3300 4550 3675
Wire Wire Line
	4750 3400 4750 3300
Wire Wire Line
	4850 3400 4850 3300
Wire Wire Line
	4950 3400 4950 3300
Wire Wire Line
	5050 3400 5050 3300
Wire Wire Line
	5150 3300 5150 3675
Wire Wire Line
	5250 3400 5250 3300
Wire Wire Line
	3750 2175 3750 3000
Wire Wire Line
	3950 2175 3950 3000
Wire Wire Line
	4050 2175 4050 3000
Wire Wire Line
	4150 2175 4150 3000
Wire Wire Line
	4350 2175 4350 3000
Wire Wire Line
	4450 2175 4450 3000
Wire Wire Line
	4550 2175 4550 3000
Wire Wire Line
	4750 2175 4750 3000
Wire Wire Line
	4850 2175 4850 3000
Wire Wire Line
	4950 2175 4950 3000
Wire Wire Line
	5050 2175 5050 3000
Wire Wire Line
	5150 2175 5150 3000
Wire Wire Line
	5250 2175 5250 3000
Wire Wire Line
	3750 2875 3800 2875
Connection ~ 3750 2875
Wire Wire Line
	3950 2875 4000 2875
Connection ~ 3950 2875
Wire Wire Line
	4050 2875 4100 2875
Connection ~ 4050 2875
Wire Wire Line
	4150 2875 4200 2875
Connection ~ 4150 2875
Wire Wire Line
	4350 2875 4400 2875
Connection ~ 4350 2875
Wire Wire Line
	4450 2875 4500 2875
Connection ~ 4450 2875
Wire Wire Line
	4550 2875 4600 2875
Connection ~ 4550 2875
Wire Wire Line
	4750 2875 4800 2875
Connection ~ 4750 2875
Wire Wire Line
	4850 2875 4900 2875
Connection ~ 4850 2875
Wire Wire Line
	4950 2875 5000 2875
Connection ~ 4950 2875
Wire Wire Line
	5050 2875 5100 2875
Connection ~ 5050 2875
Wire Wire Line
	5150 2875 5200 2875
Connection ~ 5150 2875
Wire Wire Line
	5250 2875 5300 2875
Connection ~ 5250 2875
Wire Wire Line
	5300 2675 5300 2300
Connection ~ 5300 2300
Wire Wire Line
	5200 2675 5200 2300
Connection ~ 5200 2300
Wire Wire Line
	5100 2675 5100 2300
Connection ~ 5100 2300
Wire Wire Line
	5000 2675 5000 2300
Connection ~ 5000 2300
Wire Wire Line
	4900 2675 4900 2300
Connection ~ 4900 2300
Wire Wire Line
	4800 2675 4800 2300
Connection ~ 4800 2300
Wire Wire Line
	4600 2675 4600 2300
Connection ~ 4600 2300
Wire Wire Line
	4500 2675 4500 2300
Connection ~ 4500 2300
Wire Wire Line
	4400 2675 4400 2300
Connection ~ 4400 2300
Wire Wire Line
	2625 2625 2850 2625
Wire Wire Line
	2850 2625 2850 2800
Wire Wire Line
	3800 2300 3800 2675
Wire Wire Line
	4000 2675 4000 2300
Connection ~ 4000 2300
Wire Wire Line
	4100 2675 4100 2300
Connection ~ 4100 2300
Wire Wire Line
	4200 2675 4200 2300
Connection ~ 4200 2300
Wire Wire Line
	3650 2175 3650 3400
Wire Wire Line
	3200 3325 3250 3325
Wire Wire Line
	3250 2250 3250 3200
Connection ~ 3250 2300
Wire Wire Line
	3550 2175 3550 3400
Connection ~ 3550 3325
Connection ~ 3550 3200
Wire Wire Line
	3600 2750 3650 2750
Connection ~ 3650 2750
Wire Wire Line
	3600 2900 3650 2900
Connection ~ 3650 2900
Wire Wire Line
	3300 2750 3250 2750
Connection ~ 3250 2750
Wire Wire Line
	3300 2900 3200 2900
Wire Wire Line
	3200 2700 3200 3325
Connection ~ 2625 2250
Wire Wire Line
	5350 750  5350 775 
Wire Wire Line
	5250 675  5250 775 
Connection ~ 3250 2250
Wire Wire Line
	2850 2700 3200 2700
Connection ~ 2850 2700
Wire Wire Line
	1550 2200 1550 1125
Wire Wire Line
	1550 1400 1025 1400
Connection ~ 1025 1400
Wire Wire Line
	5550 1625 5550 2300
Connection ~ 3200 2900
Wire Wire Line
	725  2700 875  2700
Connection ~ 725  2575
Wire Wire Line
	1025 2200 1750 2200
Connection ~ 1025 1500
Connection ~ 1550 1400
Connection ~ 1400 2200
Wire Wire Line
	5550 2225 5675 2225
Wire Wire Line
	5675 2225 5675 2275
Connection ~ 5550 2225
Wire Wire Line
	725  2425 950  2425
Connection ~ 725  2425
Wire Wire Line
	1400 2200 1400 2275
$Comp
L GND #PWR02
U 1 1 5B127350
P 2850 2800
F 0 "#PWR02" H 2850 2550 50  0001 C CNN
F 1 "GND" H 2850 2650 50  0000 C CNN
F 2 "" H 2850 2800 50  0001 C CNN
F 3 "" H 2850 2800 50  0001 C CNN
	1    2850 2800
	1    0    0    -1  
$EndComp
$Comp
L GND #PWR03
U 1 1 5B1276AF
P 5675 2275
F 0 "#PWR03" H 5675 2025 50  0001 C CNN
F 1 "GND" H 5675 2125 50  0000 C CNN
F 2 "" H 5675 2275 50  0001 C CNN
F 3 "" H 5675 2275 50  0001 C CNN
	1    5675 2275
	1    0    0    -1  
$EndComp
$Comp
L PWR_FLAG #FLG04
U 1 1 5B129C96
P 950 2350
F 0 "#FLG04" H 950 2425 50  0001 C CNN
F 1 "PWR_FLAG" H 950 2500 50  0000 C CNN
F 2 "" H 950 2350 50  0001 C CNN
F 3 "" H 950 2350 50  0001 C CNN
	1    950  2350
	1    0    0    -1  
$EndComp
Wire Wire Line
	950  2425 950  2350
Wire Wire Line
	1250 5575 875  5575
Wire Wire Line
	875  5575 875  7375
Connection ~ 875  6375
Wire Wire Line
	2100 5375 2100 7375
Connection ~ 2100 5775
Connection ~ 2100 6075
Connection ~ 2100 6575
$Comp
L GND #PWR05
U 1 1 5B12CFE2
P 1500 7375
F 0 "#PWR05" H 1500 7125 50  0001 C CNN
F 1 "GND" H 1500 7225 50  0000 C CNN
F 2 "" H 1500 7375 50  0001 C CNN
F 3 "" H 1500 7375 50  0001 C CNN
	1    1500 7375
	1    0    0    -1  
$EndComp
Wire Wire Line
	2100 7375 875  7375
Connection ~ 2100 6775
Connection ~ 1500 7375
Connection ~ 875  7075
Wire Wire Line
	1825 5025 1825 5275
Wire Wire Line
	1825 5175 1750 5175
Wire Wire Line
	1825 5275 1750 5275
Connection ~ 1825 5175
Text GLabel 2400 2250 0    60   Output ~ 0
3.3V
Text GLabel 875  2700 2    60   Output ~ 0
5V
Text GLabel 1825 5025 1    60   Input ~ 0
5V
Text GLabel 650  5075 1    60   Input ~ 0
3.3V
Wire Wire Line
	1250 5175 650  5175
Wire Wire Line
	650  5075 650  5975
Wire Wire Line
	650  5975 1250 5975
Connection ~ 650  5175
Wire Wire Line
	5350 2175 5350 2300
Wire Wire Line
	3850 2300 3850 2175
Text GLabel 5150 3675 3    60   Input ~ 0
SPI1_MISO
Text GLabel 5525 775  2    60   Output ~ 0
SPI1_SCLK
Text GLabel 5525 675  2    60   Output ~ 0
SPI1_MOSI
Wire Wire Line
	5250 675  5525 675 
Wire Wire Line
	5350 750  5500 750 
Wire Wire Line
	5500 750  5500 775 
Wire Wire Line
	5500 775  5525 775 
$Comp
L PWR_FLAG #FLG06
U 1 1 5B139708
P 1750 2200
F 0 "#FLG06" H 1750 2275 50  0001 C CNN
F 1 "PWR_FLAG" H 1750 2350 50  0000 C CNN
F 2 "" H 1750 2200 50  0001 C CNN
F 3 "" H 1750 2200 50  0001 C CNN
	1    1750 2200
	1    0    0    -1  
$EndComp
Connection ~ 1550 2200
$Comp
L Conn_02x20_Odd_Even J4
U 1 1 5B13A416
P 2975 5975
F 0 "J4" H 3025 6975 50  0000 C CNN
F 1 "Conn_02x20_Odd_Even" H 3025 4875 50  0000 C CNN
F 2 "Socket_Strips:Socket_Strip_Straight_2x20_Pitch2.54mm" H 2975 5975 50  0001 C CNN
F 3 "" H 2975 5975 50  0001 C CNN
	1    2975 5975
	1    0    0    -1  
$EndComp
Text GLabel 2700 5175 0    60   BiDi ~ 0
I2C1_SDA
Text GLabel 2700 5275 0    60   Input ~ 0
I2C1_SCL
Text GLabel 2700 5375 0    60   BiDi ~ 0
7
Text GLabel 2700 5575 0    60   BiDi ~ 0
11
Text GLabel 2700 5675 0    60   BiDi ~ 0
13
Text GLabel 2700 5775 0    60   BiDi ~ 0
15
Text GLabel 2700 5975 0    60   Input ~ 0
SPI0_MOSI
Text GLabel 2700 6075 0    60   Output ~ 0
SPI0_MISO
Text GLabel 2700 6175 0    60   Input ~ 0
SPI0_CLK
Text GLabel 2700 6375 0    60   BiDi ~ 0
27
Text GLabel 2700 6475 0    60   BiDi ~ 0
29
Text GLabel 2700 6575 0    60   BiDi ~ 0
31
Text GLabel 2700 6675 0    60   BiDi ~ 0
33
Text GLabel 2700 6775 0    60   Output ~ 0
SPI1_MISO
Text GLabel 2700 6875 0    60   BiDi ~ 0
37
Text GLabel 3325 6975 2    60   BiDi ~ 0
SPI1_SCLK
Text GLabel 3325 6875 2    60   Input ~ 0
SPI1_MOSI
Text GLabel 3325 6775 2    60   BiDi ~ 0
36
Text GLabel 3325 6575 2    60   BiDi ~ 0
32
Text GLabel 3325 6375 2    60   BiDi ~ 0
28
Text GLabel 3325 6275 2    60   BiDi ~ 0
26
Text GLabel 3325 6175 2    60   BiDi ~ 0
24
Text GLabel 3325 6075 2    60   BiDi ~ 0
22
Text GLabel 3325 5875 2    60   BiDi ~ 0
18
Text GLabel 3325 5775 2    60   BiDi ~ 0
16
Text GLabel 3325 5575 2    60   BiDi ~ 0
12
Text GLabel 3325 5475 2    60   BiDi ~ 0
10
Text GLabel 3325 5375 2    60   BiDi ~ 0
8
Wire Wire Line
	3275 5275 3625 5275
Wire Wire Line
	3325 5375 3275 5375
Wire Wire Line
	3325 5475 3275 5475
Wire Wire Line
	3325 5575 3275 5575
Wire Wire Line
	3275 5675 3625 5675
Wire Wire Line
	3325 5775 3275 5775
Wire Wire Line
	3325 5875 3275 5875
Wire Wire Line
	3625 5975 3275 5975
Wire Wire Line
	3325 6075 3275 6075
Wire Wire Line
	3325 6175 3275 6175
Wire Wire Line
	3325 6275 3275 6275
Wire Wire Line
	3325 6375 3275 6375
Wire Wire Line
	3625 6475 3275 6475
Wire Wire Line
	3325 6575 3275 6575
Wire Wire Line
	3625 6675 3275 6675
Wire Wire Line
	3325 6775 3275 6775
Wire Wire Line
	3325 6875 3275 6875
Wire Wire Line
	3325 6975 3275 6975
Wire Wire Line
	2775 5175 2700 5175
Wire Wire Line
	2775 5275 2700 5275
Wire Wire Line
	2775 5375 2700 5375
Wire Wire Line
	2775 5575 2700 5575
Wire Wire Line
	2775 5675 2700 5675
Wire Wire Line
	2775 5775 2700 5775
Wire Wire Line
	2775 5975 2700 5975
Wire Wire Line
	2775 6075 2700 6075
Wire Wire Line
	2775 6175 2700 6175
Wire Wire Line
	2400 6275 2775 6275
Wire Wire Line
	2775 6375 2700 6375
Wire Wire Line
	2775 6475 2700 6475
Wire Wire Line
	2775 6575 2700 6575
Wire Wire Line
	2775 6675 2700 6675
Wire Wire Line
	2775 6775 2700 6775
Wire Wire Line
	2775 6875 2700 6875
Wire Wire Line
	2400 6975 2775 6975
Wire Wire Line
	2775 5475 2400 5475
Wire Wire Line
	2400 5475 2400 7275
Connection ~ 2400 6275
Wire Wire Line
	3625 5275 3625 7275
Connection ~ 3625 5675
Connection ~ 3625 5975
Connection ~ 3625 6475
$Comp
L GND #PWR07
U 1 1 5B13A462
P 3025 7275
F 0 "#PWR07" H 3025 7025 50  0001 C CNN
F 1 "GND" H 3025 7125 50  0000 C CNN
F 2 "" H 3025 7275 50  0001 C CNN
F 3 "" H 3025 7275 50  0001 C CNN
	1    3025 7275
	1    0    0    -1  
$EndComp
Wire Wire Line
	3625 7275 2400 7275
Connection ~ 3625 6675
Connection ~ 3025 7275
Connection ~ 2400 6975
Wire Wire Line
	3350 4925 3350 5175
Wire Wire Line
	3350 5075 3275 5075
Wire Wire Line
	3350 5175 3275 5175
Connection ~ 3350 5075
Text GLabel 3350 4925 1    60   Input ~ 0
5V
Text GLabel 2175 4975 1    60   Input ~ 0
3.3V
Wire Wire Line
	2775 5075 2175 5075
Wire Wire Line
	2175 4975 2175 5875
Wire Wire Line
	2175 5875 2775 5875
Connection ~ 2175 5075
$Comp
L Conn_02x20_Odd_Even J5
U 1 1 5B13A5C8
P 4525 5850
F 0 "J5" H 4575 6850 50  0000 C CNN
F 1 "Conn_02x20_Odd_Even" H 4575 4750 50  0000 C CNN
F 2 "Socket_Strips:Socket_Strip_Straight_2x20_Pitch2.54mm" H 4525 5850 50  0001 C CNN
F 3 "" H 4525 5850 50  0001 C CNN
	1    4525 5850
	1    0    0    -1  
$EndComp
Text GLabel 4250 5050 0    60   BiDi ~ 0
I2C1_SDA
Text GLabel 4250 5150 0    60   Input ~ 0
I2C1_SCL
Text GLabel 4250 5250 0    60   BiDi ~ 0
7
Text GLabel 4250 5450 0    60   BiDi ~ 0
11
Text GLabel 4250 5550 0    60   BiDi ~ 0
13
Text GLabel 4250 5650 0    60   BiDi ~ 0
15
Text GLabel 4250 5850 0    60   Input ~ 0
SPI0_MOSI
Text GLabel 4250 5950 0    60   Output ~ 0
SPI0_MISO
Text GLabel 4250 6050 0    60   Input ~ 0
SPI0_CLK
Text GLabel 4250 6250 0    60   BiDi ~ 0
27
Text GLabel 4250 6350 0    60   BiDi ~ 0
29
Text GLabel 4250 6450 0    60   BiDi ~ 0
31
Text GLabel 4250 6550 0    60   BiDi ~ 0
33
Text GLabel 4250 6650 0    60   Output ~ 0
SPI1_MISO
Text GLabel 4250 6750 0    60   BiDi ~ 0
37
Text GLabel 4875 6850 2    60   BiDi ~ 0
SPI1_SCLK
Text GLabel 4875 6750 2    60   Input ~ 0
SPI1_MOSI
Text GLabel 4875 6650 2    60   BiDi ~ 0
36
Text GLabel 4875 6450 2    60   BiDi ~ 0
32
Text GLabel 4875 6250 2    60   BiDi ~ 0
28
Text GLabel 4875 6150 2    60   BiDi ~ 0
26
Text GLabel 4875 6050 2    60   BiDi ~ 0
24
Text GLabel 4875 5950 2    60   BiDi ~ 0
22
Text GLabel 4875 5750 2    60   BiDi ~ 0
18
Text GLabel 4875 5650 2    60   BiDi ~ 0
16
Text GLabel 4875 5450 2    60   BiDi ~ 0
12
Text GLabel 4875 5350 2    60   BiDi ~ 0
10
Text GLabel 4875 5250 2    60   BiDi ~ 0
8
Wire Wire Line
	4825 5150 5175 5150
Wire Wire Line
	4875 5250 4825 5250
Wire Wire Line
	4875 5350 4825 5350
Wire Wire Line
	4875 5450 4825 5450
Wire Wire Line
	4825 5550 5175 5550
Wire Wire Line
	4875 5650 4825 5650
Wire Wire Line
	4875 5750 4825 5750
Wire Wire Line
	5175 5850 4825 5850
Wire Wire Line
	4875 5950 4825 5950
Wire Wire Line
	4875 6050 4825 6050
Wire Wire Line
	4875 6150 4825 6150
Wire Wire Line
	4875 6250 4825 6250
Wire Wire Line
	5175 6350 4825 6350
Wire Wire Line
	4875 6450 4825 6450
Wire Wire Line
	5175 6550 4825 6550
Wire Wire Line
	4875 6650 4825 6650
Wire Wire Line
	4875 6750 4825 6750
Wire Wire Line
	4875 6850 4825 6850
Wire Wire Line
	4325 5050 4250 5050
Wire Wire Line
	4325 5150 4250 5150
Wire Wire Line
	4325 5250 4250 5250
Wire Wire Line
	4325 5450 4250 5450
Wire Wire Line
	4325 5550 4250 5550
Wire Wire Line
	4325 5650 4250 5650
Wire Wire Line
	4325 5850 4250 5850
Wire Wire Line
	4325 5950 4250 5950
Wire Wire Line
	4325 6050 4250 6050
Wire Wire Line
	3950 6150 4325 6150
Wire Wire Line
	4325 6250 4250 6250
Wire Wire Line
	4325 6350 4250 6350
Wire Wire Line
	4325 6450 4250 6450
Wire Wire Line
	4325 6550 4250 6550
Wire Wire Line
	4325 6650 4250 6650
Wire Wire Line
	4325 6750 4250 6750
Wire Wire Line
	3950 6850 4325 6850
Wire Wire Line
	4325 5350 3950 5350
Wire Wire Line
	3950 5350 3950 7150
Connection ~ 3950 6150
Wire Wire Line
	5175 5150 5175 7150
Connection ~ 5175 5550
Connection ~ 5175 5850
Connection ~ 5175 6350
$Comp
L GND #PWR08
U 1 1 5B13A614
P 4575 7150
F 0 "#PWR08" H 4575 6900 50  0001 C CNN
F 1 "GND" H 4575 7000 50  0000 C CNN
F 2 "" H 4575 7150 50  0001 C CNN
F 3 "" H 4575 7150 50  0001 C CNN
	1    4575 7150
	1    0    0    -1  
$EndComp
Wire Wire Line
	5175 7150 3950 7150
Connection ~ 5175 6550
Connection ~ 4575 7150
Connection ~ 3950 6850
Wire Wire Line
	4900 4800 4900 5050
Wire Wire Line
	4900 4950 4825 4950
Wire Wire Line
	4900 5050 4825 5050
Connection ~ 4900 4950
Text GLabel 4900 4800 1    60   Input ~ 0
5V
Text GLabel 3725 4850 1    60   Input ~ 0
3.3V
Wire Wire Line
	4325 4950 3725 4950
Wire Wire Line
	3725 4850 3725 5750
Wire Wire Line
	3725 5750 4325 5750
Connection ~ 3725 4950
$Comp
L Conn_02x20_Odd_Even J6
U 1 1 5B13A628
P 6050 5750
F 0 "J6" H 6100 6750 50  0000 C CNN
F 1 "Conn_02x20_Odd_Even" H 6100 4650 50  0000 C CNN
F 2 "Socket_Strips:Socket_Strip_Straight_2x20_Pitch2.54mm" H 6050 5750 50  0001 C CNN
F 3 "" H 6050 5750 50  0001 C CNN
	1    6050 5750
	1    0    0    -1  
$EndComp
Text GLabel 5775 4950 0    60   BiDi ~ 0
I2C1_SDA
Text GLabel 5775 5050 0    60   Input ~ 0
I2C1_SCL
Text GLabel 5775 5150 0    60   BiDi ~ 0
7
Text GLabel 5775 5350 0    60   BiDi ~ 0
11
Text GLabel 5775 5450 0    60   BiDi ~ 0
13
Text GLabel 5775 5550 0    60   BiDi ~ 0
15
Text GLabel 5775 5750 0    60   Input ~ 0
SPI0_MOSI
Text GLabel 5775 5850 0    60   Output ~ 0
SPI0_MISO
Text GLabel 5775 5950 0    60   Input ~ 0
SPI0_CLK
Text GLabel 5775 6150 0    60   BiDi ~ 0
27
Text GLabel 5775 6250 0    60   BiDi ~ 0
29
Text GLabel 5775 6350 0    60   BiDi ~ 0
31
Text GLabel 5775 6450 0    60   BiDi ~ 0
33
Text GLabel 5775 6550 0    60   Output ~ 0
SPI1_MISO
Text GLabel 5775 6650 0    60   BiDi ~ 0
37
Text GLabel 6400 6750 2    60   BiDi ~ 0
SPI1_SCLK
Text GLabel 6400 6650 2    60   Input ~ 0
SPI1_MOSI
Text GLabel 6400 6550 2    60   BiDi ~ 0
36
Text GLabel 6400 6350 2    60   BiDi ~ 0
32
Text GLabel 6400 6150 2    60   BiDi ~ 0
28
Text GLabel 6400 6050 2    60   BiDi ~ 0
26
Text GLabel 6400 5950 2    60   BiDi ~ 0
24
Text GLabel 6400 5850 2    60   BiDi ~ 0
22
Text GLabel 6400 5650 2    60   BiDi ~ 0
18
Text GLabel 6400 5550 2    60   BiDi ~ 0
16
Text GLabel 6400 5350 2    60   BiDi ~ 0
12
Text GLabel 6400 5250 2    60   BiDi ~ 0
10
Text GLabel 6400 5150 2    60   BiDi ~ 0
8
Wire Wire Line
	6350 5050 6700 5050
Wire Wire Line
	6400 5150 6350 5150
Wire Wire Line
	6400 5250 6350 5250
Wire Wire Line
	6400 5350 6350 5350
Wire Wire Line
	6350 5450 6700 5450
Wire Wire Line
	6400 5550 6350 5550
Wire Wire Line
	6400 5650 6350 5650
Wire Wire Line
	6700 5750 6350 5750
Wire Wire Line
	6400 5850 6350 5850
Wire Wire Line
	6400 5950 6350 5950
Wire Wire Line
	6400 6050 6350 6050
Wire Wire Line
	6400 6150 6350 6150
Wire Wire Line
	6700 6250 6350 6250
Wire Wire Line
	6400 6350 6350 6350
Wire Wire Line
	6700 6450 6350 6450
Wire Wire Line
	6400 6550 6350 6550
Wire Wire Line
	6400 6650 6350 6650
Wire Wire Line
	6400 6750 6350 6750
Wire Wire Line
	5850 4950 5775 4950
Wire Wire Line
	5850 5050 5775 5050
Wire Wire Line
	5850 5150 5775 5150
Wire Wire Line
	5850 5350 5775 5350
Wire Wire Line
	5850 5450 5775 5450
Wire Wire Line
	5850 5550 5775 5550
Wire Wire Line
	5850 5750 5775 5750
Wire Wire Line
	5850 5850 5775 5850
Wire Wire Line
	5850 5950 5775 5950
Wire Wire Line
	5475 6050 5850 6050
Wire Wire Line
	5850 6150 5775 6150
Wire Wire Line
	5850 6250 5775 6250
Wire Wire Line
	5850 6350 5775 6350
Wire Wire Line
	5850 6450 5775 6450
Wire Wire Line
	5850 6550 5775 6550
Wire Wire Line
	5850 6650 5775 6650
Wire Wire Line
	5475 6750 5850 6750
Wire Wire Line
	5850 5250 5475 5250
Wire Wire Line
	5475 5250 5475 7050
Connection ~ 5475 6050
Wire Wire Line
	6700 5050 6700 7050
Connection ~ 6700 5450
Connection ~ 6700 5750
Connection ~ 6700 6250
$Comp
L GND #PWR09
U 1 1 5B13A674
P 6100 7050
F 0 "#PWR09" H 6100 6800 50  0001 C CNN
F 1 "GND" H 6100 6900 50  0000 C CNN
F 2 "" H 6100 7050 50  0001 C CNN
F 3 "" H 6100 7050 50  0001 C CNN
	1    6100 7050
	1    0    0    -1  
$EndComp
Wire Wire Line
	6700 7050 5475 7050
Connection ~ 6700 6450
Connection ~ 6100 7050
Connection ~ 5475 6750
Wire Wire Line
	6425 4700 6425 4950
Wire Wire Line
	6425 4850 6350 4850
Wire Wire Line
	6425 4950 6350 4950
Connection ~ 6425 4850
Text GLabel 6425 4700 1    60   Input ~ 0
5V
Text GLabel 5250 4750 1    60   Input ~ 0
3.3V
Wire Wire Line
	5850 4850 5250 4850
Wire Wire Line
	5250 4750 5250 5650
Wire Wire Line
	5250 5650 5850 5650
Connection ~ 5250 4850
$Comp
L Conn_02x20_Odd_Even J7
U 1 1 5B13A928
P 8100 5275
F 0 "J7" H 8150 6275 50  0000 C CNN
F 1 "Conn_02x20_Odd_Even" H 8150 4175 50  0000 C CNN
F 2 "Socket_Strips:Socket_Strip_Straight_2x20_Pitch2.54mm" H 8100 5275 50  0001 C CNN
F 3 "" H 8100 5275 50  0001 C CNN
	1    8100 5275
	1    0    0    -1  
$EndComp
Text GLabel 7825 4475 0    60   BiDi ~ 0
I2C1_SDA
Text GLabel 7825 4575 0    60   Input ~ 0
I2C1_SCL
Text GLabel 7825 4675 0    60   BiDi ~ 0
7
Text GLabel 7825 4875 0    60   BiDi ~ 0
11
Text GLabel 7825 4975 0    60   BiDi ~ 0
13
Text GLabel 7825 5075 0    60   BiDi ~ 0
15
Text GLabel 7825 5275 0    60   Input ~ 0
SPI0_MOSI
Text GLabel 7825 5375 0    60   Output ~ 0
SPI0_MISO
Text GLabel 7825 5475 0    60   Input ~ 0
SPI0_CLK
Text GLabel 7825 5675 0    60   BiDi ~ 0
27
Text GLabel 7825 5775 0    60   BiDi ~ 0
29
Text GLabel 7825 5875 0    60   BiDi ~ 0
31
Text GLabel 7825 5975 0    60   BiDi ~ 0
33
Text GLabel 7825 6075 0    60   Output ~ 0
SPI1_MISO
Text GLabel 7825 6175 0    60   BiDi ~ 0
37
Text GLabel 8450 6275 2    60   BiDi ~ 0
SPI1_SCLK
Text GLabel 8450 6175 2    60   Input ~ 0
SPI1_MOSI
Text GLabel 8450 6075 2    60   BiDi ~ 0
36
Text GLabel 8450 5875 2    60   BiDi ~ 0
32
Text GLabel 8450 5675 2    60   BiDi ~ 0
28
Text GLabel 8450 5575 2    60   BiDi ~ 0
26
Text GLabel 8450 5475 2    60   BiDi ~ 0
24
Text GLabel 8450 5375 2    60   BiDi ~ 0
22
Text GLabel 8450 5175 2    60   BiDi ~ 0
18
Text GLabel 8450 5075 2    60   BiDi ~ 0
16
Text GLabel 8450 4875 2    60   BiDi ~ 0
12
Text GLabel 8450 4775 2    60   BiDi ~ 0
10
Text GLabel 8450 4675 2    60   BiDi ~ 0
8
Wire Wire Line
	8400 4575 8750 4575
Wire Wire Line
	8450 4675 8400 4675
Wire Wire Line
	8450 4775 8400 4775
Wire Wire Line
	8450 4875 8400 4875
Wire Wire Line
	8400 4975 8750 4975
Wire Wire Line
	8450 5075 8400 5075
Wire Wire Line
	8450 5175 8400 5175
Wire Wire Line
	8750 5275 8400 5275
Wire Wire Line
	8450 5375 8400 5375
Wire Wire Line
	8450 5475 8400 5475
Wire Wire Line
	8450 5575 8400 5575
Wire Wire Line
	8450 5675 8400 5675
Wire Wire Line
	8750 5775 8400 5775
Wire Wire Line
	8450 5875 8400 5875
Wire Wire Line
	8750 5975 8400 5975
Wire Wire Line
	8450 6075 8400 6075
Wire Wire Line
	8450 6175 8400 6175
Wire Wire Line
	8450 6275 8400 6275
Wire Wire Line
	7900 4475 7825 4475
Wire Wire Line
	7900 4575 7825 4575
Wire Wire Line
	7900 4675 7825 4675
Wire Wire Line
	7900 4875 7825 4875
Wire Wire Line
	7900 4975 7825 4975
Wire Wire Line
	7900 5075 7825 5075
Wire Wire Line
	7900 5275 7825 5275
Wire Wire Line
	7900 5375 7825 5375
Wire Wire Line
	7900 5475 7825 5475
Wire Wire Line
	7525 5575 7900 5575
Wire Wire Line
	7900 5675 7825 5675
Wire Wire Line
	7900 5775 7825 5775
Wire Wire Line
	7900 5875 7825 5875
Wire Wire Line
	7900 5975 7825 5975
Wire Wire Line
	7900 6075 7825 6075
Wire Wire Line
	7900 6175 7825 6175
Wire Wire Line
	7525 6275 7900 6275
Wire Wire Line
	7900 4775 7525 4775
Wire Wire Line
	7525 4775 7525 6575
Connection ~ 7525 5575
Wire Wire Line
	8750 4575 8750 6575
Connection ~ 8750 4975
Connection ~ 8750 5275
Connection ~ 8750 5775
$Comp
L GND #PWR010
U 1 1 5B13A974
P 8150 6575
F 0 "#PWR010" H 8150 6325 50  0001 C CNN
F 1 "GND" H 8150 6425 50  0000 C CNN
F 2 "" H 8150 6575 50  0001 C CNN
F 3 "" H 8150 6575 50  0001 C CNN
	1    8150 6575
	1    0    0    -1  
$EndComp
Wire Wire Line
	8750 6575 7525 6575
Connection ~ 8750 5975
Connection ~ 8150 6575
Connection ~ 7525 6275
Wire Wire Line
	8475 4225 8475 4475
Wire Wire Line
	8475 4375 8400 4375
Wire Wire Line
	8475 4475 8400 4475
Connection ~ 8475 4375
Text GLabel 8475 4225 1    60   Input ~ 0
5V
Text GLabel 7300 4275 1    60   Input ~ 0
3.3V
Wire Wire Line
	7900 4375 7300 4375
Wire Wire Line
	7300 4275 7300 5175
Wire Wire Line
	7300 5175 7900 5175
Connection ~ 7300 4375
$Comp
L Conn_02x20_Odd_Even J9
U 1 1 5B13A988
P 9625 5175
F 0 "J9" H 9675 6175 50  0000 C CNN
F 1 "Conn_02x20_Odd_Even" H 9675 4075 50  0000 C CNN
F 2 "Socket_Strips:Socket_Strip_Straight_2x20_Pitch2.54mm" H 9625 5175 50  0001 C CNN
F 3 "" H 9625 5175 50  0001 C CNN
	1    9625 5175
	1    0    0    -1  
$EndComp
Text GLabel 9350 4375 0    60   BiDi ~ 0
I2C1_SDA
Text GLabel 9350 4475 0    60   Input ~ 0
I2C1_SCL
Text GLabel 9350 4575 0    60   BiDi ~ 0
7
Text GLabel 9350 4775 0    60   BiDi ~ 0
11
Text GLabel 9350 4875 0    60   BiDi ~ 0
13
Text GLabel 9350 4975 0    60   BiDi ~ 0
15
Text GLabel 9350 5175 0    60   Input ~ 0
SPI0_MOSI
Text GLabel 9350 5275 0    60   Output ~ 0
SPI0_MISO
Text GLabel 9350 5375 0    60   Input ~ 0
SPI0_CLK
Text GLabel 9350 5575 0    60   BiDi ~ 0
27
Text GLabel 9350 5675 0    60   BiDi ~ 0
29
Text GLabel 9350 5775 0    60   BiDi ~ 0
31
Text GLabel 9350 5875 0    60   BiDi ~ 0
33
Text GLabel 9350 5975 0    60   Output ~ 0
SPI1_MISO
Text GLabel 9350 6075 0    60   BiDi ~ 0
37
Text GLabel 9975 6175 2    60   BiDi ~ 0
SPI1_SCLK
Text GLabel 9975 6075 2    60   Input ~ 0
SPI1_MOSI
Text GLabel 9975 5975 2    60   BiDi ~ 0
36
Text GLabel 9975 5775 2    60   BiDi ~ 0
32
Text GLabel 9975 5575 2    60   BiDi ~ 0
28
Text GLabel 9975 5475 2    60   BiDi ~ 0
26
Text GLabel 9975 5375 2    60   BiDi ~ 0
24
Text GLabel 9975 5275 2    60   BiDi ~ 0
22
Text GLabel 9975 5075 2    60   BiDi ~ 0
18
Text GLabel 9975 4975 2    60   BiDi ~ 0
16
Text GLabel 9975 4775 2    60   BiDi ~ 0
12
Text GLabel 9975 4675 2    60   BiDi ~ 0
10
Text GLabel 9975 4575 2    60   BiDi ~ 0
8
Wire Wire Line
	9925 4475 10275 4475
Wire Wire Line
	9975 4575 9925 4575
Wire Wire Line
	9975 4675 9925 4675
Wire Wire Line
	9975 4775 9925 4775
Wire Wire Line
	9925 4875 10275 4875
Wire Wire Line
	9975 4975 9925 4975
Wire Wire Line
	9975 5075 9925 5075
Wire Wire Line
	10275 5175 9925 5175
Wire Wire Line
	9975 5275 9925 5275
Wire Wire Line
	9975 5375 9925 5375
Wire Wire Line
	9975 5475 9925 5475
Wire Wire Line
	9975 5575 9925 5575
Wire Wire Line
	10275 5675 9925 5675
Wire Wire Line
	9975 5775 9925 5775
Wire Wire Line
	10275 5875 9925 5875
Wire Wire Line
	9975 5975 9925 5975
Wire Wire Line
	9975 6075 9925 6075
Wire Wire Line
	9975 6175 9925 6175
Wire Wire Line
	9425 4375 9350 4375
Wire Wire Line
	9425 4475 9350 4475
Wire Wire Line
	9425 4575 9350 4575
Wire Wire Line
	9425 4775 9350 4775
Wire Wire Line
	9425 4875 9350 4875
Wire Wire Line
	9425 4975 9350 4975
Wire Wire Line
	9425 5175 9350 5175
Wire Wire Line
	9425 5275 9350 5275
Wire Wire Line
	9425 5375 9350 5375
Wire Wire Line
	9050 5475 9425 5475
Wire Wire Line
	9425 5575 9350 5575
Wire Wire Line
	9425 5675 9350 5675
Wire Wire Line
	9425 5775 9350 5775
Wire Wire Line
	9425 5875 9350 5875
Wire Wire Line
	9425 5975 9350 5975
Wire Wire Line
	9425 6075 9350 6075
Wire Wire Line
	9050 6175 9425 6175
Wire Wire Line
	9425 4675 9050 4675
Wire Wire Line
	9050 4675 9050 6475
Connection ~ 9050 5475
Wire Wire Line
	10275 4475 10275 6475
Connection ~ 10275 4875
Connection ~ 10275 5175
Connection ~ 10275 5675
$Comp
L GND #PWR011
U 1 1 5B13A9D4
P 9675 6475
F 0 "#PWR011" H 9675 6225 50  0001 C CNN
F 1 "GND" H 9675 6325 50  0000 C CNN
F 2 "" H 9675 6475 50  0001 C CNN
F 3 "" H 9675 6475 50  0001 C CNN
	1    9675 6475
	1    0    0    -1  
$EndComp
Wire Wire Line
	10275 6475 9050 6475
Connection ~ 10275 5875
Connection ~ 9675 6475
Connection ~ 9050 6175
Wire Wire Line
	10000 4125 10000 4375
Wire Wire Line
	10000 4275 9925 4275
Wire Wire Line
	10000 4375 9925 4375
Connection ~ 10000 4275
Text GLabel 10000 4125 1    60   Input ~ 0
5V
Text GLabel 8825 4175 1    60   Input ~ 0
3.3V
Wire Wire Line
	9425 4275 8825 4275
Wire Wire Line
	8825 4175 8825 5075
Wire Wire Line
	8825 5075 9425 5075
Connection ~ 8825 4275
$Comp
L Conn_02x20_Odd_Even J10
U 1 1 5B13A9E8
P 10175 2150
F 0 "J10" H 10225 3150 50  0000 C CNN
F 1 "Conn_02x20_Odd_Even" H 10225 1050 50  0000 C CNN
F 2 "Connectors_IDC:IDC-Header_2x20_Pitch2.54mm_Straight" H 10175 2150 50  0001 C CNN
F 3 "" H 10175 2150 50  0001 C CNN
	1    10175 2150
	1    0    0    -1  
$EndComp
Text GLabel 9900 1350 0    60   BiDi ~ 0
I2C1_SDA
Text GLabel 9900 1450 0    60   Input ~ 0
I2C1_SCL
Text GLabel 9900 1550 0    60   BiDi ~ 0
7
Text GLabel 9900 1750 0    60   BiDi ~ 0
11
Text GLabel 9900 1850 0    60   BiDi ~ 0
13
Text GLabel 9900 1950 0    60   BiDi ~ 0
15
Text GLabel 9900 2150 0    60   Input ~ 0
SPI0_MOSI
Text GLabel 9900 2250 0    60   Output ~ 0
SPI0_MISO
Text GLabel 9900 2350 0    60   Input ~ 0
SPI0_CLK
Text GLabel 9900 2550 0    60   BiDi ~ 0
27
Text GLabel 9900 2650 0    60   BiDi ~ 0
29
Text GLabel 9900 2750 0    60   BiDi ~ 0
31
Text GLabel 9900 2850 0    60   BiDi ~ 0
33
Text GLabel 9900 2950 0    60   Output ~ 0
SPI1_MISO
Text GLabel 9900 3050 0    60   BiDi ~ 0
37
Text GLabel 10525 3150 2    60   BiDi ~ 0
SPI1_SCLK
Text GLabel 10525 3050 2    60   Input ~ 0
SPI1_MOSI
Text GLabel 10525 2950 2    60   BiDi ~ 0
36
Text GLabel 10525 2750 2    60   BiDi ~ 0
32
Text GLabel 10525 2550 2    60   BiDi ~ 0
28
Text GLabel 10525 2450 2    60   BiDi ~ 0
26
Text GLabel 10525 2350 2    60   BiDi ~ 0
24
Text GLabel 10525 2250 2    60   BiDi ~ 0
22
Text GLabel 10525 2050 2    60   BiDi ~ 0
18
Text GLabel 10525 1950 2    60   BiDi ~ 0
16
Text GLabel 10525 1750 2    60   BiDi ~ 0
12
Text GLabel 10525 1650 2    60   BiDi ~ 0
10
Text GLabel 10525 1550 2    60   BiDi ~ 0
8
Wire Wire Line
	10475 1450 10825 1450
Wire Wire Line
	10525 1550 10475 1550
Wire Wire Line
	10525 1650 10475 1650
Wire Wire Line
	10525 1750 10475 1750
Wire Wire Line
	10475 1850 10825 1850
Wire Wire Line
	10525 1950 10475 1950
Wire Wire Line
	10525 2050 10475 2050
Wire Wire Line
	10825 2150 10475 2150
Wire Wire Line
	10525 2250 10475 2250
Wire Wire Line
	10525 2350 10475 2350
Wire Wire Line
	10525 2450 10475 2450
Wire Wire Line
	10525 2550 10475 2550
Wire Wire Line
	10825 2650 10475 2650
Wire Wire Line
	10525 2750 10475 2750
Wire Wire Line
	10825 2850 10475 2850
Wire Wire Line
	10525 2950 10475 2950
Wire Wire Line
	10525 3050 10475 3050
Wire Wire Line
	10525 3150 10475 3150
Wire Wire Line
	9975 1350 9900 1350
Wire Wire Line
	9975 1450 9900 1450
Wire Wire Line
	9975 1550 9900 1550
Wire Wire Line
	9975 1750 9900 1750
Wire Wire Line
	9975 1850 9900 1850
Wire Wire Line
	9975 1950 9900 1950
Wire Wire Line
	9975 2150 9900 2150
Wire Wire Line
	9975 2250 9900 2250
Wire Wire Line
	9975 2350 9900 2350
Wire Wire Line
	9600 2450 9975 2450
Wire Wire Line
	9975 2550 9900 2550
Wire Wire Line
	9975 2650 9900 2650
Wire Wire Line
	9975 2750 9900 2750
Wire Wire Line
	9975 2850 9900 2850
Wire Wire Line
	9975 2950 9900 2950
Wire Wire Line
	9975 3050 9900 3050
Wire Wire Line
	9600 3150 9975 3150
Wire Wire Line
	9975 1650 9600 1650
Wire Wire Line
	9600 1650 9600 3450
Connection ~ 9600 2450
Wire Wire Line
	10825 1450 10825 3450
Connection ~ 10825 1850
Connection ~ 10825 2150
Connection ~ 10825 2650
$Comp
L GND #PWR012
U 1 1 5B13AA34
P 10225 3450
F 0 "#PWR012" H 10225 3200 50  0001 C CNN
F 1 "GND" H 10225 3300 50  0000 C CNN
F 2 "" H 10225 3450 50  0001 C CNN
F 3 "" H 10225 3450 50  0001 C CNN
	1    10225 3450
	1    0    0    -1  
$EndComp
Wire Wire Line
	10825 3450 9600 3450
Connection ~ 10825 2850
Connection ~ 10225 3450
Connection ~ 9600 3150
Wire Wire Line
	10550 1100 10550 1350
Wire Wire Line
	10550 1250 10475 1250
Wire Wire Line
	10550 1350 10475 1350
Connection ~ 10550 1250
Text GLabel 10550 1100 1    60   Input ~ 0
5V
Text GLabel 9375 1150 1    60   Input ~ 0
3.3V
Wire Wire Line
	9975 1250 9375 1250
Wire Wire Line
	9375 1150 9375 2050
Wire Wire Line
	9375 2050 9975 2050
Connection ~ 9375 1250
$Comp
L Conn_02x20_Odd_Even J11
U 1 1 5B1A00F8
P 8225 2125
F 0 "J11" H 8275 3125 50  0000 C CNN
F 1 "Conn_02x20_Odd_Even" H 8275 1025 50  0000 C CNN
F 2 "Socket_Strips:Socket_Strip_Straight_2x20_Pitch2.54mm" H 8225 2125 50  0001 C CNN
F 3 "" H 8225 2125 50  0001 C CNN
	1    8225 2125
	1    0    0    -1  
$EndComp
Text GLabel 7950 1325 0    60   BiDi ~ 0
I2C1_SDA
Text GLabel 7950 1425 0    60   Input ~ 0
I2C1_SCL
Text GLabel 7950 1525 0    60   BiDi ~ 0
7
Text GLabel 7950 1725 0    60   BiDi ~ 0
11
Text GLabel 7950 1825 0    60   BiDi ~ 0
13
Text GLabel 7950 1925 0    60   BiDi ~ 0
15
Text GLabel 7950 2125 0    60   Input ~ 0
SPI0_MOSI
Text GLabel 7950 2225 0    60   Output ~ 0
SPI0_MISO
Text GLabel 7950 2325 0    60   Input ~ 0
SPI0_CLK
Text GLabel 7950 2525 0    60   BiDi ~ 0
27
Text GLabel 7950 2625 0    60   BiDi ~ 0
29
Text GLabel 7950 2725 0    60   BiDi ~ 0
31
Text GLabel 7950 2825 0    60   BiDi ~ 0
33
Text GLabel 7950 2925 0    60   Output ~ 0
SPI1_MISO
Text GLabel 7950 3025 0    60   BiDi ~ 0
37
Text GLabel 8575 3125 2    60   BiDi ~ 0
SPI1_SCLK
Text GLabel 8575 3025 2    60   Input ~ 0
SPI1_MOSI
Text GLabel 8575 2925 2    60   BiDi ~ 0
36
Text GLabel 8575 2725 2    60   BiDi ~ 0
32
Text GLabel 8575 2525 2    60   BiDi ~ 0
28
Text GLabel 8575 2425 2    60   BiDi ~ 0
26
Text GLabel 8575 2325 2    60   BiDi ~ 0
24
Text GLabel 8575 2225 2    60   BiDi ~ 0
22
Text GLabel 8575 2025 2    60   BiDi ~ 0
18
Text GLabel 8575 1925 2    60   BiDi ~ 0
16
Text GLabel 8575 1725 2    60   BiDi ~ 0
12
Text GLabel 8575 1625 2    60   BiDi ~ 0
10
Text GLabel 8575 1525 2    60   BiDi ~ 0
8
Wire Wire Line
	8525 1425 8875 1425
Wire Wire Line
	8575 1525 8525 1525
Wire Wire Line
	8575 1625 8525 1625
Wire Wire Line
	8575 1725 8525 1725
Wire Wire Line
	8525 1825 8875 1825
Wire Wire Line
	8575 1925 8525 1925
Wire Wire Line
	8575 2025 8525 2025
Wire Wire Line
	8875 2125 8525 2125
Wire Wire Line
	8575 2225 8525 2225
Wire Wire Line
	8575 2325 8525 2325
Wire Wire Line
	8575 2425 8525 2425
Wire Wire Line
	8575 2525 8525 2525
Wire Wire Line
	8875 2625 8525 2625
Wire Wire Line
	8575 2725 8525 2725
Wire Wire Line
	8875 2825 8525 2825
Wire Wire Line
	8575 2925 8525 2925
Wire Wire Line
	8575 3025 8525 3025
Wire Wire Line
	8575 3125 8525 3125
Wire Wire Line
	8025 1325 7950 1325
Wire Wire Line
	8025 1425 7950 1425
Wire Wire Line
	8025 1525 7950 1525
Wire Wire Line
	8025 1725 7950 1725
Wire Wire Line
	8025 1825 7950 1825
Wire Wire Line
	8025 1925 7950 1925
Wire Wire Line
	8025 2125 7950 2125
Wire Wire Line
	8025 2225 7950 2225
Wire Wire Line
	8025 2325 7950 2325
Wire Wire Line
	7650 2425 8025 2425
Wire Wire Line
	8025 2525 7950 2525
Wire Wire Line
	8025 2625 7950 2625
Wire Wire Line
	8025 2725 7950 2725
Wire Wire Line
	8025 2825 7950 2825
Wire Wire Line
	8025 2925 7950 2925
Wire Wire Line
	8025 3025 7950 3025
Wire Wire Line
	7650 3125 8025 3125
Wire Wire Line
	8025 1625 7650 1625
Wire Wire Line
	7650 1625 7650 3425
Connection ~ 7650 2425
Wire Wire Line
	8875 1425 8875 3425
Connection ~ 8875 1825
Connection ~ 8875 2125
Connection ~ 8875 2625
$Comp
L GND #PWR013
U 1 1 5B1A0144
P 8275 3425
F 0 "#PWR013" H 8275 3175 50  0001 C CNN
F 1 "GND" H 8275 3275 50  0000 C CNN
F 2 "" H 8275 3425 50  0001 C CNN
F 3 "" H 8275 3425 50  0001 C CNN
	1    8275 3425
	1    0    0    -1  
$EndComp
Wire Wire Line
	8875 3425 7650 3425
Connection ~ 8875 2825
Connection ~ 8275 3425
Connection ~ 7650 3125
Wire Wire Line
	8600 1075 8600 1325
Wire Wire Line
	8600 1225 8525 1225
Wire Wire Line
	8600 1325 8525 1325
Connection ~ 8600 1225
Text GLabel 8600 1075 1    60   Input ~ 0
5V
Text GLabel 7425 1125 1    60   Input ~ 0
3.3V
Wire Wire Line
	8025 1225 7425 1225
Wire Wire Line
	7425 1125 7425 2025
Wire Wire Line
	7425 2025 8025 2025
Connection ~ 7425 1225
$EndSCHEMATC
