(export (version D)
  (design
    (source "D:\\SmallDesign\\SmallDAQ V2 (VC)\\project\\SmallDAQ_V2_board_V1.1\\SmallDAQ_V2_boardV1.1.sch")
    (date "06/05/18 9:28:24 PM")
    (tool "Eeschema 4.0.7")
    (sheet (number 1) (name /) (tstamps /)
      (title_block
        (title)
        (company)
        (rev)
        (date)
        (source SmallDAQ_V2_boardV1.1.sch)
        (comment (number 1) (value ""))
        (comment (number 2) (value ""))
        (comment (number 3) (value ""))
        (comment (number 4) (value "")))))
  (components
    (comp (ref J8)
      (value Conn_02x20_Odd_Even)
      (footprint Connectors_IDC:IDC-Header_2x20_Pitch2.54mm_Straight)
      (libsource (lib conn) (part Conn_02x20_Odd_Even))
      (sheetpath (names /) (tstamps /))
      (tstamp 5B07F10C))
    (comp (ref J3)
      (value Conn_02x20_Odd_Even)
      (footprint Socket_Strips:Socket_Strip_Straight_2x20_Pitch2.54mm)
      (libsource (lib conn) (part Conn_02x20_Odd_Even))
      (sheetpath (names /) (tstamps /))
      (tstamp 5B0803AE))
    (comp (ref J1)
      (value Screw_Terminal_01x02)
      (footprint Connectors_Terminal_Blocks:TerminalBlock_Pheonix_MKDS1.5-2pol)
      (libsource (lib conn) (part Screw_Terminal_01x02))
      (sheetpath (names /) (tstamps /))
      (tstamp 5B080C9E))
    (comp (ref C1)
      (value 470uF)
      (footprint Capacitors_THT:CP_Radial_D8.0mm_P5.00mm)
      (libsource (lib device) (part CP))
      (sheetpath (names /) (tstamps /))
      (tstamp 5B0FC86C))
    (comp (ref C2)
      (value 0.1uF)
      (footprint Capacitors_THT:C_Disc_D5.0mm_W2.5mm_P2.50mm)
      (libsource (lib device) (part C_Small))
      (sheetpath (names /) (tstamps /))
      (tstamp 5B0FC8FF))
    (comp (ref D1)
      (value BAT54)
      (footprint Diodes_THT:D_A-405_P7.62mm_Horizontal)
      (libsource (lib device) (part D_Schottky))
      (sheetpath (names /) (tstamps /))
      (tstamp 5B0FC940))
    (comp (ref F1)
      (value 1A)
      (footprint Fuse_Holders_and_Fuses:Fuse_TE5_Littlefuse-395Series)
      (libsource (lib device) (part Polyfuse))
      (sheetpath (names /) (tstamps /))
      (tstamp 5B0FF0AF))
    (comp (ref J2)
      (value Screw_Terminal_01x02)
      (footprint Connectors_Terminal_Blocks:TerminalBlock_Pheonix_MKDS1.5-2pol)
      (libsource (lib conn) (part Screw_Terminal_01x02))
      (sheetpath (names /) (tstamps /))
      (tstamp 5B101CEE))
    (comp (ref C3)
      (value 470uF)
      (footprint Capacitors_THT:CP_Radial_D8.0mm_P5.00mm)
      (libsource (lib device) (part CP))
      (sheetpath (names /) (tstamps /))
      (tstamp 5B102AA0))
    (comp (ref R1)
      (value 330)
      (footprint Resistors_THT:R_Axial_DIN0207_L6.3mm_D2.5mm_P7.62mm_Horizontal)
      (libsource (lib device) (part R))
      (sheetpath (names /) (tstamps /))
      (tstamp 5B107F50))
    (comp (ref R3)
      (value 330)
      (footprint Resistors_THT:R_Axial_DIN0207_L6.3mm_D2.5mm_P7.62mm_Horizontal)
      (libsource (lib device) (part R))
      (sheetpath (names /) (tstamps /))
      (tstamp 5B1080F4))
    (comp (ref R4)
      (value 330)
      (footprint Resistors_THT:R_Axial_DIN0207_L6.3mm_D2.5mm_P7.62mm_Horizontal)
      (libsource (lib device) (part R))
      (sheetpath (names /) (tstamps /))
      (tstamp 5B10C1BE))
    (comp (ref R7)
      (value 330)
      (footprint Resistors_THT:R_Axial_DIN0207_L6.3mm_D2.5mm_P7.62mm_Horizontal)
      (libsource (lib device) (part R))
      (sheetpath (names /) (tstamps /))
      (tstamp 5B10C21C))
    (comp (ref R9)
      (value 330)
      (footprint Resistors_THT:R_Axial_DIN0207_L6.3mm_D2.5mm_P7.62mm_Horizontal)
      (libsource (lib device) (part R))
      (sheetpath (names /) (tstamps /))
      (tstamp 5B10C277))
    (comp (ref R11)
      (value 330)
      (footprint Resistors_THT:R_Axial_DIN0207_L6.3mm_D2.5mm_P7.62mm_Horizontal)
      (libsource (lib device) (part R))
      (sheetpath (names /) (tstamps /))
      (tstamp 5B10C2CD))
    (comp (ref R13)
      (value 330)
      (footprint Resistors_THT:R_Axial_DIN0207_L6.3mm_D2.5mm_P7.62mm_Horizontal)
      (libsource (lib device) (part R))
      (sheetpath (names /) (tstamps /))
      (tstamp 5B10C32E))
    (comp (ref R15)
      (value 330)
      (footprint Resistors_THT:R_Axial_DIN0207_L6.3mm_D2.5mm_P7.62mm_Horizontal)
      (libsource (lib device) (part R))
      (sheetpath (names /) (tstamps /))
      (tstamp 5B10C38A))
    (comp (ref R16)
      (value 330)
      (footprint Resistors_THT:R_Axial_DIN0207_L6.3mm_D2.5mm_P7.62mm_Horizontal)
      (libsource (lib device) (part R))
      (sheetpath (names /) (tstamps /))
      (tstamp 5B10C442))
    (comp (ref R19)
      (value 330)
      (footprint Resistors_THT:R_Axial_DIN0207_L6.3mm_D2.5mm_P7.62mm_Horizontal)
      (libsource (lib device) (part R))
      (sheetpath (names /) (tstamps /))
      (tstamp 5B10C4B0))
    (comp (ref R22)
      (value 330)
      (footprint Resistors_THT:R_Axial_DIN0207_L6.3mm_D2.5mm_P7.62mm_Horizontal)
      (libsource (lib device) (part R))
      (sheetpath (names /) (tstamps /))
      (tstamp 5B10C523))
    (comp (ref D6)
      (value 3v3)
      (footprint Diodes_THT:D_DO-35_SOD27_P7.62mm_Horizontal)
      (libsource (lib device) (part D_Zener_Small))
      (sheetpath (names /) (tstamps /))
      (tstamp 5B10D5C7))
    (comp (ref D8)
      (value 3v3)
      (footprint Diodes_THT:D_DO-35_SOD27_P7.62mm_Horizontal)
      (libsource (lib device) (part D_Zener_Small))
      (sheetpath (names /) (tstamps /))
      (tstamp 5B10FEB0))
    (comp (ref D9)
      (value 3v3)
      (footprint Diodes_THT:D_DO-35_SOD27_P7.62mm_Horizontal)
      (libsource (lib device) (part D_Zener_Small))
      (sheetpath (names /) (tstamps /))
      (tstamp 5B10FF46))
    (comp (ref D12)
      (value 3v3)
      (footprint Diodes_THT:D_DO-35_SOD27_P7.62mm_Horizontal)
      (libsource (lib device) (part D_Zener_Small))
      (sheetpath (names /) (tstamps /))
      (tstamp 5B10FFC9))
    (comp (ref D14)
      (value 3v3)
      (footprint Diodes_THT:D_DO-35_SOD27_P7.62mm_Horizontal)
      (libsource (lib device) (part D_Zener_Small))
      (sheetpath (names /) (tstamps /))
      (tstamp 5B11004B))
    (comp (ref D16)
      (value 3v3)
      (footprint Diodes_THT:D_DO-35_SOD27_P7.62mm_Horizontal)
      (libsource (lib device) (part D_Zener_Small))
      (sheetpath (names /) (tstamps /))
      (tstamp 5B1100D2))
    (comp (ref D18)
      (value 3v3)
      (footprint Diodes_THT:D_DO-35_SOD27_P7.62mm_Horizontal)
      (libsource (lib device) (part D_Zener_Small))
      (sheetpath (names /) (tstamps /))
      (tstamp 5B11015E))
    (comp (ref D20)
      (value 3v3)
      (footprint Diodes_THT:D_DO-35_SOD27_P7.62mm_Horizontal)
      (libsource (lib device) (part D_Zener_Small))
      (sheetpath (names /) (tstamps /))
      (tstamp 5B1101E1))
    (comp (ref D21)
      (value 3v3)
      (footprint Diodes_THT:D_DO-35_SOD27_P7.62mm_Horizontal)
      (libsource (lib device) (part D_Zener_Small))
      (sheetpath (names /) (tstamps /))
      (tstamp 5B11026F))
    (comp (ref D24)
      (value 3v3)
      (footprint Diodes_THT:D_DO-35_SOD27_P7.62mm_Horizontal)
      (libsource (lib device) (part D_Zener_Small))
      (sheetpath (names /) (tstamps /))
      (tstamp 5B1102FE))
    (comp (ref D27)
      (value 3v3)
      (footprint Diodes_THT:D_DO-35_SOD27_P7.62mm_Horizontal)
      (libsource (lib device) (part D_Zener_Small))
      (sheetpath (names /) (tstamps /))
      (tstamp 5B110396))
    (comp (ref D29)
      (value 3v3)
      (footprint Diodes_THT:D_DO-35_SOD27_P7.62mm_Horizontal)
      (libsource (lib device) (part D_Zener_Small))
      (sheetpath (names /) (tstamps /))
      (tstamp 5B11042D))
    (comp (ref D31)
      (value 3v3)
      (footprint Diodes_THT:D_DO-35_SOD27_P7.62mm_Horizontal)
      (libsource (lib device) (part D_Zener_Small))
      (sheetpath (names /) (tstamps /))
      (tstamp 5B1104C7))
    (comp (ref R2)
      (value 330)
      (footprint Resistors_THT:R_Axial_DIN0207_L6.3mm_D2.5mm_P7.62mm_Horizontal)
      (libsource (lib device) (part R))
      (sheetpath (names /) (tstamps /))
      (tstamp 5B1157B3))
    (comp (ref R5)
      (value 330)
      (footprint Resistors_THT:R_Axial_DIN0207_L6.3mm_D2.5mm_P7.62mm_Horizontal)
      (libsource (lib device) (part R))
      (sheetpath (names /) (tstamps /))
      (tstamp 5B115851))
    (comp (ref R6)
      (value 330)
      (footprint Resistors_THT:R_Axial_DIN0207_L6.3mm_D2.5mm_P7.62mm_Horizontal)
      (libsource (lib device) (part R))
      (sheetpath (names /) (tstamps /))
      (tstamp 5B1158FA))
    (comp (ref R8)
      (value 330)
      (footprint Resistors_THT:R_Axial_DIN0207_L6.3mm_D2.5mm_P7.62mm_Horizontal)
      (libsource (lib device) (part R))
      (sheetpath (names /) (tstamps /))
      (tstamp 5B11599E))
    (comp (ref R10)
      (value 330)
      (footprint Resistors_THT:R_Axial_DIN0207_L6.3mm_D2.5mm_P7.62mm_Horizontal)
      (libsource (lib device) (part R))
      (sheetpath (names /) (tstamps /))
      (tstamp 5B115A45))
    (comp (ref R12)
      (value 330)
      (footprint Resistors_THT:R_Axial_DIN0207_L6.3mm_D2.5mm_P7.62mm_Horizontal)
      (libsource (lib device) (part R))
      (sheetpath (names /) (tstamps /))
      (tstamp 5B115AF5))
    (comp (ref R14)
      (value 330)
      (footprint Resistors_THT:R_Axial_DIN0207_L6.3mm_D2.5mm_P7.62mm_Horizontal)
      (libsource (lib device) (part R))
      (sheetpath (names /) (tstamps /))
      (tstamp 5B115BA2))
    (comp (ref R17)
      (value 330)
      (footprint Resistors_THT:R_Axial_DIN0207_L6.3mm_D2.5mm_P7.62mm_Horizontal)
      (libsource (lib device) (part R))
      (sheetpath (names /) (tstamps /))
      (tstamp 5B115CBA))
    (comp (ref R18)
      (value 330)
      (footprint Resistors_THT:R_Axial_DIN0207_L6.3mm_D2.5mm_P7.62mm_Horizontal)
      (libsource (lib device) (part R))
      (sheetpath (names /) (tstamps /))
      (tstamp 5B115D79))
    (comp (ref R20)
      (value 330)
      (footprint Resistors_THT:R_Axial_DIN0207_L6.3mm_D2.5mm_P7.62mm_Horizontal)
      (libsource (lib device) (part R))
      (sheetpath (names /) (tstamps /))
      (tstamp 5B115EDF))
    (comp (ref R21)
      (value 330)
      (footprint Resistors_THT:R_Axial_DIN0207_L6.3mm_D2.5mm_P7.62mm_Horizontal)
      (libsource (lib device) (part R))
      (sheetpath (names /) (tstamps /))
      (tstamp 5B115FA2))
    (comp (ref R23)
      (value 330)
      (footprint Resistors_THT:R_Axial_DIN0207_L6.3mm_D2.5mm_P7.62mm_Horizontal)
      (libsource (lib device) (part R))
      (sheetpath (names /) (tstamps /))
      (tstamp 5B116060))
    (comp (ref R25)
      (value 330)
      (footprint Resistors_THT:R_Axial_DIN0207_L6.3mm_D2.5mm_P7.62mm_Horizontal)
      (libsource (lib device) (part R))
      (sheetpath (names /) (tstamps /))
      (tstamp 5B11611F))
    (comp (ref D7)
      (value 3v3)
      (footprint Diodes_THT:D_DO-35_SOD27_P7.62mm_Horizontal)
      (libsource (lib device) (part D_Zener_Small))
      (sheetpath (names /) (tstamps /))
      (tstamp 5B11A961))
    (comp (ref D10)
      (value 3v3)
      (footprint Diodes_THT:D_DO-35_SOD27_P7.62mm_Horizontal)
      (libsource (lib device) (part D_Zener_Small))
      (sheetpath (names /) (tstamps /))
      (tstamp 5B11AA3A))
    (comp (ref D11)
      (value 3v3)
      (footprint Diodes_THT:D_DO-35_SOD27_P7.62mm_Horizontal)
      (libsource (lib device) (part D_Zener_Small))
      (sheetpath (names /) (tstamps /))
      (tstamp 5B11AB14))
    (comp (ref D13)
      (value 3v3)
      (footprint Diodes_THT:D_DO-35_SOD27_P7.62mm_Horizontal)
      (libsource (lib device) (part D_Zener_Small))
      (sheetpath (names /) (tstamps /))
      (tstamp 5B11ABE9))
    (comp (ref D15)
      (value 3v3)
      (footprint Diodes_THT:D_DO-35_SOD27_P7.62mm_Horizontal)
      (libsource (lib device) (part D_Zener_Small))
      (sheetpath (names /) (tstamps /))
      (tstamp 5B11ACC1))
    (comp (ref D17)
      (value 3v3)
      (footprint Diodes_THT:D_DO-35_SOD27_P7.62mm_Horizontal)
      (libsource (lib device) (part D_Zener_Small))
      (sheetpath (names /) (tstamps /))
      (tstamp 5B11ADA0))
    (comp (ref D19)
      (value 3v3)
      (footprint Diodes_THT:D_DO-35_SOD27_P7.62mm_Horizontal)
      (libsource (lib device) (part D_Zener_Small))
      (sheetpath (names /) (tstamps /))
      (tstamp 5B11AF02))
    (comp (ref D22)
      (value 3v3)
      (footprint Diodes_THT:D_DO-35_SOD27_P7.62mm_Horizontal)
      (libsource (lib device) (part D_Zener_Small))
      (sheetpath (names /) (tstamps /))
      (tstamp 5B11AFDF))
    (comp (ref D23)
      (value 3v3)
      (footprint Diodes_THT:D_DO-35_SOD27_P7.62mm_Horizontal)
      (libsource (lib device) (part D_Zener_Small))
      (sheetpath (names /) (tstamps /))
      (tstamp 5B11B19D))
    (comp (ref D25)
      (value 3v3)
      (footprint Diodes_THT:D_DO-35_SOD27_P7.62mm_Horizontal)
      (libsource (lib device) (part D_Zener_Small))
      (sheetpath (names /) (tstamps /))
      (tstamp 5B11B280))
    (comp (ref D26)
      (value 3v3)
      (footprint Diodes_THT:D_DO-35_SOD27_P7.62mm_Horizontal)
      (libsource (lib device) (part D_Zener_Small))
      (sheetpath (names /) (tstamps /))
      (tstamp 5B11B366))
    (comp (ref D28)
      (value 3v3)
      (footprint Diodes_THT:D_DO-35_SOD27_P7.62mm_Horizontal)
      (libsource (lib device) (part D_Zener_Small))
      (sheetpath (names /) (tstamps /))
      (tstamp 5B11B44F))
    (comp (ref D30)
      (value 3v3)
      (footprint Diodes_THT:D_DO-35_SOD27_P7.62mm_Horizontal)
      (libsource (lib device) (part D_Zener_Small))
      (sheetpath (names /) (tstamps /))
      (tstamp 5B11B53F))
    (comp (ref D2)
      (value BAT54)
      (footprint Diodes_THT:D_A-405_P7.62mm_Horizontal)
      (libsource (lib device) (part D_Schottky))
      (sheetpath (names /) (tstamps /))
      (tstamp 5B1063F5))
    (comp (ref D3)
      (value BAT54)
      (footprint Diodes_THT:D_A-405_P7.62mm_Horizontal)
      (libsource (lib device) (part D_Schottky))
      (sheetpath (names /) (tstamps /))
      (tstamp 5B10662C))
    (comp (ref D5)
      (value BAT54)
      (footprint Diodes_THT:D_A-405_P7.62mm_Horizontal)
      (libsource (lib device) (part D_Schottky))
      (sheetpath (names /) (tstamps /))
      (tstamp 5B107F18))
    (comp (ref D4)
      (value BAT54)
      (footprint Diodes_THT:D_A-405_P7.62mm_Horizontal)
      (libsource (lib device) (part D_Schottky))
      (sheetpath (names /) (tstamps /))
      (tstamp 5B10802C))
    (comp (ref R26)
      (value 330)
      (footprint Resistors_THT:R_Axial_DIN0207_L6.3mm_D2.5mm_P7.62mm_Horizontal)
      (libsource (lib device) (part R))
      (sheetpath (names /) (tstamps /))
      (tstamp 5B10D1C9))
    (comp (ref R24)
      (value 330)
      (footprint Resistors_THT:R_Axial_DIN0207_L6.3mm_D2.5mm_P7.62mm_Horizontal)
      (libsource (lib device) (part R))
      (sheetpath (names /) (tstamps /))
      (tstamp 5B10D2C7))
    (comp (ref J4)
      (value Conn_02x20_Odd_Even)
      (footprint Socket_Strips:Socket_Strip_Straight_2x20_Pitch2.54mm)
      (libsource (lib conn) (part Conn_02x20_Odd_Even))
      (sheetpath (names /) (tstamps /))
      (tstamp 5B13A416))
    (comp (ref J5)
      (value Conn_02x20_Odd_Even)
      (footprint Socket_Strips:Socket_Strip_Straight_2x20_Pitch2.54mm)
      (libsource (lib conn) (part Conn_02x20_Odd_Even))
      (sheetpath (names /) (tstamps /))
      (tstamp 5B13A5C8))
    (comp (ref J6)
      (value Conn_02x20_Odd_Even)
      (footprint Socket_Strips:Socket_Strip_Straight_2x20_Pitch2.54mm)
      (libsource (lib conn) (part Conn_02x20_Odd_Even))
      (sheetpath (names /) (tstamps /))
      (tstamp 5B13A628))
    (comp (ref J7)
      (value Conn_02x20_Odd_Even)
      (footprint Socket_Strips:Socket_Strip_Straight_2x20_Pitch2.54mm)
      (libsource (lib conn) (part Conn_02x20_Odd_Even))
      (sheetpath (names /) (tstamps /))
      (tstamp 5B13A928))
    (comp (ref J9)
      (value Conn_02x20_Odd_Even)
      (footprint Socket_Strips:Socket_Strip_Straight_2x20_Pitch2.54mm)
      (libsource (lib conn) (part Conn_02x20_Odd_Even))
      (sheetpath (names /) (tstamps /))
      (tstamp 5B13A988))
    (comp (ref J10)
      (value Conn_02x20_Odd_Even)
      (footprint Connectors_IDC:IDC-Header_2x20_Pitch2.54mm_Straight)
      (libsource (lib conn) (part Conn_02x20_Odd_Even))
      (sheetpath (names /) (tstamps /))
      (tstamp 5B13A9E8))
    (comp (ref J11)
      (value Conn_02x20_Odd_Even)
      (footprint Socket_Strips:Socket_Strip_Straight_2x20_Pitch2.54mm)
      (libsource (lib conn) (part Conn_02x20_Odd_Even))
      (sheetpath (names /) (tstamps /))
      (tstamp 5B1A00F8)))
  (libparts
    (libpart (lib device) (part CP)
      (description "Polarised capacitor")
      (footprints
        (fp CP_*))
      (fields
        (field (name Reference) C)
        (field (name Value) CP))
      (pins
        (pin (num 1) (name ~) (type passive))
        (pin (num 2) (name ~) (type passive))))
    (libpart (lib device) (part C_Small)
      (description "Unpolarized capacitor")
      (footprints
        (fp C_*))
      (fields
        (field (name Reference) C)
        (field (name Value) C_Small))
      (pins
        (pin (num 1) (name ~) (type passive))
        (pin (num 2) (name ~) (type passive))))
    (libpart (lib conn) (part Conn_02x20_Odd_Even)
      (description "Generic connector, double row, 02x20, odd/even pin numbering scheme (row 1 odd numbers, row 2 even numbers)")
      (docs ~)
      (footprints
        (fp Connector*:*2x??x*mm*)
        (fp Connector*:*2x???Pitch*)
        (fp Pin_Header_Straight_2X*)
        (fp Pin_Header_Angled_2X*)
        (fp Socket_Strip_Straight_2X*)
        (fp Socket_Strip_Angled_2X*))
      (fields
        (field (name Reference) J)
        (field (name Value) Conn_02x20_Odd_Even))
      (pins
        (pin (num 1) (name Pin_1) (type passive))
        (pin (num 2) (name Pin_2) (type passive))
        (pin (num 3) (name Pin_3) (type passive))
        (pin (num 4) (name Pin_4) (type passive))
        (pin (num 5) (name Pin_5) (type passive))
        (pin (num 6) (name Pin_6) (type passive))
        (pin (num 7) (name Pin_7) (type passive))
        (pin (num 8) (name Pin_8) (type passive))
        (pin (num 9) (name Pin_9) (type passive))
        (pin (num 10) (name Pin_10) (type passive))
        (pin (num 11) (name Pin_11) (type passive))
        (pin (num 12) (name Pin_12) (type passive))
        (pin (num 13) (name Pin_13) (type passive))
        (pin (num 14) (name Pin_14) (type passive))
        (pin (num 15) (name Pin_15) (type passive))
        (pin (num 16) (name Pin_16) (type passive))
        (pin (num 17) (name Pin_17) (type passive))
        (pin (num 18) (name Pin_18) (type passive))
        (pin (num 19) (name Pin_19) (type passive))
        (pin (num 20) (name Pin_20) (type passive))
        (pin (num 21) (name Pin_21) (type passive))
        (pin (num 22) (name Pin_22) (type passive))
        (pin (num 23) (name Pin_23) (type passive))
        (pin (num 24) (name Pin_24) (type passive))
        (pin (num 25) (name Pin_25) (type passive))
        (pin (num 26) (name Pin_26) (type passive))
        (pin (num 27) (name Pin_27) (type passive))
        (pin (num 28) (name Pin_28) (type passive))
        (pin (num 29) (name Pin_29) (type passive))
        (pin (num 30) (name Pin_30) (type passive))
        (pin (num 31) (name Pin_31) (type passive))
        (pin (num 32) (name Pin_32) (type passive))
        (pin (num 33) (name Pin_33) (type passive))
        (pin (num 34) (name Pin_34) (type passive))
        (pin (num 35) (name Pin_35) (type passive))
        (pin (num 36) (name Pin_36) (type passive))
        (pin (num 37) (name Pin_37) (type passive))
        (pin (num 38) (name Pin_38) (type passive))
        (pin (num 39) (name Pin_39) (type passive))
        (pin (num 40) (name Pin_40) (type passive))))
    (libpart (lib device) (part D_Schottky)
      (description "Schottky diode")
      (footprints
        (fp TO-???*)
        (fp *SingleDiode)
        (fp *_Diode_*)
        (fp *SingleDiode*)
        (fp D_*))
      (fields
        (field (name Reference) D)
        (field (name Value) D_Schottky))
      (pins
        (pin (num 1) (name K) (type passive))
        (pin (num 2) (name A) (type passive))))
    (libpart (lib device) (part D_Zener_Small)
      (description "Zener Diode, small symbol")
      (docs https://en.wikipedia.org/wiki/Zener_diode)
      (footprints
        (fp TO-???*)
        (fp *SingleDiode)
        (fp *_Diode_*)
        (fp *SingleDiode*)
        (fp D_*))
      (fields
        (field (name Reference) D)
        (field (name Value) D_Zener_Small))
      (pins
        (pin (num 1) (name K) (type passive))
        (pin (num 2) (name A) (type passive))))
    (libpart (lib device) (part Polyfuse)
      (description "resettable fuse, polymeric positive temperature coefficient (PPTC)")
      (footprints
        (fp *polyfuse*)
        (fp *PTC*))
      (fields
        (field (name Reference) F)
        (field (name Value) Polyfuse))
      (pins
        (pin (num 1) (name ~) (type passive))
        (pin (num 2) (name ~) (type passive))))
    (libpart (lib device) (part R)
      (description Resistor)
      (footprints
        (fp R_*)
        (fp R_*))
      (fields
        (field (name Reference) R)
        (field (name Value) R))
      (pins
        (pin (num 1) (name ~) (type passive))
        (pin (num 2) (name ~) (type passive))))
    (libpart (lib conn) (part Screw_Terminal_01x02)
      (description "Generic screw terminal, single row, 01x02")
      (docs ~)
      (footprints
        (fp Connector*Terminal*Block*:*)
        (fp TerminalBlock*))
      (fields
        (field (name Reference) J)
        (field (name Value) Screw_Terminal_01x02))
      (pins
        (pin (num 1) (name Pin_1) (type passive))
        (pin (num 2) (name Pin_2) (type passive)))))
  (libraries
    (library (logical device)
      (uri "C:\\Program Files\\KiCad\\share\\kicad\\library\\device.lib"))
    (library (logical conn)
      (uri "C:\\Program Files\\KiCad\\share\\kicad\\library\\conn.lib")))
  (nets
    (net (code 1) (name 31)
      (node (ref J6) (pin 31))
      (node (ref J5) (pin 31))
      (node (ref J9) (pin 31))
      (node (ref J11) (pin 31))
      (node (ref J4) (pin 31))
      (node (ref J7) (pin 31))
      (node (ref J3) (pin 31))
      (node (ref J10) (pin 31))
      (node (ref R20) (pin 2)))
    (net (code 2) (name 33)
      (node (ref J9) (pin 33))
      (node (ref J5) (pin 33))
      (node (ref J6) (pin 33))
      (node (ref J10) (pin 33))
      (node (ref J11) (pin 33))
      (node (ref J3) (pin 33))
      (node (ref J7) (pin 33))
      (node (ref J4) (pin 33))
      (node (ref R21) (pin 2)))
    (net (code 3) (name 12)
      (node (ref J9) (pin 12))
      (node (ref J7) (pin 12))
      (node (ref R4) (pin 1))
      (node (ref J6) (pin 12))
      (node (ref J5) (pin 12))
      (node (ref J11) (pin 12))
      (node (ref J4) (pin 12))
      (node (ref J10) (pin 12))
      (node (ref J3) (pin 12)))
    (net (code 4) (name SPI1_MISO)
      (node (ref J3) (pin 35))
      (node (ref J11) (pin 35))
      (node (ref J4) (pin 35))
      (node (ref R23) (pin 2))
      (node (ref J7) (pin 35))
      (node (ref J5) (pin 35))
      (node (ref J9) (pin 35))
      (node (ref J6) (pin 35))
      (node (ref J10) (pin 35)))
    (net (code 5) (name 10)
      (node (ref J7) (pin 10))
      (node (ref J5) (pin 10))
      (node (ref J9) (pin 10))
      (node (ref R3) (pin 1))
      (node (ref J6) (pin 10))
      (node (ref J4) (pin 10))
      (node (ref J3) (pin 10))
      (node (ref J10) (pin 10))
      (node (ref J11) (pin 10)))
    (net (code 6) (name 8)
      (node (ref J5) (pin 8))
      (node (ref J4) (pin 8))
      (node (ref J6) (pin 8))
      (node (ref J7) (pin 8))
      (node (ref J11) (pin 8))
      (node (ref R1) (pin 1))
      (node (ref J10) (pin 8))
      (node (ref J9) (pin 8))
      (node (ref J3) (pin 8)))
    (net (code 7) (name SPI0_CLK)
      (node (ref J6) (pin 23))
      (node (ref J10) (pin 23))
      (node (ref J5) (pin 23))
      (node (ref J3) (pin 23))
      (node (ref J9) (pin 23))
      (node (ref J7) (pin 23))
      (node (ref R14) (pin 2))
      (node (ref J4) (pin 23))
      (node (ref J11) (pin 23)))
    (net (code 8) (name SPI0_MISO)
      (node (ref J10) (pin 21))
      (node (ref J3) (pin 21))
      (node (ref R12) (pin 2))
      (node (ref J11) (pin 21))
      (node (ref J7) (pin 21))
      (node (ref J4) (pin 21))
      (node (ref J9) (pin 21))
      (node (ref J5) (pin 21))
      (node (ref J6) (pin 21)))
    (net (code 9) (name 15)
      (node (ref R8) (pin 2))
      (node (ref J7) (pin 15))
      (node (ref J10) (pin 15))
      (node (ref J4) (pin 15))
      (node (ref J9) (pin 15))
      (node (ref J11) (pin 15))
      (node (ref J3) (pin 15))
      (node (ref J5) (pin 15))
      (node (ref J6) (pin 15)))
    (net (code 10) (name 13)
      (node (ref J5) (pin 13))
      (node (ref J9) (pin 13))
      (node (ref J10) (pin 13))
      (node (ref J6) (pin 13))
      (node (ref J3) (pin 13))
      (node (ref J4) (pin 13))
      (node (ref J11) (pin 13))
      (node (ref J7) (pin 13))
      (node (ref R6) (pin 2)))
    (net (code 11) (name 11)
      (node (ref J5) (pin 11))
      (node (ref J7) (pin 11))
      (node (ref J6) (pin 11))
      (node (ref J9) (pin 11))
      (node (ref J11) (pin 11))
      (node (ref J10) (pin 11))
      (node (ref R5) (pin 2))
      (node (ref J4) (pin 11))
      (node (ref J3) (pin 11)))
    (net (code 12) (name 7)
      (node (ref R2) (pin 2))
      (node (ref J5) (pin 7))
      (node (ref J9) (pin 7))
      (node (ref J7) (pin 7))
      (node (ref J6) (pin 7))
      (node (ref J3) (pin 7))
      (node (ref J4) (pin 7))
      (node (ref J10) (pin 7))
      (node (ref J11) (pin 7)))
    (net (code 13) (name I2C1_SCL)
      (node (ref J4) (pin 5))
      (node (ref J11) (pin 5))
      (node (ref J5) (pin 5))
      (node (ref J10) (pin 5))
      (node (ref J8) (pin 5))
      (node (ref J3) (pin 5))
      (node (ref J6) (pin 5))
      (node (ref D4) (pin 2))
      (node (ref D5) (pin 1))
      (node (ref J7) (pin 5))
      (node (ref J9) (pin 5)))
    (net (code 14) (name SPI0_MOSI)
      (node (ref J11) (pin 19))
      (node (ref R10) (pin 2))
      (node (ref J7) (pin 19))
      (node (ref J4) (pin 19))
      (node (ref J9) (pin 19))
      (node (ref J3) (pin 19))
      (node (ref J10) (pin 19))
      (node (ref J5) (pin 19))
      (node (ref J6) (pin 19)))
    (net (code 15) (name 37)
      (node (ref J7) (pin 37))
      (node (ref J4) (pin 37))
      (node (ref J9) (pin 37))
      (node (ref J5) (pin 37))
      (node (ref J11) (pin 37))
      (node (ref J10) (pin 37))
      (node (ref J6) (pin 37))
      (node (ref R25) (pin 2))
      (node (ref J3) (pin 37)))
    (net (code 16) (name 27)
      (node (ref J6) (pin 27))
      (node (ref J3) (pin 27))
      (node (ref J10) (pin 27))
      (node (ref J7) (pin 27))
      (node (ref J9) (pin 27))
      (node (ref J11) (pin 27))
      (node (ref J5) (pin 27))
      (node (ref R17) (pin 2))
      (node (ref J4) (pin 27)))
    (net (code 17) (name I2C1_SDA)
      (node (ref J11) (pin 3))
      (node (ref D3) (pin 1))
      (node (ref D2) (pin 2))
      (node (ref J8) (pin 3))
      (node (ref J5) (pin 3))
      (node (ref J7) (pin 3))
      (node (ref J6) (pin 3))
      (node (ref J3) (pin 3))
      (node (ref J4) (pin 3))
      (node (ref J9) (pin 3))
      (node (ref J10) (pin 3)))
    (net (code 18) (name 3.3V)
      (node (ref J3) (pin 17))
      (node (ref J7) (pin 1))
      (node (ref J6) (pin 17))
      (node (ref J10) (pin 17))
      (node (ref J9) (pin 17))
      (node (ref J6) (pin 1))
      (node (ref J4) (pin 17))
      (node (ref C3) (pin 1))
      (node (ref J9) (pin 1))
      (node (ref J8) (pin 17))
      (node (ref J8) (pin 1))
      (node (ref J11) (pin 1))
      (node (ref J4) (pin 1))
      (node (ref J7) (pin 17))
      (node (ref D4) (pin 1))
      (node (ref J5) (pin 1))
      (node (ref J5) (pin 17))
      (node (ref J11) (pin 17))
      (node (ref J10) (pin 1))
      (node (ref D2) (pin 1))
      (node (ref J3) (pin 1)))
    (net (code 19) (name 29)
      (node (ref J10) (pin 29))
      (node (ref J3) (pin 29))
      (node (ref R18) (pin 2))
      (node (ref J7) (pin 29))
      (node (ref J5) (pin 29))
      (node (ref J9) (pin 29))
      (node (ref J4) (pin 29))
      (node (ref J6) (pin 29))
      (node (ref J11) (pin 29)))
    (net (code 20) (name 5V)
      (node (ref J7) (pin 4))
      (node (ref J10) (pin 2))
      (node (ref J7) (pin 2))
      (node (ref J6) (pin 2))
      (node (ref J6) (pin 4))
      (node (ref J9) (pin 2))
      (node (ref J5) (pin 4))
      (node (ref J11) (pin 2))
      (node (ref J11) (pin 4))
      (node (ref J5) (pin 2))
      (node (ref J4) (pin 2))
      (node (ref J4) (pin 4))
      (node (ref J3) (pin 2))
      (node (ref J3) (pin 4))
      (node (ref J10) (pin 4))
      (node (ref F1) (pin 2))
      (node (ref J9) (pin 4)))
    (net (code 21) (name GND)
      (node (ref J5) (pin 6))
      (node (ref J5) (pin 14))
      (node (ref J5) (pin 34))
      (node (ref J5) (pin 25))
      (node (ref J4) (pin 30))
      (node (ref J4) (pin 20))
      (node (ref J4) (pin 9))
      (node (ref J4) (pin 6))
      (node (ref J3) (pin 39))
      (node (ref J1) (pin 2))
      (node (ref J5) (pin 9))
      (node (ref J2) (pin 2))
      (node (ref J5) (pin 20))
      (node (ref C3) (pin 2))
      (node (ref J8) (pin 6))
      (node (ref J8) (pin 9))
      (node (ref J8) (pin 20))
      (node (ref J8) (pin 14))
      (node (ref J8) (pin 30))
      (node (ref J3) (pin 6))
      (node (ref J3) (pin 9))
      (node (ref J4) (pin 34))
      (node (ref J8) (pin 25))
      (node (ref J4) (pin 25))
      (node (ref J3) (pin 25))
      (node (ref J5) (pin 30))
      (node (ref J8) (pin 34))
      (node (ref J4) (pin 14))
      (node (ref J8) (pin 39))
      (node (ref J3) (pin 14))
      (node (ref J3) (pin 34))
      (node (ref J4) (pin 39))
      (node (ref C2) (pin 1))
      (node (ref C1) (pin 2))
      (node (ref D14) (pin 2))
      (node (ref D12) (pin 2))
      (node (ref D9) (pin 2))
      (node (ref D8) (pin 2))
      (node (ref D6) (pin 2))
      (node (ref J3) (pin 20))
      (node (ref J3) (pin 30))
      (node (ref J11) (pin 30))
      (node (ref J6) (pin 6))
      (node (ref J6) (pin 30))
      (node (ref J6) (pin 20))
      (node (ref J6) (pin 9))
      (node (ref J6) (pin 25))
      (node (ref J6) (pin 34))
      (node (ref J6) (pin 14))
      (node (ref J11) (pin 20))
      (node (ref J11) (pin 9))
      (node (ref J11) (pin 6))
      (node (ref J11) (pin 25))
      (node (ref J11) (pin 34))
      (node (ref J11) (pin 14))
      (node (ref J9) (pin 25))
      (node (ref J9) (pin 34))
      (node (ref J9) (pin 14))
      (node (ref J9) (pin 39))
      (node (ref J10) (pin 39))
      (node (ref J10) (pin 25))
      (node (ref J11) (pin 39))
      (node (ref J7) (pin 25))
      (node (ref J7) (pin 34))
      (node (ref J7) (pin 14))
      (node (ref J7) (pin 30))
      (node (ref J7) (pin 20))
      (node (ref J7) (pin 9))
      (node (ref J7) (pin 6))
      (node (ref J7) (pin 39))
      (node (ref J5) (pin 39))
      (node (ref J6) (pin 39))
      (node (ref J9) (pin 30))
      (node (ref J9) (pin 20))
      (node (ref J9) (pin 9))
      (node (ref J9) (pin 6))
      (node (ref D13) (pin 2))
      (node (ref D22) (pin 2))
      (node (ref D19) (pin 2))
      (node (ref D17) (pin 2))
      (node (ref D31) (pin 2))
      (node (ref D15) (pin 2))
      (node (ref D11) (pin 2))
      (node (ref D29) (pin 2))
      (node (ref D24) (pin 2))
      (node (ref D21) (pin 2))
      (node (ref D20) (pin 2))
      (node (ref D18) (pin 2))
      (node (ref D16) (pin 2))
      (node (ref D30) (pin 2))
      (node (ref J10) (pin 34))
      (node (ref J10) (pin 14))
      (node (ref J10) (pin 30))
      (node (ref J10) (pin 20))
      (node (ref J10) (pin 9))
      (node (ref J10) (pin 6))
      (node (ref D28) (pin 2))
      (node (ref D26) (pin 2))
      (node (ref D25) (pin 2))
      (node (ref D23) (pin 2))
      (node (ref D7) (pin 2))
      (node (ref D3) (pin 2))
      (node (ref D10) (pin 2))
      (node (ref D27) (pin 2))
      (node (ref D5) (pin 2)))
    (net (code 22) (name 24)
      (node (ref J6) (pin 24))
      (node (ref R13) (pin 1))
      (node (ref J5) (pin 24))
      (node (ref J7) (pin 24))
      (node (ref J11) (pin 24))
      (node (ref J4) (pin 24))
      (node (ref J10) (pin 24))
      (node (ref J3) (pin 24))
      (node (ref J9) (pin 24)))
    (net (code 23) (name 16)
      (node (ref J5) (pin 16))
      (node (ref J7) (pin 16))
      (node (ref J11) (pin 16))
      (node (ref R7) (pin 1))
      (node (ref J9) (pin 16))
      (node (ref J4) (pin 16))
      (node (ref J3) (pin 16))
      (node (ref J6) (pin 16))
      (node (ref J10) (pin 16)))
    (net (code 24) (name 18)
      (node (ref J5) (pin 18))
      (node (ref J4) (pin 18))
      (node (ref J11) (pin 18))
      (node (ref J9) (pin 18))
      (node (ref J7) (pin 18))
      (node (ref J6) (pin 18))
      (node (ref J10) (pin 18))
      (node (ref J3) (pin 18))
      (node (ref R9) (pin 1)))
    (net (code 25) (name 22)
      (node (ref J7) (pin 22))
      (node (ref J3) (pin 22))
      (node (ref J10) (pin 22))
      (node (ref R11) (pin 1))
      (node (ref J9) (pin 22))
      (node (ref J5) (pin 22))
      (node (ref J6) (pin 22))
      (node (ref J11) (pin 22))
      (node (ref J4) (pin 22)))
    (net (code 26) (name 26)
      (node (ref J11) (pin 26))
      (node (ref J5) (pin 26))
      (node (ref J6) (pin 26))
      (node (ref R15) (pin 1))
      (node (ref J4) (pin 26))
      (node (ref J10) (pin 26))
      (node (ref J9) (pin 26))
      (node (ref J3) (pin 26))
      (node (ref J7) (pin 26)))
    (net (code 27) (name 28)
      (node (ref J11) (pin 28))
      (node (ref J4) (pin 28))
      (node (ref J3) (pin 28))
      (node (ref J9) (pin 28))
      (node (ref J10) (pin 28))
      (node (ref J5) (pin 28))
      (node (ref J7) (pin 28))
      (node (ref J6) (pin 28))
      (node (ref R16) (pin 1)))
    (net (code 28) (name 32)
      (node (ref J6) (pin 32))
      (node (ref J11) (pin 32))
      (node (ref J7) (pin 32))
      (node (ref J4) (pin 32))
      (node (ref R19) (pin 1))
      (node (ref J5) (pin 32))
      (node (ref J9) (pin 32))
      (node (ref J10) (pin 32))
      (node (ref J3) (pin 32)))
    (net (code 29) (name 36)
      (node (ref J6) (pin 36))
      (node (ref J5) (pin 36))
      (node (ref R22) (pin 1))
      (node (ref J10) (pin 36))
      (node (ref J4) (pin 36))
      (node (ref J9) (pin 36))
      (node (ref J7) (pin 36))
      (node (ref J3) (pin 36))
      (node (ref J11) (pin 36)))
    (net (code 30) (name SPI1_MOSI)
      (node (ref R24) (pin 1))
      (node (ref J11) (pin 38))
      (node (ref J4) (pin 38))
      (node (ref J7) (pin 38))
      (node (ref J10) (pin 38))
      (node (ref J3) (pin 38))
      (node (ref J6) (pin 38))
      (node (ref J5) (pin 38))
      (node (ref J9) (pin 38)))
    (net (code 31) (name SPI1_SCLK)
      (node (ref J7) (pin 40))
      (node (ref R26) (pin 1))
      (node (ref J6) (pin 40))
      (node (ref J5) (pin 40))
      (node (ref J9) (pin 40))
      (node (ref J11) (pin 40))
      (node (ref J3) (pin 40))
      (node (ref J4) (pin 40))
      (node (ref J10) (pin 40)))
    (net (code 32) (name "Net-(D23-Pad1)")
      (node (ref J8) (pin 29))
      (node (ref D23) (pin 1))
      (node (ref R18) (pin 1)))
    (net (code 33) (name "Net-(D11-Pad1)")
      (node (ref D11) (pin 1))
      (node (ref R6) (pin 1))
      (node (ref J8) (pin 13)))
    (net (code 34) (name "Net-(D21-Pad1)")
      (node (ref J8) (pin 28))
      (node (ref D21) (pin 1))
      (node (ref R16) (pin 2)))
    (net (code 35) (name "Net-(D9-Pad1)")
      (node (ref J8) (pin 12))
      (node (ref R4) (pin 2))
      (node (ref D9) (pin 1)))
    (net (code 36) (name "Net-(D8-Pad1)")
      (node (ref R3) (pin 2))
      (node (ref D8) (pin 1))
      (node (ref J8) (pin 10)))
    (net (code 37) (name "Net-(D6-Pad1)")
      (node (ref J8) (pin 8))
      (node (ref D6) (pin 1))
      (node (ref R1) (pin 2)))
    (net (code 38) (name "Net-(J8-Pad4)")
      (node (ref J8) (pin 4)))
    (net (code 39) (name "Net-(J8-Pad2)")
      (node (ref J8) (pin 2)))
    (net (code 40) (name "Net-(D1-Pad1)")
      (node (ref D1) (pin 1))
      (node (ref F1) (pin 1)))
    (net (code 41) (name "Net-(C1-Pad1)")
      (node (ref J1) (pin 1))
      (node (ref J2) (pin 1))
      (node (ref D1) (pin 2))
      (node (ref C2) (pin 2))
      (node (ref C1) (pin 1)))
    (net (code 42) (name "Net-(D31-Pad1)")
      (node (ref J8) (pin 40))
      (node (ref D31) (pin 1))
      (node (ref R26) (pin 2)))
    (net (code 43) (name "Net-(D22-Pad1)")
      (node (ref D22) (pin 1))
      (node (ref J8) (pin 27))
      (node (ref R17) (pin 1)))
    (net (code 44) (name "Net-(D19-Pad1)")
      (node (ref D19) (pin 1))
      (node (ref R14) (pin 1))
      (node (ref J8) (pin 23)))
    (net (code 45) (name "Net-(D17-Pad1)")
      (node (ref J8) (pin 21))
      (node (ref D17) (pin 1))
      (node (ref R12) (pin 1)))
    (net (code 46) (name "Net-(D15-Pad1)")
      (node (ref J8) (pin 19))
      (node (ref D15) (pin 1))
      (node (ref R10) (pin 1)))
    (net (code 47) (name "Net-(D13-Pad1)")
      (node (ref R8) (pin 1))
      (node (ref D13) (pin 1))
      (node (ref J8) (pin 15)))
    (net (code 48) (name "Net-(D10-Pad1)")
      (node (ref R5) (pin 1))
      (node (ref J8) (pin 11))
      (node (ref D10) (pin 1)))
    (net (code 49) (name "Net-(D7-Pad1)")
      (node (ref R2) (pin 1))
      (node (ref J8) (pin 7))
      (node (ref D7) (pin 1)))
    (net (code 50) (name "Net-(D14-Pad1)")
      (node (ref J8) (pin 18))
      (node (ref R9) (pin 2))
      (node (ref D14) (pin 1)))
    (net (code 51) (name "Net-(D20-Pad1)")
      (node (ref R15) (pin 2))
      (node (ref J8) (pin 26))
      (node (ref D20) (pin 1)))
    (net (code 52) (name "Net-(D18-Pad1)")
      (node (ref J8) (pin 24))
      (node (ref D18) (pin 1))
      (node (ref R13) (pin 2)))
    (net (code 53) (name "Net-(D16-Pad1)")
      (node (ref R11) (pin 2))
      (node (ref D16) (pin 1))
      (node (ref J8) (pin 22)))
    (net (code 54) (name "Net-(D12-Pad1)")
      (node (ref J8) (pin 16))
      (node (ref R7) (pin 2))
      (node (ref D12) (pin 1)))
    (net (code 55) (name "Net-(D24-Pad1)")
      (node (ref D24) (pin 1))
      (node (ref R19) (pin 2))
      (node (ref J8) (pin 32)))
    (net (code 56) (name "Net-(D29-Pad1)")
      (node (ref R24) (pin 2))
      (node (ref D29) (pin 1))
      (node (ref J8) (pin 38)))
    (net (code 57) (name "Net-(D27-Pad1)")
      (node (ref J8) (pin 36))
      (node (ref R22) (pin 2))
      (node (ref D27) (pin 1)))
    (net (code 58) (name "Net-(D30-Pad1)")
      (node (ref D30) (pin 1))
      (node (ref J8) (pin 37))
      (node (ref R25) (pin 1)))
    (net (code 59) (name "Net-(D28-Pad1)")
      (node (ref R23) (pin 1))
      (node (ref J8) (pin 35))
      (node (ref D28) (pin 1)))
    (net (code 60) (name "Net-(D26-Pad1)")
      (node (ref D26) (pin 1))
      (node (ref R21) (pin 1))
      (node (ref J8) (pin 33)))
    (net (code 61) (name "Net-(D25-Pad1)")
      (node (ref D25) (pin 1))
      (node (ref R20) (pin 1))
      (node (ref J8) (pin 31)))))