(export (version D)
  (design
    (source "D:/SmallDesign/SmallDAQ V2/project/TOPI_PT100_V3/TOPI_PT100_4051_ADS1115_LM334_V3.sch")
    (date "01/01/19 8:13:44 AM")
    (tool "Eeschema 4.0.7")
    (sheet (number 1) (name /) (tstamps /)
      (title_block
        (title)
        (company)
        (rev)
        (date)
        (source TOPI_PT100_4051_ADS1115_LM334_V3.sch)
        (comment (number 1) (value ""))
        (comment (number 2) (value ""))
        (comment (number 3) (value ""))
        (comment (number 4) (value "")))))
  (components
    (comp (ref J9)
      (value Conn_02x20_Odd_Even)
      (footprint Pin_Headers:Pin_Header_Angled_2x20_Pitch2.54mm)
      (libsource (lib conn) (part Conn_02x20_Odd_Even))
      (sheetpath (names /) (tstamps /))
      (tstamp 5B0AAD6D))
    (comp (ref U6)
      (value ADS1115board)
      (footprint custom_boards:ADS1115board)
      (libsource (lib ads1115board) (part ADS1115board))
      (sheetpath (names /) (tstamps /))
      (tstamp 5B0AAE45))
    (comp (ref U4)
      (value HC4051)
      (footprint Housings_DIP:DIP-16_W7.62mm)
      (libsource (lib cmos4000) (part 4051))
      (sheetpath (names /) (tstamps /))
      (tstamp 5B0ABA1D))
    (comp (ref J1)
      (value Screw_Terminal_01x03)
      (footprint Connectors_Terminal_Blocks:TerminalBlock_Pheonix_MKDS1.5-3pol)
      (libsource (lib conn) (part Screw_Terminal_01x03))
      (sheetpath (names /) (tstamps /))
      (tstamp 5B0B8160))
    (comp (ref R1)
      (value "34 0.1%")
      (footprint Resistors_THT:R_Axial_DIN0207_L6.3mm_D2.5mm_P2.54mm_Vertical)
      (libsource (lib device) (part R))
      (sheetpath (names /) (tstamps /))
      (tstamp 5B0C268B))
    (comp (ref U1)
      (value HC4051)
      (footprint Housings_DIP:DIP-16_W7.62mm)
      (libsource (lib cmos4000) (part 4051))
      (sheetpath (names /) (tstamps /))
      (tstamp 5B0CCA9E))
    (comp (ref U2)
      (value HC4051)
      (footprint Housings_DIP:DIP-16_W7.62mm)
      (libsource (lib cmos4000) (part 4051))
      (sheetpath (names /) (tstamps /))
      (tstamp 5B0CCD27))
    (comp (ref R4)
      (value 1k)
      (footprint Resistors_THT:R_Axial_DIN0207_L6.3mm_D2.5mm_P2.54mm_Vertical)
      (libsource (lib device) (part R))
      (sheetpath (names /) (tstamps /))
      (tstamp 5B0D0D03))
    (comp (ref R5)
      (value 1k)
      (footprint Resistors_THT:R_Axial_DIN0207_L6.3mm_D2.5mm_P2.54mm_Vertical)
      (libsource (lib device) (part R))
      (sheetpath (names /) (tstamps /))
      (tstamp 5B0D1049))
    (comp (ref R6)
      (value 1k)
      (footprint Resistors_THT:R_Axial_DIN0207_L6.3mm_D2.5mm_P2.54mm_Vertical)
      (libsource (lib device) (part R))
      (sheetpath (names /) (tstamps /))
      (tstamp 5B0D10C0))
    (comp (ref R7)
      (value 1k)
      (footprint Resistors_THT:R_Axial_DIN0207_L6.3mm_D2.5mm_P2.54mm_Vertical)
      (libsource (lib device) (part R))
      (sheetpath (names /) (tstamps /))
      (tstamp 5B0D1134))
    (comp (ref C22)
      (value 0.01uF)
      (footprint Capacitors_THT:C_Disc_D5.0mm_W2.5mm_P2.50mm)
      (libsource (lib device) (part C_Small))
      (sheetpath (names /) (tstamps /))
      (tstamp 5B0D20B6))
    (comp (ref C24)
      (value 0.01uF)
      (footprint Capacitors_THT:C_Disc_D5.0mm_W2.5mm_P2.50mm)
      (libsource (lib device) (part C_Small))
      (sheetpath (names /) (tstamps /))
      (tstamp 5B0D22B3))
    (comp (ref C27)
      (value 0.01uF)
      (footprint Capacitors_THT:C_Disc_D5.0mm_W2.5mm_P2.50mm)
      (libsource (lib device) (part C_Small))
      (sheetpath (names /) (tstamps /))
      (tstamp 5B0D2BF5))
    (comp (ref C21)
      (value 0.1uF)
      (footprint Capacitors_THT:C_Disc_D5.0mm_W2.5mm_P2.50mm)
      (libsource (lib device) (part C_Small))
      (sheetpath (names /) (tstamps /))
      (tstamp 5B0D3444))
    (comp (ref C23)
      (value 0.1uF)
      (footprint Capacitors_THT:C_Disc_D5.0mm_W2.5mm_P2.50mm)
      (libsource (lib device) (part C_Small))
      (sheetpath (names /) (tstamps /))
      (tstamp 5B0D344A))
    (comp (ref C25)
      (value 0.1uF)
      (footprint Capacitors_THT:C_Disc_D5.0mm_W2.5mm_P2.50mm)
      (libsource (lib device) (part C_Small))
      (sheetpath (names /) (tstamps /))
      (tstamp 5B0D3450))
    (comp (ref C29)
      (value 0.1uF)
      (footprint Capacitors_THT:C_Disc_D5.0mm_W2.5mm_P2.50mm)
      (libsource (lib device) (part C_Small))
      (sheetpath (names /) (tstamps /))
      (tstamp 5B0D433C))
    (comp (ref C26)
      (value 0.1uF)
      (footprint Capacitors_THT:C_Disc_D5.0mm_W2.5mm_P2.50mm)
      (libsource (lib device) (part C_Small))
      (sheetpath (names /) (tstamps /))
      (tstamp 5B0D4EC1))
    (comp (ref JP2)
      (value Jumper)
      (footprint Pin_Headers:Pin_Header_Straight_1x02_Pitch2.54mm)
      (libsource (lib device) (part Jumper))
      (sheetpath (names /) (tstamps /))
      (tstamp 5B0D59B3))
    (comp (ref JP1)
      (value Jumper)
      (footprint Pin_Headers:Pin_Header_Straight_1x02_Pitch2.54mm)
      (libsource (lib device) (part Jumper))
      (sheetpath (names /) (tstamps /))
      (tstamp 5B0D5B04))
    (comp (ref JP3)
      (value Jumper)
      (footprint Pin_Headers:Pin_Header_Straight_1x02_Pitch2.54mm)
      (libsource (lib device) (part Jumper))
      (sheetpath (names /) (tstamps /))
      (tstamp 5B0D5BA1))
    (comp (ref D19)
      (value BAT85)
      (footprint Diodes_THT:D_A-405_P2.54mm_Vertical_KathodeUp)
      (libsource (lib device) (part D_Schottky))
      (sheetpath (names /) (tstamps /))
      (tstamp 5B0D7893))
    (comp (ref D21)
      (value BAT85)
      (footprint Diodes_THT:D_A-405_P2.54mm_Vertical_KathodeUp)
      (libsource (lib device) (part D_Schottky))
      (sheetpath (names /) (tstamps /))
      (tstamp 5B0D7939))
    (comp (ref D23)
      (value BAT85)
      (footprint Diodes_THT:D_A-405_P2.54mm_Vertical_KathodeUp)
      (libsource (lib device) (part D_Schottky))
      (sheetpath (names /) (tstamps /))
      (tstamp 5B0D79C5))
    (comp (ref D25)
      (value BAT85)
      (footprint Diodes_THT:D_A-405_P2.54mm_Vertical_KathodeUp)
      (libsource (lib device) (part D_Schottky))
      (sheetpath (names /) (tstamps /))
      (tstamp 5B0D7A60))
    (comp (ref D20)
      (value BAT85)
      (footprint Diodes_THT:D_A-405_P2.54mm_Vertical_KathodeUp)
      (libsource (lib device) (part D_Schottky))
      (sheetpath (names /) (tstamps /))
      (tstamp 5B0D82DB))
    (comp (ref D22)
      (value BAT85)
      (footprint Diodes_THT:D_A-405_P2.54mm_Vertical_KathodeUp)
      (libsource (lib device) (part D_Schottky))
      (sheetpath (names /) (tstamps /))
      (tstamp 5B0D82E1))
    (comp (ref D24)
      (value BAT85)
      (footprint Diodes_THT:D_A-405_P2.54mm_Vertical_KathodeUp)
      (libsource (lib device) (part D_Schottky))
      (sheetpath (names /) (tstamps /))
      (tstamp 5B0D82E7))
    (comp (ref D26)
      (value BAT85)
      (footprint Diodes_THT:D_A-405_P2.54mm_Vertical_KathodeUp)
      (libsource (lib device) (part D_Schottky))
      (sheetpath (names /) (tstamps /))
      (tstamp 5B0D82ED))
    (comp (ref R10)
      (value 10k)
      (footprint Resistors_THT:R_Axial_DIN0207_L6.3mm_D2.5mm_P2.54mm_Vertical)
      (libsource (lib device) (part R))
      (sheetpath (names /) (tstamps /))
      (tstamp 5B0DF4F1))
    (comp (ref JP5)
      (value Jumper)
      (footprint Pin_Headers:Pin_Header_Straight_1x02_Pitch2.54mm)
      (libsource (lib device) (part Jumper))
      (sheetpath (names /) (tstamps /))
      (tstamp 5B0F750E))
    (comp (ref JP4)
      (value Jumper)
      (footprint Pin_Headers:Pin_Header_Straight_1x02_Pitch2.54mm)
      (libsource (lib device) (part Jumper))
      (sheetpath (names /) (tstamps /))
      (tstamp 5B0F7514))
    (comp (ref JP6)
      (value Jumper)
      (footprint Pin_Headers:Pin_Header_Straight_1x02_Pitch2.54mm)
      (libsource (lib device) (part Jumper))
      (sheetpath (names /) (tstamps /))
      (tstamp 5B0F751A))
    (comp (ref C11)
      (value 0.1uF)
      (footprint Capacitors_THT:C_Disc_D5.0mm_W2.5mm_P2.50mm)
      (libsource (lib device) (part C_Small))
      (sheetpath (names /) (tstamps /))
      (tstamp 5BD0FFD6))
    (comp (ref C1)
      (value 0.1uF)
      (footprint Capacitors_THT:C_Disc_D5.0mm_W2.5mm_P2.50mm)
      (libsource (lib device) (part C_Small))
      (sheetpath (names /) (tstamps /))
      (tstamp 5BD106C7))
    (comp (ref C28)
      (value 10nF)
      (footprint Capacitors_THT:C_Disc_D5.0mm_W2.5mm_P2.50mm)
      (libsource (lib device) (part C_Small))
      (sheetpath (names /) (tstamps /))
      (tstamp 5BD1214A))
    (comp (ref L1)
      (value "BLM18PG221SN1D (220ohm L, 0.1ohm R)")
      (footprint Inductors_THT:L_Axial_L9.5mm_D4.0mm_P2.54mm_Vertical_Fastron_SMCC)
      (libsource (lib device) (part L))
      (sheetpath (names /) (tstamps /))
      (tstamp 5BD1236D))
    (comp (ref C31)
      (value 0.1F)
      (footprint Capacitors_THT:C_Disc_D5.0mm_W2.5mm_P2.50mm)
      (libsource (lib device) (part C_Small))
      (sheetpath (names /) (tstamps /))
      (tstamp 5BD12458))
    (comp (ref C32)
      (value 10uF)
      (footprint Capacitors_THT:CP_Radial_D5.0mm_P2.50mm)
      (libsource (lib device) (part CP1))
      (sheetpath (names /) (tstamps /))
      (tstamp 5BD12780))
    (comp (ref C20)
      (value 0.1uF)
      (footprint Capacitors_THT:C_Disc_D5.0mm_W2.5mm_P2.50mm)
      (libsource (lib device) (part C_Small))
      (sheetpath (names /) (tstamps /))
      (tstamp 5BD16757))
    (comp (ref U3)
      (value LM334Z)
      (footprint LM334Z_modified:TO127P254X495-3P)
      (datasheet "Texas Instruments")
      (fields
        (field (name Field4) None)
        (field (name Field5) "TO-226-3 Texas Instruments")
        (field (name Field6) Unavailable)
        (field (name Field7) LM334Z/NOPB)
        (field (name Field8) "3-Terminal Adjustable Current Source 3-TO-92 0 to 70"))
      (libsource (lib LM334Z) (part LM334Z))
      (sheetpath (names /) (tstamps /))
      (tstamp 5BD1B51D))
    (comp (ref R3)
      (value 34)
      (footprint Resistors_THT:R_Axial_DIN0207_L6.3mm_D2.5mm_P2.54mm_Vertical)
      (libsource (lib device) (part R))
      (sheetpath (names /) (tstamps /))
      (tstamp 5BD1C57D))
    (comp (ref R8)
      (value 340)
      (footprint Resistors_THT:R_Axial_DIN0207_L6.3mm_D2.5mm_P2.54mm_Vertical)
      (libsource (lib device) (part R))
      (sheetpath (names /) (tstamps /))
      (tstamp 5BD1C9DF))
    (comp (ref D18)
      (value IN457)
      (footprint Diodes_THT:D_A-405_P2.54mm_Vertical_KathodeUp)
      (libsource (lib device) (part D))
      (sheetpath (names /) (tstamps /))
      (tstamp 5BD1CEA8))
    (comp (ref U5)
      (value LM1117-3.3)
      (footprint TO_SOT_Packages_THT:TO-220-3_Vertical)
      (libsource (lib regul) (part LM1117-3.3))
      (sheetpath (names /) (tstamps /))
      (tstamp 5BD1E8DA))
    (comp (ref C30)
      (value "22uF Tantalium")
      (footprint Capacitors_THT:C_Disc_D5.0mm_W2.5mm_P2.50mm)
      (libsource (lib device) (part C_Small))
      (sheetpath (names /) (tstamps /))
      (tstamp 5BD20C1F))
    (comp (ref R9)
      (value 200)
      (footprint Resistors_THT:R_Axial_DIN0207_L6.3mm_D2.5mm_P2.54mm_Vertical)
      (libsource (lib device) (part R))
      (sheetpath (names /) (tstamps /))
      (tstamp 5BD21158))
    (comp (ref D27)
      (value LED)
      (footprint LEDs:LED_D5.0mm)
      (libsource (lib device) (part LED))
      (sheetpath (names /) (tstamps /))
      (tstamp 5BD21FF5))
    (comp (ref R2)
      (value 100)
      (footprint Resistors_THT:R_Axial_DIN0207_L6.3mm_D2.5mm_P2.54mm_Vertical)
      (libsource (lib device) (part R))
      (sheetpath (names /) (tstamps /))
      (tstamp 5BD301E8))
    (comp (ref C7)
      (value 1nF)
      (footprint Capacitors_THT:C_Disc_D5.0mm_W2.5mm_P2.50mm)
      (libsource (lib device) (part C_Small))
      (sheetpath (names /) (tstamps /))
      (tstamp 5BD36146))
    (comp (ref D6)
      (value "D_TVS 3.3V")
      (footprint Diodes_THT:D_A-405_P2.54mm_Vertical_KathodeUp)
      (libsource (lib device) (part D_TVS))
      (sheetpath (names /) (tstamps /))
      (tstamp 5BD366FF))
    (comp (ref C3)
      (value 1nF)
      (footprint Capacitors_THT:C_Disc_D5.0mm_W2.5mm_P2.50mm)
      (libsource (lib device) (part C_Small))
      (sheetpath (names /) (tstamps /))
      (tstamp 5BD3805D))
    (comp (ref D1)
      (value "D_TVS 3.3V")
      (footprint Diodes_THT:D_A-405_P2.54mm_Vertical_KathodeUp)
      (libsource (lib device) (part D_TVS))
      (sheetpath (names /) (tstamps /))
      (tstamp 5BD3A3A7))
    (comp (ref J2)
      (value Screw_Terminal_01x03)
      (footprint Connectors_Terminal_Blocks:TerminalBlock_Pheonix_MKDS1.5-3pol)
      (libsource (lib conn) (part Screw_Terminal_01x03))
      (sheetpath (names /) (tstamps /))
      (tstamp 5BD41DBD))
    (comp (ref C8)
      (value 1nF)
      (footprint Capacitors_THT:C_Disc_D5.0mm_W2.5mm_P2.50mm)
      (libsource (lib device) (part C_Small))
      (sheetpath (names /) (tstamps /))
      (tstamp 5BD41DCB))
    (comp (ref D7)
      (value "D_TVS 3.3V")
      (footprint Diodes_THT:D_A-405_P2.54mm_Vertical_KathodeUp)
      (libsource (lib device) (part D_TVS))
      (sheetpath (names /) (tstamps /))
      (tstamp 5BD41DD1))
    (comp (ref C4)
      (value 1nF)
      (footprint Capacitors_THT:C_Disc_D5.0mm_W2.5mm_P2.50mm)
      (libsource (lib device) (part C_Small))
      (sheetpath (names /) (tstamps /))
      (tstamp 5BD41DD7))
    (comp (ref D2)
      (value "D_TVS 3.3V")
      (footprint Diodes_THT:D_A-405_P2.54mm_Vertical_KathodeUp)
      (libsource (lib device) (part D_TVS))
      (sheetpath (names /) (tstamps /))
      (tstamp 5BD41DDE))
    (comp (ref J3)
      (value Screw_Terminal_01x03)
      (footprint Connectors_Terminal_Blocks:TerminalBlock_Pheonix_MKDS1.5-3pol)
      (libsource (lib conn) (part Screw_Terminal_01x03))
      (sheetpath (names /) (tstamps /))
      (tstamp 5BD42082))
    (comp (ref C9)
      (value 1nF)
      (footprint Capacitors_THT:C_Disc_D5.0mm_W2.5mm_P2.50mm)
      (libsource (lib device) (part C_Small))
      (sheetpath (names /) (tstamps /))
      (tstamp 5BD42090))
    (comp (ref D8)
      (value "D_TVS 3.3V")
      (footprint Diodes_THT:D_A-405_P2.54mm_Vertical_KathodeUp)
      (libsource (lib device) (part D_TVS))
      (sheetpath (names /) (tstamps /))
      (tstamp 5BD42096))
    (comp (ref C5)
      (value 1nF)
      (footprint Capacitors_THT:C_Disc_D5.0mm_W2.5mm_P2.50mm)
      (libsource (lib device) (part C_Small))
      (sheetpath (names /) (tstamps /))
      (tstamp 5BD4209C))
    (comp (ref D3)
      (value "D_TVS 3.3V")
      (footprint Diodes_THT:D_A-405_P2.54mm_Vertical_KathodeUp)
      (libsource (lib device) (part D_TVS))
      (sheetpath (names /) (tstamps /))
      (tstamp 5BD420A3))
    (comp (ref J4)
      (value Screw_Terminal_01x03)
      (footprint Connectors_Terminal_Blocks:TerminalBlock_Pheonix_MKDS1.5-3pol)
      (libsource (lib conn) (part Screw_Terminal_01x03))
      (sheetpath (names /) (tstamps /))
      (tstamp 5BD420C3))
    (comp (ref C10)
      (value 1nF)
      (footprint Capacitors_THT:C_Disc_D5.0mm_W2.5mm_P2.50mm)
      (libsource (lib device) (part C_Small))
      (sheetpath (names /) (tstamps /))
      (tstamp 5BD420D1))
    (comp (ref D9)
      (value "D_TVS 3.3V")
      (footprint Diodes_THT:D_A-405_P2.54mm_Vertical_KathodeUp)
      (libsource (lib device) (part D_TVS))
      (sheetpath (names /) (tstamps /))
      (tstamp 5BD420D7))
    (comp (ref C6)
      (value 1nF)
      (footprint Capacitors_THT:C_Disc_D5.0mm_W2.5mm_P2.50mm)
      (libsource (lib device) (part C_Small))
      (sheetpath (names /) (tstamps /))
      (tstamp 5BD420DD))
    (comp (ref D4)
      (value "D_TVS 3.3V")
      (footprint Diodes_THT:D_A-405_P2.54mm_Vertical_KathodeUp)
      (libsource (lib device) (part D_TVS))
      (sheetpath (names /) (tstamps /))
      (tstamp 5BD420E4))
    (comp (ref J5)
      (value Screw_Terminal_01x03)
      (footprint Connectors_Terminal_Blocks:TerminalBlock_Pheonix_MKDS1.5-3pol)
      (libsource (lib conn) (part Screw_Terminal_01x03))
      (sheetpath (names /) (tstamps /))
      (tstamp 5BD425AC))
    (comp (ref C16)
      (value 1nF)
      (footprint Capacitors_THT:C_Disc_D5.0mm_W2.5mm_P2.50mm)
      (libsource (lib device) (part C_Small))
      (sheetpath (names /) (tstamps /))
      (tstamp 5BD425BA))
    (comp (ref D14)
      (value "D_TVS 3.3V")
      (footprint Diodes_THT:D_A-405_P2.54mm_Vertical_KathodeUp)
      (libsource (lib device) (part D_TVS))
      (sheetpath (names /) (tstamps /))
      (tstamp 5BD425C0))
    (comp (ref C12)
      (value 1nF)
      (footprint Capacitors_THT:C_Disc_D5.0mm_W2.5mm_P2.50mm)
      (libsource (lib device) (part C_Small))
      (sheetpath (names /) (tstamps /))
      (tstamp 5BD425C6))
    (comp (ref D10)
      (value "D_TVS 3.3V")
      (footprint Diodes_THT:D_A-405_P2.54mm_Vertical_KathodeUp)
      (libsource (lib device) (part D_TVS))
      (sheetpath (names /) (tstamps /))
      (tstamp 5BD425CD))
    (comp (ref J6)
      (value Screw_Terminal_01x03)
      (footprint Connectors_Terminal_Blocks:TerminalBlock_Pheonix_MKDS1.5-3pol)
      (libsource (lib conn) (part Screw_Terminal_01x03))
      (sheetpath (names /) (tstamps /))
      (tstamp 5BD425ED))
    (comp (ref C17)
      (value 1nF)
      (footprint Capacitors_THT:C_Disc_D5.0mm_W2.5mm_P2.50mm)
      (libsource (lib device) (part C_Small))
      (sheetpath (names /) (tstamps /))
      (tstamp 5BD425FB))
    (comp (ref D15)
      (value "D_TVS 3.3V")
      (footprint Diodes_THT:D_A-405_P2.54mm_Vertical_KathodeUp)
      (libsource (lib device) (part D_TVS))
      (sheetpath (names /) (tstamps /))
      (tstamp 5BD42601))
    (comp (ref C13)
      (value 1nF)
      (footprint Capacitors_THT:C_Disc_D5.0mm_W2.5mm_P2.50mm)
      (libsource (lib device) (part C_Small))
      (sheetpath (names /) (tstamps /))
      (tstamp 5BD42607))
    (comp (ref D11)
      (value "D_TVS 3.3V")
      (footprint Diodes_THT:D_A-405_P2.54mm_Vertical_KathodeUp)
      (libsource (lib device) (part D_TVS))
      (sheetpath (names /) (tstamps /))
      (tstamp 5BD4260E))
    (comp (ref J7)
      (value Screw_Terminal_01x03)
      (footprint Connectors_Terminal_Blocks:TerminalBlock_Pheonix_MKDS1.5-3pol)
      (libsource (lib conn) (part Screw_Terminal_01x03))
      (sheetpath (names /) (tstamps /))
      (tstamp 5BD4262E))
    (comp (ref C18)
      (value 1nF)
      (footprint Capacitors_THT:C_Disc_D5.0mm_W2.5mm_P2.50mm)
      (libsource (lib device) (part C_Small))
      (sheetpath (names /) (tstamps /))
      (tstamp 5BD4263C))
    (comp (ref D16)
      (value "D_TVS 3.3V")
      (footprint Diodes_THT:D_A-405_P2.54mm_Vertical_KathodeUp)
      (libsource (lib device) (part D_TVS))
      (sheetpath (names /) (tstamps /))
      (tstamp 5BD42642))
    (comp (ref C14)
      (value 1nF)
      (footprint Capacitors_THT:C_Disc_D5.0mm_W2.5mm_P2.50mm)
      (libsource (lib device) (part C_Small))
      (sheetpath (names /) (tstamps /))
      (tstamp 5BD42648))
    (comp (ref D12)
      (value "D_TVS 3.3V")
      (footprint Diodes_THT:D_A-405_P2.54mm_Vertical_KathodeUp)
      (libsource (lib device) (part D_TVS))
      (sheetpath (names /) (tstamps /))
      (tstamp 5BD4264F))
    (comp (ref J8)
      (value Screw_Terminal_01x03)
      (footprint Connectors_Terminal_Blocks:TerminalBlock_Pheonix_MKDS1.5-3pol)
      (libsource (lib conn) (part Screw_Terminal_01x03))
      (sheetpath (names /) (tstamps /))
      (tstamp 5BD4266F))
    (comp (ref C19)
      (value 1nF)
      (footprint Capacitors_THT:C_Disc_D5.0mm_W2.5mm_P2.50mm)
      (libsource (lib device) (part C_Small))
      (sheetpath (names /) (tstamps /))
      (tstamp 5BD4267D))
    (comp (ref D17)
      (value "D_TVS 3.3V")
      (footprint Diodes_THT:D_A-405_P2.54mm_Vertical_KathodeUp)
      (libsource (lib device) (part D_TVS))
      (sheetpath (names /) (tstamps /))
      (tstamp 5BD42683))
    (comp (ref C15)
      (value 1nF)
      (footprint Capacitors_THT:C_Disc_D5.0mm_W2.5mm_P2.50mm)
      (libsource (lib device) (part C_Small))
      (sheetpath (names /) (tstamps /))
      (tstamp 5BD42689))
    (comp (ref D13)
      (value "D_TVS 3.3V")
      (footprint Diodes_THT:D_A-405_P2.54mm_Vertical_KathodeUp)
      (libsource (lib device) (part D_TVS))
      (sheetpath (names /) (tstamps /))
      (tstamp 5BD42690))
    (comp (ref C2)
      (value 1nF)
      (footprint Capacitors_THT:C_Disc_D5.0mm_W2.5mm_P2.50mm)
      (libsource (lib device) (part C_Small))
      (sheetpath (names /) (tstamps /))
      (tstamp 5BD47BAB))
    (comp (ref D5)
      (value "D_TVS 3.3V")
      (footprint Diodes_THT:D_A-405_P2.54mm_Vertical_KathodeUp)
      (libsource (lib device) (part D_TVS))
      (sheetpath (names /) (tstamps /))
      (tstamp 5BD47EEF)))
  (libparts
    (libpart (lib cmos4000) (part 4051)
      (description "Analog Multiplexer 8 to 1 lins")
      (fields
        (field (name Reference) U)
        (field (name Value) 4051))
      (pins
        (pin (num 1) (name X4) (type passive))
        (pin (num 2) (name X6) (type passive))
        (pin (num 3) (name X) (type passive))
        (pin (num 4) (name X7) (type passive))
        (pin (num 5) (name X5) (type passive))
        (pin (num 6) (name Inh) (type input))
        (pin (num 7) (name VEE) (type power_in))
        (pin (num 8) (name VSS) (type power_in))
        (pin (num 9) (name C) (type input))
        (pin (num 10) (name B) (type input))
        (pin (num 11) (name A) (type input))
        (pin (num 12) (name X3) (type passive))
        (pin (num 13) (name X0) (type passive))
        (pin (num 14) (name X1) (type passive))
        (pin (num 15) (name X2) (type passive))
        (pin (num 16) (name VDD) (type power_in))))
    (libpart (lib ads1115board) (part ADS1115board)
      (fields
        (field (name Reference) U)
        (field (name Value) ADS1115board))
      (pins
        (pin (num 1) (name A3) (type input))
        (pin (num 2) (name A2) (type input))
        (pin (num 3) (name A1) (type input))
        (pin (num 4) (name A0) (type input))
        (pin (num 5) (name ALRT) (type input))
        (pin (num 6) (name ADDR) (type input))
        (pin (num 7) (name SDA) (type input))
        (pin (num 8) (name SCL) (type input))
        (pin (num 9) (name GND) (type input))
        (pin (num 10) (name VDD) (type input))))
    (libpart (lib device) (part CP1)
      (description "Polarised capacitor")
      (footprints
        (fp CP_*))
      (fields
        (field (name Reference) C)
        (field (name Value) CP1))
      (pins
        (pin (num 1) (name ~) (type passive))
        (pin (num 2) (name ~) (type passive))))
    (libpart (lib device) (part C_Small)
      (description "Unpolarized capacitor")
      (footprints
        (fp C_*))
      (fields
        (field (name Reference) C)
        (field (name Value) C_Small))
      (pins
        (pin (num 1) (name ~) (type passive))
        (pin (num 2) (name ~) (type passive))))
    (libpart (lib conn) (part Conn_02x20_Odd_Even)
      (description "Generic connector, double row, 02x20, odd/even pin numbering scheme (row 1 odd numbers, row 2 even numbers)")
      (docs ~)
      (footprints
        (fp Connector*:*2x??x*mm*)
        (fp Connector*:*2x???Pitch*)
        (fp Pin_Header_Straight_2X*)
        (fp Pin_Header_Angled_2X*)
        (fp Socket_Strip_Straight_2X*)
        (fp Socket_Strip_Angled_2X*))
      (fields
        (field (name Reference) J)
        (field (name Value) Conn_02x20_Odd_Even))
      (pins
        (pin (num 1) (name Pin_1) (type passive))
        (pin (num 2) (name Pin_2) (type passive))
        (pin (num 3) (name Pin_3) (type passive))
        (pin (num 4) (name Pin_4) (type passive))
        (pin (num 5) (name Pin_5) (type passive))
        (pin (num 6) (name Pin_6) (type passive))
        (pin (num 7) (name Pin_7) (type passive))
        (pin (num 8) (name Pin_8) (type passive))
        (pin (num 9) (name Pin_9) (type passive))
        (pin (num 10) (name Pin_10) (type passive))
        (pin (num 11) (name Pin_11) (type passive))
        (pin (num 12) (name Pin_12) (type passive))
        (pin (num 13) (name Pin_13) (type passive))
        (pin (num 14) (name Pin_14) (type passive))
        (pin (num 15) (name Pin_15) (type passive))
        (pin (num 16) (name Pin_16) (type passive))
        (pin (num 17) (name Pin_17) (type passive))
        (pin (num 18) (name Pin_18) (type passive))
        (pin (num 19) (name Pin_19) (type passive))
        (pin (num 20) (name Pin_20) (type passive))
        (pin (num 21) (name Pin_21) (type passive))
        (pin (num 22) (name Pin_22) (type passive))
        (pin (num 23) (name Pin_23) (type passive))
        (pin (num 24) (name Pin_24) (type passive))
        (pin (num 25) (name Pin_25) (type passive))
        (pin (num 26) (name Pin_26) (type passive))
        (pin (num 27) (name Pin_27) (type passive))
        (pin (num 28) (name Pin_28) (type passive))
        (pin (num 29) (name Pin_29) (type passive))
        (pin (num 30) (name Pin_30) (type passive))
        (pin (num 31) (name Pin_31) (type passive))
        (pin (num 32) (name Pin_32) (type passive))
        (pin (num 33) (name Pin_33) (type passive))
        (pin (num 34) (name Pin_34) (type passive))
        (pin (num 35) (name Pin_35) (type passive))
        (pin (num 36) (name Pin_36) (type passive))
        (pin (num 37) (name Pin_37) (type passive))
        (pin (num 38) (name Pin_38) (type passive))
        (pin (num 39) (name Pin_39) (type passive))
        (pin (num 40) (name Pin_40) (type passive))))
    (libpart (lib device) (part D)
      (description Diode)
      (footprints
        (fp TO-???*)
        (fp *SingleDiode)
        (fp *_Diode_*)
        (fp *SingleDiode*)
        (fp D_*))
      (fields
        (field (name Reference) D)
        (field (name Value) D))
      (pins
        (pin (num 1) (name K) (type passive))
        (pin (num 2) (name A) (type passive))))
    (libpart (lib device) (part D_Schottky)
      (description "Schottky diode")
      (footprints
        (fp TO-???*)
        (fp *SingleDiode)
        (fp *_Diode_*)
        (fp *SingleDiode*)
        (fp D_*))
      (fields
        (field (name Reference) D)
        (field (name Value) D_Schottky))
      (pins
        (pin (num 1) (name K) (type passive))
        (pin (num 2) (name A) (type passive))))
    (libpart (lib device) (part D_TVS)
      (description "Bidirectional transient-voltage-suppression (TVS) diode")
      (docs https://en.wikipedia.org/wiki/Transient-voltage-suppression_diode)
      (footprints
        (fp TO-???*)
        (fp *SingleDiode)
        (fp *_Diode_*)
        (fp *SingleDiode*)
        (fp D_*))
      (fields
        (field (name Reference) D)
        (field (name Value) D_TVS))
      (pins
        (pin (num 1) (name A1) (type passive))
        (pin (num 2) (name A2) (type passive))))
    (libpart (lib device) (part Jumper)
      (description "Jumper, generic, normally closed")
      (fields
        (field (name Reference) JP)
        (field (name Value) Jumper))
      (pins
        (pin (num 1) (name 1) (type passive))
        (pin (num 2) (name 2) (type passive))))
    (libpart (lib device) (part L)
      (description Inductor)
      (footprints
        (fp Choke_*)
        (fp *Coil*)
        (fp Inductor_*)
        (fp L_*))
      (fields
        (field (name Reference) L)
        (field (name Value) L))
      (pins
        (pin (num 1) (name 1) (type passive))
        (pin (num 2) (name 2) (type passive))))
    (libpart (lib device) (part LED)
      (description "LED generic")
      (footprints
        (fp LED*))
      (fields
        (field (name Reference) D)
        (field (name Value) LED))
      (pins
        (pin (num 1) (name K) (type passive))
        (pin (num 2) (name A) (type passive))))
    (libpart (lib regul) (part LM1117-1.8)
      (aliases
        (alias LM1117-2.5)
        (alias LM1117-3.3)
        (alias LM1117-5.0)
        (alias TLV1117-15)
        (alias TLV1117-18)
        (alias TLV1117-25)
        (alias TLV1117-33)
        (alias TLV1117-50))
      (description "800mA Low-Dropout Linear Regulator, 1.8V fixed output, TO-220/TO-252/TO-263/SOT-223")
      (docs http://www.ti.com/lit/ds/symlink/lm1117.pdf)
      (footprints
        (fp SOT?223*)
        (fp TO?263*)
        (fp TO?252*)
        (fp TO?220*))
      (fields
        (field (name Reference) U)
        (field (name Value) LM1117-1.8))
      (pins
        (pin (num 1) (name GND) (type power_in))
        (pin (num 2) (name VO) (type power_out))
        (pin (num 3) (name VI) (type power_in))))
    (libpart (lib LM334Z) (part LM334Z)
      (fields
        (field (name Reference) U)
        (field (name Value) LM334Z)
        (field (name Footprint) TO127P254X495-3P)
        (field (name Datasheet) "Texas Instruments")
        (field (name Field4) None)
        (field (name Field5) "TO-226-3 Texas Instruments")
        (field (name Field6) Unavailable)
        (field (name Field7) LM334Z/NOPB)
        (field (name Field8) "3-Terminal Adjustable Current Source 3-TO-92 0 to 70"))
      (pins
        (pin (num 1) (name V+) (type power_in))
        (pin (num 2) (name R) (type input))
        (pin (num 3) (name V-) (type output))))
    (libpart (lib device) (part R)
      (description Resistor)
      (footprints
        (fp R_*)
        (fp R_*))
      (fields
        (field (name Reference) R)
        (field (name Value) R))
      (pins
        (pin (num 1) (name ~) (type passive))
        (pin (num 2) (name ~) (type passive))))
    (libpart (lib conn) (part Screw_Terminal_01x03)
      (description "Generic screw terminal, single row, 01x03")
      (docs ~)
      (footprints
        (fp Connector*Terminal*Block*:*)
        (fp TerminalBlock*))
      (fields
        (field (name Reference) J)
        (field (name Value) Screw_Terminal_01x03))
      (pins
        (pin (num 1) (name Pin_1) (type passive))
        (pin (num 2) (name Pin_2) (type passive))
        (pin (num 3) (name Pin_3) (type passive)))))
  (libraries
    (library (logical cmos4000)
      (uri "C:\\Program Files\\KiCad\\share\\kicad\\library\\cmos4000.lib"))
    (library (logical regul)
      (uri "C:\\Program Files\\KiCad\\share\\kicad\\library\\regul.lib"))
    (library (logical device)
      (uri "C:\\Program Files\\KiCad\\share\\kicad\\library\\device.lib"))
    (library (logical conn)
      (uri "C:\\Program Files\\KiCad\\share\\kicad\\library\\conn.lib"))
    (library (logical ads1115board)
      (uri "D:\\SmallDesign\\SmallDAQ V2\\project\\custom_boards.pretty\\ads1115board.lib"))
    (library (logical LM334Z)
      (uri "D:\\SmallDesign\\SmallDAQ V2\\project\\TOPI_PT100_V3\\lib\\LM334Z.lib")))
  (nets
    (net (code 1) (name CC_2)
      (node (ref D7) (pin 1))
      (node (ref U2) (pin 14))
      (node (ref U1) (pin 14))
      (node (ref J2) (pin 3))
      (node (ref C8) (pin 2)))
    (net (code 2) (name A1_2)
      (node (ref D2) (pin 1))
      (node (ref C4) (pin 2))
      (node (ref J2) (pin 2))
      (node (ref U4) (pin 14)))
    (net (code 3) (name GND)
      (node (ref C32) (pin 2))
      (node (ref U2) (pin 7))
      (node (ref J9) (pin 25))
      (node (ref D27) (pin 1))
      (node (ref D22) (pin 2))
      (node (ref D20) (pin 2))
      (node (ref C19) (pin 1))
      (node (ref D24) (pin 2))
      (node (ref D26) (pin 2))
      (node (ref R2) (pin 1))
      (node (ref D13) (pin 2))
      (node (ref J9) (pin 9))
      (node (ref U1) (pin 8))
      (node (ref U1) (pin 7))
      (node (ref U4) (pin 7))
      (node (ref D17) (pin 2))
      (node (ref C7) (pin 1))
      (node (ref J9) (pin 39))
      (node (ref U6) (pin 9))
      (node (ref C30) (pin 1))
      (node (ref C15) (pin 1))
      (node (ref U5) (pin 1))
      (node (ref C20) (pin 2))
      (node (ref U4) (pin 8))
      (node (ref D9) (pin 2))
      (node (ref D16) (pin 2))
      (node (ref D4) (pin 2))
      (node (ref C14) (pin 1))
      (node (ref D12) (pin 2))
      (node (ref C31) (pin 1))
      (node (ref C28) (pin 1))
      (node (ref C6) (pin 1))
      (node (ref C1) (pin 1))
      (node (ref C17) (pin 1))
      (node (ref D15) (pin 2))
      (node (ref C8) (pin 1))
      (node (ref D7) (pin 2))
      (node (ref C4) (pin 1))
      (node (ref D2) (pin 2))
      (node (ref C3) (pin 1))
      (node (ref C18) (pin 1))
      (node (ref D1) (pin 2))
      (node (ref C26) (pin 1))
      (node (ref U2) (pin 8))
      (node (ref D8) (pin 2))
      (node (ref C5) (pin 1))
      (node (ref D14) (pin 2))
      (node (ref C16) (pin 1))
      (node (ref C29) (pin 1))
      (node (ref C12) (pin 1))
      (node (ref D5) (pin 2))
      (node (ref JP2) (pin 1))
      (node (ref C2) (pin 1))
      (node (ref C10) (pin 1))
      (node (ref D3) (pin 2))
      (node (ref C13) (pin 1))
      (node (ref D11) (pin 2))
      (node (ref C11) (pin 1))
      (node (ref C21) (pin 1))
      (node (ref D6) (pin 2))
      (node (ref D10) (pin 2))
      (node (ref C23) (pin 1))
      (node (ref C25) (pin 1))
      (node (ref C9) (pin 1)))
    (net (code 4) (name A1_1)
      (node (ref C3) (pin 2))
      (node (ref J1) (pin 2))
      (node (ref U4) (pin 13))
      (node (ref D1) (pin 1)))
    (net (code 5) (name 3.3V_LDO)
      (node (ref D19) (pin 1))
      (node (ref D21) (pin 1))
      (node (ref D23) (pin 1))
      (node (ref D25) (pin 1))
      (node (ref R10) (pin 1))
      (node (ref C1) (pin 2))
      (node (ref C11) (pin 2))
      (node (ref C26) (pin 2))
      (node (ref JP1) (pin 1))
      (node (ref U2) (pin 16))
      (node (ref U5) (pin 2))
      (node (ref C30) (pin 2))
      (node (ref U6) (pin 10))
      (node (ref C20) (pin 1))
      (node (ref R9) (pin 2))
      (node (ref U1) (pin 16))
      (node (ref U4) (pin 16))
      (node (ref U3) (pin 1)))
    (net (code 6) (name CC_3)
      (node (ref C9) (pin 2))
      (node (ref D8) (pin 1))
      (node (ref J3) (pin 3))
      (node (ref U1) (pin 15))
      (node (ref U2) (pin 15)))
    (net (code 7) (name CC_4)
      (node (ref U1) (pin 12))
      (node (ref J4) (pin 3))
      (node (ref C10) (pin 2))
      (node (ref D9) (pin 1))
      (node (ref U2) (pin 12)))
    (net (code 8) (name "Net-(J9-Pad17)")
      (node (ref J9) (pin 17)))
    (net (code 9) (name "Net-(J9-Pad19)")
      (node (ref J9) (pin 19)))
    (net (code 10) (name "Net-(J9-Pad21)")
      (node (ref J9) (pin 21)))
    (net (code 11) (name "Net-(J9-Pad23)")
      (node (ref J9) (pin 23)))
    (net (code 12) (name "Net-(J9-Pad27)")
      (node (ref J9) (pin 27)))
    (net (code 13) (name "Net-(J9-Pad29)")
      (node (ref J9) (pin 29)))
    (net (code 14) (name "Net-(J9-Pad31)")
      (node (ref J9) (pin 31)))
    (net (code 15) (name "Net-(J9-Pad35)")
      (node (ref J9) (pin 35)))
    (net (code 16) (name "Net-(J9-Pad37)")
      (node (ref J9) (pin 37)))
    (net (code 17) (name "Net-(J9-Pad15)")
      (node (ref J9) (pin 15)))
    (net (code 18) (name "Net-(J9-Pad1)")
      (node (ref J9) (pin 1)))
    (net (code 19) (name 4051_Inh)
      (node (ref JP5) (pin 1))
      (node (ref R10) (pin 2))
      (node (ref JP6) (pin 1))
      (node (ref JP4) (pin 1))
      (node (ref U2) (pin 6))
      (node (ref U1) (pin 6))
      (node (ref U4) (pin 6)))
    (net (code 20) (name Inh_2)
      (node (ref JP5) (pin 2))
      (node (ref J9) (pin 8)))
    (net (code 21) (name Inh_1)
      (node (ref J9) (pin 7))
      (node (ref JP4) (pin 2)))
    (net (code 22) (name "Net-(J9-Pad22)")
      (node (ref J9) (pin 22)))
    (net (code 23) (name "Net-(J9-Pad4)")
      (node (ref J9) (pin 4)))
    (net (code 24) (name "Net-(J9-Pad16)")
      (node (ref J9) (pin 16)))
    (net (code 25) (name "Net-(J9-Pad18)")
      (node (ref J9) (pin 18)))
    (net (code 26) (name "Net-(J9-Pad20)")
      (node (ref J9) (pin 20)))
    (net (code 27) (name "Net-(J9-Pad24)")
      (node (ref J9) (pin 24)))
    (net (code 28) (name "Net-(J9-Pad14)")
      (node (ref J9) (pin 14)))
    (net (code 29) (name "Net-(J9-Pad6)")
      (node (ref J9) (pin 6)))
    (net (code 30) (name "Net-(J9-Pad26)")
      (node (ref J9) (pin 26)))
    (net (code 31) (name "Net-(J9-Pad28)")
      (node (ref J9) (pin 28)))
    (net (code 32) (name "Net-(J9-Pad30)")
      (node (ref J9) (pin 30)))
    (net (code 33) (name "Net-(J9-Pad32)")
      (node (ref J9) (pin 32)))
    (net (code 34) (name "Net-(J9-Pad34)")
      (node (ref J9) (pin 34)))
    (net (code 35) (name "Net-(J9-Pad36)")
      (node (ref J9) (pin 36)))
    (net (code 36) (name "Net-(J9-Pad38)")
      (node (ref J9) (pin 38)))
    (net (code 37) (name "Net-(J9-Pad13)")
      (node (ref J9) (pin 13)))
    (net (code 38) (name 5V_filtered)
      (node (ref C32) (pin 1))
      (node (ref C31) (pin 2))
      (node (ref L1) (pin 1))
      (node (ref U5) (pin 3)))
    (net (code 39) (name A3)
      (node (ref R7) (pin 2))
      (node (ref R1) (pin 1))
      (node (ref R2) (pin 2)))
    (net (code 40) (name A2)
      (node (ref J4) (pin 1))
      (node (ref J2) (pin 1))
      (node (ref J5) (pin 1))
      (node (ref J1) (pin 1))
      (node (ref R1) (pin 2))
      (node (ref J8) (pin 1))
      (node (ref J3) (pin 1))
      (node (ref C2) (pin 2))
      (node (ref D5) (pin 1))
      (node (ref J6) (pin 1))
      (node (ref J7) (pin 1))
      (node (ref R6) (pin 2)))
    (net (code 41) (name "Net-(J9-Pad40)")
      (node (ref J9) (pin 40)))
    (net (code 42) (name ADDR)
      (node (ref JP3) (pin 2))
      (node (ref JP1) (pin 2))
      (node (ref JP2) (pin 2))
      (node (ref U6) (pin 6)))
    (net (code 43) (name "Net-(U6-Pad5)")
      (node (ref U6) (pin 5)))
    (net (code 44) (name CC_5)
      (node (ref J5) (pin 3))
      (node (ref C16) (pin 2))
      (node (ref D14) (pin 1))
      (node (ref U1) (pin 1))
      (node (ref U2) (pin 1)))
    (net (code 45) (name CC_7)
      (node (ref U2) (pin 2))
      (node (ref D16) (pin 1))
      (node (ref U1) (pin 2))
      (node (ref C18) (pin 2))
      (node (ref J7) (pin 3)))
    (net (code 46) (name CC_8)
      (node (ref J8) (pin 3))
      (node (ref U2) (pin 4))
      (node (ref U1) (pin 4))
      (node (ref D17) (pin 1))
      (node (ref C19) (pin 2)))
    (net (code 47) (name CC_6)
      (node (ref U1) (pin 5))
      (node (ref D15) (pin 1))
      (node (ref C17) (pin 2))
      (node (ref J6) (pin 3))
      (node (ref U2) (pin 5)))
    (net (code 48) (name CC_1)
      (node (ref U2) (pin 13))
      (node (ref J1) (pin 3))
      (node (ref U1) (pin 13))
      (node (ref D6) (pin 1))
      (node (ref C7) (pin 2)))
    (net (code 49) (name SCL)
      (node (ref JP3) (pin 1))
      (node (ref U6) (pin 8))
      (node (ref J9) (pin 5)))
    (net (code 50) (name 4051_B)
      (node (ref U4) (pin 10))
      (node (ref J9) (pin 11))
      (node (ref U1) (pin 10))
      (node (ref U2) (pin 10)))
    (net (code 51) (name 5V)
      (node (ref J9) (pin 2))
      (node (ref L1) (pin 2))
      (node (ref C28) (pin 2)))
    (net (code 52) (name SDA)
      (node (ref J9) (pin 3))
      (node (ref U6) (pin 7)))
    (net (code 53) (name 4051_A)
      (node (ref U2) (pin 11))
      (node (ref U4) (pin 11))
      (node (ref J9) (pin 10))
      (node (ref U1) (pin 11)))
    (net (code 54) (name 4051_C)
      (node (ref U1) (pin 9))
      (node (ref J9) (pin 12))
      (node (ref U2) (pin 9))
      (node (ref U4) (pin 9)))
    (net (code 55) (name Inh_3)
      (node (ref JP6) (pin 2))
      (node (ref J9) (pin 33)))
    (net (code 56) (name A1_5)
      (node (ref U4) (pin 1))
      (node (ref C12) (pin 2))
      (node (ref D10) (pin 1))
      (node (ref J5) (pin 2)))
    (net (code 57) (name A1_7)
      (node (ref J7) (pin 2))
      (node (ref C14) (pin 2))
      (node (ref U4) (pin 2))
      (node (ref D12) (pin 1)))
    (net (code 58) (name A1)
      (node (ref R5) (pin 2))
      (node (ref U4) (pin 3)))
    (net (code 59) (name A1_8)
      (node (ref C15) (pin 2))
      (node (ref J8) (pin 2))
      (node (ref D13) (pin 1))
      (node (ref U4) (pin 4)))
    (net (code 60) (name A1_6)
      (node (ref D11) (pin 1))
      (node (ref C13) (pin 2))
      (node (ref J6) (pin 2))
      (node (ref U4) (pin 5)))
    (net (code 61) (name A1_4)
      (node (ref C6) (pin 2))
      (node (ref J4) (pin 2))
      (node (ref D4) (pin 1))
      (node (ref U4) (pin 12)))
    (net (code 62) (name A1_3)
      (node (ref D3) (pin 1))
      (node (ref C5) (pin 2))
      (node (ref J3) (pin 2))
      (node (ref U4) (pin 15)))
    (net (code 63) (name A0)
      (node (ref R4) (pin 2))
      (node (ref U1) (pin 3)))
    (net (code 64) (name CCS_4mA)
      (node (ref R8) (pin 1))
      (node (ref U2) (pin 3))
      (node (ref D18) (pin 1)))
    (net (code 65) (name "Net-(D27-Pad2)")
      (node (ref D27) (pin 2))
      (node (ref R9) (pin 1)))
    (net (code 66) (name "Net-(R3-Pad2)")
      (node (ref U3) (pin 2))
      (node (ref R3) (pin 2)))
    (net (code 67) (name "Net-(D18-Pad2)")
      (node (ref R8) (pin 2))
      (node (ref R3) (pin 1))
      (node (ref U3) (pin 3))
      (node (ref D18) (pin 2)))
    (net (code 68) (name "Net-(C21-Pad2)")
      (node (ref R4) (pin 1))
      (node (ref D19) (pin 2))
      (node (ref D20) (pin 1))
      (node (ref C22) (pin 2))
      (node (ref U6) (pin 4))
      (node (ref C21) (pin 2)))
    (net (code 69) (name "Net-(C23-Pad2)")
      (node (ref U6) (pin 3))
      (node (ref C23) (pin 2))
      (node (ref C24) (pin 2))
      (node (ref R5) (pin 1))
      (node (ref D21) (pin 2))
      (node (ref D22) (pin 1)))
    (net (code 70) (name "Net-(C25-Pad2)")
      (node (ref U6) (pin 2))
      (node (ref R6) (pin 1))
      (node (ref D23) (pin 2))
      (node (ref C27) (pin 2))
      (node (ref D24) (pin 1))
      (node (ref C25) (pin 2)))
    (net (code 71) (name "Net-(C22-Pad1)")
      (node (ref R7) (pin 1))
      (node (ref C22) (pin 1))
      (node (ref D25) (pin 2))
      (node (ref C24) (pin 1))
      (node (ref D26) (pin 1))
      (node (ref U6) (pin 1))
      (node (ref C27) (pin 1))
      (node (ref C29) (pin 2)))))