EESchema Schematic File Version 2
LIBS:power
LIBS:device
LIBS:switches
LIBS:relays
LIBS:motors
LIBS:transistors
LIBS:conn
LIBS:linear
LIBS:regul
LIBS:74xx
LIBS:cmos4000
LIBS:adc-dac
LIBS:memory
LIBS:xilinx
LIBS:microcontrollers
LIBS:dsp
LIBS:microchip
LIBS:analog_switches
LIBS:motorola
LIBS:texas
LIBS:intel
LIBS:audio
LIBS:interface
LIBS:digital-audio
LIBS:philips
LIBS:display
LIBS:cypress
LIBS:siliconi
LIBS:opto
LIBS:atmel
LIBS:contrib
LIBS:valves
LIBS:ads1115board
LIBS:TL431
LIBS:LM334Z
LIBS:TOPI_PT100_4051_ADS1115_LM334_V3-cache
EELAYER 25 0
EELAYER END
$Descr A3 16535 11693
encoding utf-8
Sheet 1 1
Title ""
Date ""
Rev ""
Comp ""
Comment1 ""
Comment2 ""
Comment3 ""
Comment4 ""
$EndDescr
$Comp
L Conn_02x20_Odd_Even J9
U 1 1 5B0AAD6D
P 14875 2125
F 0 "J9" H 14925 3125 50  0000 C CNN
F 1 "Conn_02x20_Odd_Even" H 14925 1025 50  0000 C CNN
F 2 "Pin_Headers:Pin_Header_Angled_2x20_Pitch2.54mm" H 14875 2125 50  0001 C CNN
F 3 "" H 14875 2125 50  0001 C CNN
	1    14875 2125
	1    0    0    -1  
$EndComp
$Comp
L ADS1115board U6
U 1 1 5B0AAE45
P 12825 3875
F 0 "U6" H 12825 3875 60  0000 C CNN
F 1 "ADS1115board" H 12825 3975 60  0000 C CNN
F 2 "custom_boards:ADS1115board" H 12825 3875 60  0001 C CNN
F 3 "" H 12825 3875 60  0001 C CNN
	1    12825 3875
	0    1    1    0   
$EndComp
Text Notes 1575 4325 0    60   ~ 0
PT100
$Comp
L 4051 U4
U 1 1 5B0ABA1D
P 10725 8300
F 0 "U4" H 10825 8300 50  0000 C CNN
F 1 "HC4051" H 10825 8100 50  0000 C CNN
F 2 "Housings_DIP:DIP-16_W7.62mm" H 10725 8300 60  0001 C CNN
F 3 "" H 10725 8300 60  0001 C CNN
	1    10725 8300
	1    0    0    -1  
$EndComp
$Comp
L Screw_Terminal_01x03 J1
U 1 1 5B0B8160
P 2100 4250
F 0 "J1" H 2100 4450 50  0000 C CNN
F 1 "Screw_Terminal_01x03" H 2100 4050 50  0000 C CNN
F 2 "Connectors_Terminal_Blocks:TerminalBlock_Pheonix_MKDS1.5-3pol" H 2100 4250 50  0001 C CNN
F 3 "" H 2100 4250 50  0001 C CNN
	1    2100 4250
	-1   0    0    1   
$EndComp
$Comp
L R R1
U 1 1 5B0C268B
P 3100 9750
F 0 "R1" V 3180 9750 50  0000 C CNN
F 1 "34 0.1%" H 2875 9750 50  0000 C CNN
F 2 "Resistors_THT:R_Axial_DIN0207_L6.3mm_D2.5mm_P2.54mm_Vertical" V 3030 9750 50  0001 C CNN
F 3 "" H 3100 9750 50  0001 C CNN
	1    3100 9750
	-1   0    0    1   
$EndComp
$Comp
L 4051 U1
U 1 1 5B0CCA9E
P 2050 1350
F 0 "U1" H 2150 1350 50  0000 C CNN
F 1 "HC4051" H 2150 1150 50  0000 C CNN
F 2 "Housings_DIP:DIP-16_W7.62mm" H 2050 1350 60  0001 C CNN
F 3 "" H 2050 1350 60  0001 C CNN
	1    2050 1350
	0    -1   -1   0   
$EndComp
Text GLabel 9700 9000 3    60   Input ~ 0
4051_Inh
Text GLabel 9800 9000 3    60   Input ~ 0
4051_A
Text GLabel 9900 9000 3    60   Input ~ 0
4051_B
Text GLabel 10000 9000 3    60   Input ~ 0
4051_C
$Comp
L GND #PWR01
U 1 1 5B0D5302
P 11050 9350
F 0 "#PWR01" H 11050 9100 50  0001 C CNN
F 1 "GND" H 11050 9200 50  0000 C CNN
F 2 "" H 11050 9350 50  0001 C CNN
F 3 "" H 11050 9350 50  0001 C CNN
	1    11050 9350
	1    0    0    -1  
$EndComp
Text GLabel 11850 3775 0    60   BiDi ~ 0
SCL
Text GLabel 11850 3900 0    60   BiDi ~ 0
SDA
Text GLabel 5300 1975 3    60   Input ~ 0
4051_Inh
Text GLabel 5400 1975 3    60   Input ~ 0
4051_A
Text GLabel 5500 1975 3    60   Input ~ 0
4051_B
Text GLabel 5600 1975 3    60   Input ~ 0
4051_C
Text GLabel 3425 2000 1    60   Input ~ 0
4051_Inh
Text GLabel 3300 2000 1    60   Input ~ 0
4051_A
Text GLabel 3175 2000 1    60   Input ~ 0
4051_B
Text GLabel 3050 2000 1    60   Input ~ 0
4051_C
$Comp
L 4051 U2
U 1 1 5B0CCD27
P 5000 1275
F 0 "U2" H 5100 1275 50  0000 C CNN
F 1 "HC4051" H 5100 1075 50  0000 C CNN
F 2 "Housings_DIP:DIP-16_W7.62mm" H 5000 1275 60  0001 C CNN
F 3 "" H 5000 1275 60  0001 C CNN
	1    5000 1275
	0    -1   -1   0   
$EndComp
$Comp
L R R4
U 1 1 5B0D0D03
P 10200 4200
F 0 "R4" V 10280 4200 50  0000 C CNN
F 1 "1k" V 10200 4200 50  0000 C CNN
F 2 "Resistors_THT:R_Axial_DIN0207_L6.3mm_D2.5mm_P2.54mm_Vertical" V 10130 4200 50  0001 C CNN
F 3 "" H 10200 4200 50  0001 C CNN
	1    10200 4200
	0    1    1    0   
$EndComp
$Comp
L R R5
U 1 1 5B0D1049
P 10200 4350
F 0 "R5" V 10280 4350 50  0000 C CNN
F 1 "1k" V 10200 4350 50  0000 C CNN
F 2 "Resistors_THT:R_Axial_DIN0207_L6.3mm_D2.5mm_P2.54mm_Vertical" V 10130 4350 50  0001 C CNN
F 3 "" H 10200 4350 50  0001 C CNN
	1    10200 4350
	0    1    1    0   
$EndComp
$Comp
L R R6
U 1 1 5B0D10C0
P 10200 4500
F 0 "R6" V 10280 4500 50  0000 C CNN
F 1 "1k" V 10200 4500 50  0000 C CNN
F 2 "Resistors_THT:R_Axial_DIN0207_L6.3mm_D2.5mm_P2.54mm_Vertical" V 10130 4500 50  0001 C CNN
F 3 "" H 10200 4500 50  0001 C CNN
	1    10200 4500
	0    1    1    0   
$EndComp
$Comp
L R R7
U 1 1 5B0D1134
P 10200 4650
F 0 "R7" V 10280 4650 50  0000 C CNN
F 1 "1k" V 10200 4650 50  0000 C CNN
F 2 "Resistors_THT:R_Axial_DIN0207_L6.3mm_D2.5mm_P2.54mm_Vertical" V 10130 4650 50  0001 C CNN
F 3 "" H 10200 4650 50  0001 C CNN
	1    10200 4650
	0    1    1    0   
$EndComp
$Comp
L C_Small C22
U 1 1 5B0D20B6
P 11550 4900
F 0 "C22" H 11560 4970 50  0000 L CNN
F 1 "0.01uF" H 11560 4820 50  0000 L CNN
F 2 "Capacitors_THT:C_Disc_D5.0mm_W2.5mm_P2.50mm" H 11550 4900 50  0001 C CNN
F 3 "" H 11550 4900 50  0001 C CNN
	1    11550 4900
	-1   0    0    1   
$EndComp
$Comp
L C_Small C24
U 1 1 5B0D22B3
P 11825 4900
F 0 "C24" H 11835 4970 50  0000 L CNN
F 1 "0.01uF" H 11835 4820 50  0000 L CNN
F 2 "Capacitors_THT:C_Disc_D5.0mm_W2.5mm_P2.50mm" H 11825 4900 50  0001 C CNN
F 3 "" H 11825 4900 50  0001 C CNN
	1    11825 4900
	-1   0    0    1   
$EndComp
$Comp
L C_Small C27
U 1 1 5B0D2BF5
P 12100 4900
F 0 "C27" H 12110 4970 50  0000 L CNN
F 1 "0.01uF" H 12110 4820 50  0000 L CNN
F 2 "Capacitors_THT:C_Disc_D5.0mm_W2.5mm_P2.50mm" H 12100 4900 50  0001 C CNN
F 3 "" H 12100 4900 50  0001 C CNN
	1    12100 4900
	-1   0    0    1   
$EndComp
$Comp
L C_Small C21
U 1 1 5B0D3444
P 11500 5400
F 0 "C21" H 11510 5470 50  0000 L CNN
F 1 "0.1uF" H 11510 5320 50  0000 L CNN
F 2 "Capacitors_THT:C_Disc_D5.0mm_W2.5mm_P2.50mm" H 11500 5400 50  0001 C CNN
F 3 "" H 11500 5400 50  0001 C CNN
	1    11500 5400
	-1   0    0    1   
$EndComp
$Comp
L C_Small C23
U 1 1 5B0D344A
P 11750 5400
F 0 "C23" H 11760 5470 50  0000 L CNN
F 1 "0.1uF" H 11760 5320 50  0000 L CNN
F 2 "Capacitors_THT:C_Disc_D5.0mm_W2.5mm_P2.50mm" H 11750 5400 50  0001 C CNN
F 3 "" H 11750 5400 50  0001 C CNN
	1    11750 5400
	-1   0    0    1   
$EndComp
$Comp
L C_Small C25
U 1 1 5B0D3450
P 12000 5400
F 0 "C25" H 12010 5470 50  0000 L CNN
F 1 "0.1uF" H 12010 5320 50  0000 L CNN
F 2 "Capacitors_THT:C_Disc_D5.0mm_W2.5mm_P2.50mm" H 12000 5400 50  0001 C CNN
F 3 "" H 12000 5400 50  0001 C CNN
	1    12000 5400
	-1   0    0    1   
$EndComp
$Comp
L GND #PWR02
U 1 1 5B0D3AFA
P 10850 5250
F 0 "#PWR02" H 10850 5000 50  0001 C CNN
F 1 "GND" H 10850 5100 50  0000 C CNN
F 2 "" H 10850 5250 50  0001 C CNN
F 3 "" H 10850 5250 50  0001 C CNN
	1    10850 5250
	1    0    0    -1  
$EndComp
$Comp
L GND #PWR03
U 1 1 5B0D3D98
P 11875 5600
F 0 "#PWR03" H 11875 5350 50  0001 C CNN
F 1 "GND" H 11875 5450 50  0000 C CNN
F 2 "" H 11875 5600 50  0001 C CNN
F 3 "" H 11875 5600 50  0001 C CNN
	1    11875 5600
	1    0    0    -1  
$EndComp
$Comp
L C_Small C29
U 1 1 5B0D433C
P 12225 5400
F 0 "C29" H 12235 5470 50  0000 L CNN
F 1 "0.1uF" H 12235 5320 50  0000 L CNN
F 2 "Capacitors_THT:C_Disc_D5.0mm_W2.5mm_P2.50mm" H 12225 5400 50  0001 C CNN
F 3 "" H 12225 5400 50  0001 C CNN
	1    12225 5400
	-1   0    0    1   
$EndComp
Text GLabel 11850 4025 0    60   Input ~ 0
ADDR
NoConn ~ 12175 4025
$Comp
L C_Small C26
U 1 1 5B0D4EC1
P 12075 3250
F 0 "C26" H 12085 3320 50  0000 L CNN
F 1 "0.1uF" H 12085 3170 50  0000 L CNN
F 2 "Capacitors_THT:C_Disc_D5.0mm_W2.5mm_P2.50mm" H 12075 3250 50  0001 C CNN
F 3 "" H 12075 3250 50  0001 C CNN
	1    12075 3250
	0    1    1    0   
$EndComp
Text GLabel 14425 5950 0    60   BiDi ~ 0
SCL
Text GLabel 15400 5700 2    60   Input ~ 0
ADDR
$Comp
L Jumper JP2
U 1 1 5B0D59B3
P 14925 5725
F 0 "JP2" H 14925 5875 50  0000 C CNN
F 1 "Jumper" H 14925 5645 50  0000 C CNN
F 2 "Pin_Headers:Pin_Header_Straight_1x02_Pitch2.54mm" H 14925 5725 50  0001 C CNN
F 3 "" H 14925 5725 50  0001 C CNN
	1    14925 5725
	1    0    0    -1  
$EndComp
$Comp
L Jumper JP1
U 1 1 5B0D5B04
P 14925 5500
F 0 "JP1" H 14925 5650 50  0000 C CNN
F 1 "Jumper" H 14925 5420 50  0000 C CNN
F 2 "Pin_Headers:Pin_Header_Straight_1x02_Pitch2.54mm" H 14925 5500 50  0001 C CNN
F 3 "" H 14925 5500 50  0001 C CNN
	1    14925 5500
	1    0    0    -1  
$EndComp
$Comp
L Jumper JP3
U 1 1 5B0D5BA1
P 14925 5950
F 0 "JP3" H 14925 6100 50  0000 C CNN
F 1 "Jumper" H 14925 5870 50  0000 C CNN
F 2 "Pin_Headers:Pin_Header_Straight_1x02_Pitch2.54mm" H 14925 5950 50  0001 C CNN
F 3 "" H 14925 5950 50  0001 C CNN
	1    14925 5950
	1    0    0    -1  
$EndComp
$Comp
L D_Schottky D19
U 1 1 5B0D7893
P 10525 3975
F 0 "D19" H 10650 4025 50  0000 C CNN
F 1 "BAT85" H 10525 3875 50  0000 C CNN
F 2 "Diodes_THT:D_A-405_P2.54mm_Vertical_KathodeUp" H 10525 3975 50  0001 C CNN
F 3 "" H 10525 3975 50  0001 C CNN
	1    10525 3975
	0    1    1    0   
$EndComp
$Comp
L D_Schottky D21
U 1 1 5B0D7939
P 10750 3975
F 0 "D21" H 10900 4025 50  0000 C CNN
F 1 "BAT85" H 10750 3875 50  0000 C CNN
F 2 "Diodes_THT:D_A-405_P2.54mm_Vertical_KathodeUp" H 10750 3975 50  0001 C CNN
F 3 "" H 10750 3975 50  0001 C CNN
	1    10750 3975
	0    1    1    0   
$EndComp
$Comp
L D_Schottky D23
U 1 1 5B0D79C5
P 10950 3975
F 0 "D23" H 11100 4025 50  0000 C CNN
F 1 "BAT85" H 10950 3875 50  0000 C CNN
F 2 "Diodes_THT:D_A-405_P2.54mm_Vertical_KathodeUp" H 10950 3975 50  0001 C CNN
F 3 "" H 10950 3975 50  0001 C CNN
	1    10950 3975
	0    1    1    0   
$EndComp
$Comp
L D_Schottky D25
U 1 1 5B0D7A60
P 11150 3975
F 0 "D25" H 11300 4025 50  0000 C CNN
F 1 "BAT85" H 11150 3875 50  0000 C CNN
F 2 "Diodes_THT:D_A-405_P2.54mm_Vertical_KathodeUp" H 11150 3975 50  0001 C CNN
F 3 "" H 11150 3975 50  0001 C CNN
	1    11150 3975
	0    1    1    0   
$EndComp
$Comp
L D_Schottky D20
U 1 1 5B0D82DB
P 10525 4925
F 0 "D20" H 10375 4975 50  0000 C CNN
F 1 "BAT85" H 10525 4825 50  0000 C CNN
F 2 "Diodes_THT:D_A-405_P2.54mm_Vertical_KathodeUp" H 10525 4925 50  0001 C CNN
F 3 "" H 10525 4925 50  0001 C CNN
	1    10525 4925
	0    1    1    0   
$EndComp
$Comp
L D_Schottky D22
U 1 1 5B0D82E1
P 10750 4925
F 0 "D22" H 10600 4975 50  0000 C CNN
F 1 "BAT85" H 10750 4825 50  0000 C CNN
F 2 "Diodes_THT:D_A-405_P2.54mm_Vertical_KathodeUp" H 10750 4925 50  0001 C CNN
F 3 "" H 10750 4925 50  0001 C CNN
	1    10750 4925
	0    1    1    0   
$EndComp
$Comp
L D_Schottky D24
U 1 1 5B0D82E7
P 10950 4925
F 0 "D24" H 10800 4975 50  0000 C CNN
F 1 "BAT85" H 10950 4825 50  0000 C CNN
F 2 "Diodes_THT:D_A-405_P2.54mm_Vertical_KathodeUp" H 10950 4925 50  0001 C CNN
F 3 "" H 10950 4925 50  0001 C CNN
	1    10950 4925
	0    1    1    0   
$EndComp
$Comp
L D_Schottky D26
U 1 1 5B0D82ED
P 11150 4925
F 0 "D26" H 11000 5000 50  0000 C CNN
F 1 "BAT85" H 11150 4825 50  0000 C CNN
F 2 "Diodes_THT:D_A-405_P2.54mm_Vertical_KathodeUp" H 11150 4925 50  0001 C CNN
F 3 "" H 11150 4925 50  0001 C CNN
	1    11150 4925
	0    1    1    0   
$EndComp
Text GLabel 15475 1225 2    60   Output ~ 0
5V
Text GLabel 14375 1325 0    60   Output ~ 0
SDA
Text GLabel 14375 1425 0    60   Output ~ 0
SCL
$Comp
L GND #PWR04
U 1 1 5B0DA4DA
P 14675 1625
F 0 "#PWR04" H 14675 1375 50  0001 C CNN
F 1 "GND" H 14675 1475 50  0000 C CNN
F 2 "" H 14675 1625 50  0001 C CNN
F 3 "" H 14675 1625 50  0001 C CNN
	1    14675 1625
	0    1    1    0   
$EndComp
$Comp
L GND #PWR05
U 1 1 5B0DAF21
P 6225 1225
F 0 "#PWR05" H 6225 975 50  0001 C CNN
F 1 "GND" H 6225 1075 50  0000 C CNN
F 2 "" H 6225 1225 50  0001 C CNN
F 3 "" H 6225 1225 50  0001 C CNN
	1    6225 1225
	1    0    0    -1  
$EndComp
Text GLabel 14375 4500 0    60   Output ~ 0
4051_Inh
Text GLabel 15375 1625 2    60   Output ~ 0
4051_A
Text GLabel 15375 1725 2    60   Output ~ 0
4051_C
Text GLabel 14375 1725 0    60   Output ~ 0
4051_B
Wire Notes Line
	1900 4275 1950 4275
Wire Notes Line
	1950 4275 1950 4325
Wire Notes Line
	1950 4325 1875 4325
Wire Notes Line
	1875 4325 1875 4275
Wire Notes Line
	1875 4275 1925 4275
Wire Notes Line
	1925 4275 1925 4150
Wire Wire Line
	10350 4350 11750 4350
Wire Notes Line
	1925 4325 1925 4350
Wire Wire Line
	10350 4200 11575 4200
Wire Wire Line
	3100 9900 3100 10125
Wire Notes Line
	3050 1450 3075 1450
Wire Wire Line
	11425 9250 11425 8800
Wire Wire Line
	10725 9250 11425 9250
Wire Wire Line
	11050 9250 11050 9350
Connection ~ 11050 9250
Wire Wire Line
	10725 7325 10725 7350
Wire Wire Line
	11600 3525 12175 3525
Wire Wire Line
	11850 3650 12100 3650
Wire Wire Line
	12100 3650 12100 3625
Wire Wire Line
	12100 3625 12175 3625
Wire Wire Line
	11850 3775 11900 3775
Wire Wire Line
	11900 3775 11900 3725
Wire Wire Line
	11900 3725 12175 3725
Wire Wire Line
	11850 3900 11925 3900
Wire Wire Line
	11925 3900 11925 3825
Wire Wire Line
	11925 3825 12175 3825
Wire Wire Line
	2650 2050 2650 2100
Wire Wire Line
	2650 2100 3050 2100
Wire Wire Line
	3050 2100 3050 2000
Wire Wire Line
	2550 2050 2550 2125
Wire Wire Line
	2550 2125 3175 2125
Wire Wire Line
	3175 2125 3175 2000
Wire Wire Line
	2450 2050 2450 2150
Wire Wire Line
	2450 2150 3300 2150
Wire Wire Line
	3300 2150 3300 2000
Wire Wire Line
	2350 2050 2350 2175
Wire Wire Line
	2350 2175 3425 2175
Wire Wire Line
	3425 2175 3425 2000
Wire Wire Line
	2550 650  3000 650 
Wire Wire Line
	3000 650  3000 1350
Wire Wire Line
	3100 1025 3000 1025
Connection ~ 3000 1025
Wire Wire Line
	950  1350 1100 1350
Wire Wire Line
	10350 4500 11925 4500
Wire Wire Line
	5500 575  5950 575 
Wire Wire Line
	5950 575  5950 1275
Wire Wire Line
	5950 1225 6225 1225
Connection ~ 5950 1225
Wire Wire Line
	4000 1275 4050 1275
Wire Wire Line
	10350 4650 12175 4650
Wire Wire Line
	11500 5500 11500 5575
Wire Wire Line
	11500 5575 12225 5575
Wire Wire Line
	11875 5575 11875 5600
Wire Wire Line
	11750 5500 11750 5575
Connection ~ 11750 5575
Wire Wire Line
	12000 5575 12000 5500
Connection ~ 11875 5575
Wire Wire Line
	12225 5575 12225 5500
Connection ~ 12000 5575
Wire Wire Line
	11850 4025 12000 4025
Wire Wire Line
	12000 4025 12000 3925
Wire Wire Line
	12000 3925 12175 3925
Wire Wire Line
	11975 3250 11975 3525
Connection ~ 11975 3525
Wire Wire Line
	12175 3250 12175 3575
Wire Wire Line
	12175 3575 12150 3575
Wire Wire Line
	12150 3575 12150 3625
Connection ~ 12150 3625
Wire Wire Line
	14425 5500 14625 5500
Wire Wire Line
	14275 5725 14625 5725
Wire Wire Line
	14425 5950 14625 5950
Wire Wire Line
	15225 5500 15300 5500
Wire Wire Line
	15300 5500 15300 5725
Wire Wire Line
	15300 5700 15400 5700
Wire Wire Line
	15300 5725 15225 5725
Connection ~ 15300 5700
Wire Wire Line
	15225 5950 15300 5950
Wire Wire Line
	15300 5950 15300 5700
Wire Wire Line
	10525 3825 11150 3825
Connection ~ 10750 3825
Connection ~ 10950 3825
Wire Wire Line
	10825 3575 10825 3825
Connection ~ 10825 3825
Wire Wire Line
	10525 4125 10525 4775
Connection ~ 10525 4200
Wire Wire Line
	10750 4125 10750 4775
Connection ~ 10750 4350
Wire Wire Line
	10950 4125 10950 4775
Connection ~ 10950 4500
Wire Wire Line
	11150 4125 11150 4775
Connection ~ 11150 4650
Wire Wire Line
	10525 5075 11150 5075
Connection ~ 10750 5075
Connection ~ 10950 5075
Wire Wire Line
	10825 5075 10825 5250
Wire Wire Line
	10825 5250 10850 5250
Connection ~ 10825 5075
Wire Wire Line
	15175 1225 15475 1225
Wire Wire Line
	14375 1325 14675 1325
Wire Wire Line
	15175 1625 15375 1625
Wire Wire Line
	15175 1725 15375 1725
Wire Wire Line
	14375 1725 14675 1725
$Comp
L R R10
U 1 1 5B0DF4F1
P 14625 3975
F 0 "R10" V 14705 3975 50  0000 C CNN
F 1 "10k" V 14625 3975 50  0000 C CNN
F 2 "Resistors_THT:R_Axial_DIN0207_L6.3mm_D2.5mm_P2.54mm_Vertical" V 14555 3975 50  0001 C CNN
F 3 "" H 14625 3975 50  0001 C CNN
	1    14625 3975
	1    0    0    -1  
$EndComp
$Comp
L Jumper JP5
U 1 1 5B0F750E
P 15050 4500
F 0 "JP5" H 15050 4650 50  0000 C CNN
F 1 "Jumper" H 15050 4420 50  0000 C CNN
F 2 "Pin_Headers:Pin_Header_Straight_1x02_Pitch2.54mm" H 15050 4500 50  0001 C CNN
F 3 "" H 15050 4500 50  0001 C CNN
	1    15050 4500
	1    0    0    -1  
$EndComp
$Comp
L Jumper JP4
U 1 1 5B0F7514
P 15050 4275
F 0 "JP4" H 15050 4425 50  0000 C CNN
F 1 "Jumper" H 15050 4195 50  0000 C CNN
F 2 "Pin_Headers:Pin_Header_Straight_1x02_Pitch2.54mm" H 15050 4275 50  0001 C CNN
F 3 "" H 15050 4275 50  0001 C CNN
	1    15050 4275
	1    0    0    -1  
$EndComp
$Comp
L Jumper JP6
U 1 1 5B0F751A
P 15050 4725
F 0 "JP6" H 15050 4875 50  0000 C CNN
F 1 "Jumper" H 15050 4645 50  0000 C CNN
F 2 "Pin_Headers:Pin_Header_Straight_1x02_Pitch2.54mm" H 15050 4725 50  0001 C CNN
F 3 "" H 15050 4725 50  0001 C CNN
	1    15050 4725
	1    0    0    -1  
$EndComp
Wire Wire Line
	14275 2825 14675 2825
$Comp
L C_Small C11
U 1 1 5BD0FFD6
P 4000 1425
F 0 "C11" H 4010 1495 50  0000 L CNN
F 1 "0.1uF" H 4010 1345 50  0000 L CNN
F 2 "Capacitors_THT:C_Disc_D5.0mm_W2.5mm_P2.50mm" H 4000 1425 50  0001 C CNN
F 3 "" H 4000 1425 50  0001 C CNN
	1    4000 1425
	-1   0    0    1   
$EndComp
Wire Wire Line
	4000 1200 4000 1325
$Comp
L GND #PWR06
U 1 1 5BD1053C
P 4000 1525
F 0 "#PWR06" H 4000 1275 50  0001 C CNN
F 1 "GND" H 4000 1375 50  0000 C CNN
F 2 "" H 4000 1525 50  0001 C CNN
F 3 "" H 4000 1525 50  0001 C CNN
	1    4000 1525
	1    0    0    -1  
$EndComp
$Comp
L C_Small C1
U 1 1 5BD106C7
P 1050 1525
F 0 "C1" H 1060 1595 50  0000 L CNN
F 1 "0.1uF" H 1060 1445 50  0000 L CNN
F 2 "Capacitors_THT:C_Disc_D5.0mm_W2.5mm_P2.50mm" H 1050 1525 50  0001 C CNN
F 3 "" H 1050 1525 50  0001 C CNN
	1    1050 1525
	-1   0    0    1   
$EndComp
$Comp
L GND #PWR07
U 1 1 5BD1097D
P 1050 1675
F 0 "#PWR07" H 1050 1425 50  0001 C CNN
F 1 "GND" H 1050 1525 50  0000 C CNN
F 2 "" H 1050 1675 50  0001 C CNN
F 3 "" H 1050 1675 50  0001 C CNN
	1    1050 1675
	1    0    0    -1  
$EndComp
Wire Wire Line
	1050 1350 1050 1425
Connection ~ 1050 1350
Wire Wire Line
	1050 1625 1050 1675
Text GLabel 11950 925  0    60   Input ~ 0
5V
$Comp
L C_Small C28
U 1 1 5BD1214A
P 12150 1150
F 0 "C28" H 12160 1220 50  0000 L CNN
F 1 "10nF" H 12160 1070 50  0000 L CNN
F 2 "Capacitors_THT:C_Disc_D5.0mm_W2.5mm_P2.50mm" H 12150 1150 50  0001 C CNN
F 3 "" H 12150 1150 50  0001 C CNN
	1    12150 1150
	-1   0    0    1   
$EndComp
$Comp
L L L1
U 1 1 5BD1236D
P 12425 925
F 0 "L1" V 12375 925 50  0000 C CNN
F 1 "BLM18PG221SN1D (220ohm L, 0.1ohm R)" V 12275 950 50  0000 C CNN
F 2 "Inductors_THT:L_Axial_L9.5mm_D4.0mm_P2.54mm_Vertical_Fastron_SMCC" H 12425 925 50  0001 C CNN
F 3 "" H 12425 925 50  0001 C CNN
	1    12425 925 
	0    1    1    0   
$EndComp
$Comp
L C_Small C31
U 1 1 5BD12458
P 12675 1150
F 0 "C31" H 12685 1220 50  0000 L CNN
F 1 "0.1F" H 12685 1070 50  0000 L CNN
F 2 "Capacitors_THT:C_Disc_D5.0mm_W2.5mm_P2.50mm" H 12675 1150 50  0001 C CNN
F 3 "" H 12675 1150 50  0001 C CNN
	1    12675 1150
	-1   0    0    1   
$EndComp
$Comp
L CP1 C32
U 1 1 5BD12780
P 12875 1075
F 0 "C32" H 12900 1175 50  0000 L CNN
F 1 "10uF" H 12900 975 50  0000 L CNN
F 2 "Capacitors_THT:CP_Radial_D5.0mm_P2.50mm" H 12875 1075 50  0001 C CNN
F 3 "" H 12875 1075 50  0001 C CNN
	1    12875 1075
	1    0    0    -1  
$EndComp
Wire Wire Line
	11950 925  12275 925 
Wire Wire Line
	12575 925  13175 925 
Connection ~ 12675 925 
$Comp
L GND #PWR08
U 1 1 5BD130F3
P 12150 1325
F 0 "#PWR08" H 12150 1075 50  0001 C CNN
F 1 "GND" H 12150 1175 50  0000 C CNN
F 2 "" H 12150 1325 50  0001 C CNN
F 3 "" H 12150 1325 50  0001 C CNN
	1    12150 1325
	1    0    0    -1  
$EndComp
$Comp
L GND #PWR09
U 1 1 5BD1326A
P 12675 1325
F 0 "#PWR09" H 12675 1075 50  0001 C CNN
F 1 "GND" H 12675 1175 50  0000 C CNN
F 2 "" H 12675 1325 50  0001 C CNN
F 3 "" H 12675 1325 50  0001 C CNN
	1    12675 1325
	1    0    0    -1  
$EndComp
$Comp
L GND #PWR010
U 1 1 5BD13311
P 12875 1325
F 0 "#PWR010" H 12875 1075 50  0001 C CNN
F 1 "GND" H 12875 1175 50  0000 C CNN
F 2 "" H 12875 1325 50  0001 C CNN
F 3 "" H 12875 1325 50  0001 C CNN
	1    12875 1325
	1    0    0    -1  
$EndComp
Wire Wire Line
	12150 1250 12150 1325
Wire Wire Line
	12875 1225 12875 1325
Wire Wire Line
	12150 1050 12150 925 
Connection ~ 12150 925 
Wire Wire Line
	12675 925  12675 1050
Wire Wire Line
	12675 1250 12675 1325
Text GLabel 13175 975  3    60   Output ~ 0
5V_filtered
Text GLabel 10725 1075 1    60   Output ~ 0
CCS_4mA
$Comp
L GND #PWR011
U 1 1 5BD158F5
P 11850 3650
F 0 "#PWR011" H 11850 3400 50  0001 C CNN
F 1 "GND" H 11850 3500 50  0000 C CNN
F 2 "" H 11850 3650 50  0001 C CNN
F 3 "" H 11850 3650 50  0001 C CNN
	1    11850 3650
	0    1    1    0   
$EndComp
$Comp
L GND #PWR012
U 1 1 5BD1599C
P 3100 1025
F 0 "#PWR012" H 3100 775 50  0001 C CNN
F 1 "GND" H 3100 875 50  0000 C CNN
F 2 "" H 3100 1025 50  0001 C CNN
F 3 "" H 3100 1025 50  0001 C CNN
	1    3100 1025
	0    -1   -1   0   
$EndComp
$Comp
L C_Small C20
U 1 1 5BD16757
P 10875 7325
F 0 "C20" H 10885 7395 50  0000 L CNN
F 1 "0.1uF" H 10885 7245 50  0000 L CNN
F 2 "Capacitors_THT:C_Disc_D5.0mm_W2.5mm_P2.50mm" H 10875 7325 50  0001 C CNN
F 3 "" H 10875 7325 50  0001 C CNN
	1    10875 7325
	0    -1   -1   0   
$EndComp
$Comp
L GND #PWR013
U 1 1 5BD16B95
P 10975 7325
F 0 "#PWR013" H 10975 7075 50  0001 C CNN
F 1 "GND" H 10975 7175 50  0000 C CNN
F 2 "" H 10975 7325 50  0001 C CNN
F 3 "" H 10975 7325 50  0001 C CNN
	1    10975 7325
	1    0    0    -1  
$EndComp
$Comp
L GND #PWR014
U 1 1 5BD17CEE
P 14275 5725
F 0 "#PWR014" H 14275 5475 50  0001 C CNN
F 1 "GND" H 14275 5575 50  0000 C CNN
F 2 "" H 14275 5725 50  0001 C CNN
F 3 "" H 14275 5725 50  0001 C CNN
	1    14275 5725
	0    1    1    0   
$EndComp
Wire Wire Line
	11575 4200 11575 4125
Wire Wire Line
	11575 4125 12175 4125
Wire Wire Line
	11750 4350 11750 4225
Wire Wire Line
	11750 4225 12175 4225
Wire Wire Line
	11925 4500 11925 4325
Wire Wire Line
	11925 4325 12175 4325
Wire Wire Line
	12175 5000 12175 4425
Wire Wire Line
	11550 4200 11550 4800
Connection ~ 11550 4200
Wire Wire Line
	11825 4225 11825 4800
Connection ~ 11825 4225
Wire Wire Line
	12100 4325 12100 4800
Connection ~ 12100 4325
Wire Wire Line
	11550 5000 12225 5000
Connection ~ 12175 4650
Connection ~ 12100 5000
Connection ~ 11825 5000
Wire Wire Line
	11550 4725 11375 4725
Wire Wire Line
	11375 4725 11375 5300
Wire Wire Line
	11375 5300 11500 5300
Connection ~ 11550 4725
Wire Wire Line
	11825 4725 11675 4725
Wire Wire Line
	11675 4725 11675 5300
Wire Wire Line
	11675 5300 11750 5300
Connection ~ 11825 4725
Wire Wire Line
	12100 4725 12000 4725
Wire Wire Line
	12000 4725 12000 5300
Connection ~ 12100 4725
Wire Wire Line
	12225 5000 12225 5300
Connection ~ 12175 5000
$Comp
L LM334Z U3
U 1 1 5BD1B51D
P 9325 1100
F 0 "U3" H 9121 1323 50  0000 L BNN
F 1 "LM334Z" H 9126 591 50  0000 L BNN
F 2 "LM334Z_modified:TO127P254X495-3P" H 9325 1100 50  0001 L BNN
F 3 "Texas Instruments" H 9325 1100 50  0001 L BNN
F 4 "None" H 9325 1100 50  0001 L BNN "Field4"
F 5 "TO-226-3 Texas Instruments" H 9325 1100 50  0001 L BNN "Field5"
F 6 "Unavailable" H 9325 1100 50  0001 L BNN "Field6"
F 7 "LM334Z/NOPB" H 9325 1100 50  0001 L BNN "Field7"
F 8 "3-Terminal Adjustable Current Source 3-TO-92 0 to 70" H 9325 1100 50  0001 L BNN "Field8"
	1    9325 1100
	1    0    0    -1  
$EndComp
Wire Wire Line
	8550 1100 8625 1100
Wire Wire Line
	8550 725  8550 1100
Wire Wire Line
	10025 1200 10125 1200
Wire Wire Line
	10050 1200 10050 1825
$Comp
L R R3
U 1 1 5BD1C57D
P 8825 1825
F 0 "R3" V 8905 1825 50  0000 C CNN
F 1 "34" V 8825 1825 50  0000 C CNN
F 2 "Resistors_THT:R_Axial_DIN0207_L6.3mm_D2.5mm_P2.54mm_Vertical" V 8755 1825 50  0001 C CNN
F 3 "" H 8825 1825 50  0001 C CNN
	1    8825 1825
	0    1    1    0   
$EndComp
Wire Wire Line
	8625 1300 8500 1300
Wire Wire Line
	8500 1300 8500 1825
Wire Wire Line
	8500 1825 8675 1825
$Comp
L R R8
U 1 1 5BD1C9DF
P 10450 1825
F 0 "R8" V 10530 1825 50  0000 C CNN
F 1 "340" V 10450 1825 50  0000 C CNN
F 2 "Resistors_THT:R_Axial_DIN0207_L6.3mm_D2.5mm_P2.54mm_Vertical" V 10380 1825 50  0001 C CNN
F 3 "" H 10450 1825 50  0001 C CNN
	1    10450 1825
	0    1    1    0   
$EndComp
Wire Wire Line
	8975 1825 10300 1825
Connection ~ 10050 1825
Connection ~ 10050 1200
$Comp
L D D18
U 1 1 5BD1CEA8
P 10275 1200
F 0 "D18" H 10275 1300 50  0000 C CNN
F 1 "IN457" H 10275 1100 50  0000 C CNN
F 2 "Diodes_THT:D_A-405_P2.54mm_Vertical_KathodeUp" H 10275 1200 50  0001 C CNN
F 3 "" H 10275 1200 50  0001 C CNN
	1    10275 1200
	-1   0    0    1   
$EndComp
Wire Wire Line
	10425 1200 10725 1200
Wire Wire Line
	10600 1200 10600 1825
Wire Wire Line
	10725 1200 10725 1075
Connection ~ 10600 1200
Text GLabel 4400 575  2    60   Input ~ 0
CCS_4mA
$Comp
L LM1117-3.3 U5
U 1 1 5BD1E8DA
P 12050 1900
F 0 "U5" H 11900 2025 50  0000 C CNN
F 1 "LM1117-3.3" H 12050 2025 50  0000 L CNN
F 2 "TO_SOT_Packages_THT:TO-220-3_Vertical" H 12050 1900 50  0001 C CNN
F 3 "" H 12050 1900 50  0001 C CNN
	1    12050 1900
	1    0    0    -1  
$EndComp
$Comp
L C_Small C30
U 1 1 5BD20C1F
P 12525 2050
F 0 "C30" H 12535 2120 50  0000 L CNN
F 1 "22uF Tantalium" V 12425 1925 50  0000 L CNN
F 2 "Capacitors_THT:C_Disc_D5.0mm_W2.5mm_P2.50mm" H 12525 2050 50  0001 C CNN
F 3 "" H 12525 2050 50  0001 C CNN
	1    12525 2050
	-1   0    0    1   
$EndComp
Wire Wire Line
	12350 1900 12825 1900
Wire Wire Line
	12525 1900 12525 1950
Wire Wire Line
	12050 2200 12525 2200
Wire Wire Line
	12525 2200 12525 2150
$Comp
L R R9
U 1 1 5BD21158
P 12825 2050
F 0 "R9" V 12905 2050 50  0000 C CNN
F 1 "200" V 12825 2050 50  0000 C CNN
F 2 "Resistors_THT:R_Axial_DIN0207_L6.3mm_D2.5mm_P2.54mm_Vertical" V 12755 2050 50  0001 C CNN
F 3 "" H 12825 2050 50  0001 C CNN
	1    12825 2050
	-1   0    0    1   
$EndComp
Connection ~ 12525 1900
$Comp
L GND #PWR015
U 1 1 5BD216A7
P 12250 2250
F 0 "#PWR015" H 12250 2000 50  0001 C CNN
F 1 "GND" H 12250 2100 50  0000 C CNN
F 2 "" H 12250 2250 50  0001 C CNN
F 3 "" H 12250 2250 50  0001 C CNN
	1    12250 2250
	1    0    0    -1  
$EndComp
Wire Wire Line
	12250 2200 12250 2250
Connection ~ 12250 2200
$Comp
L LED D27
U 1 1 5BD21FF5
P 12825 2350
F 0 "D27" H 12825 2450 50  0000 C CNN
F 1 "LED" H 12825 2250 50  0000 C CNN
F 2 "LEDs:LED_D5.0mm" H 12825 2350 50  0001 C CNN
F 3 "" H 12825 2350 50  0001 C CNN
	1    12825 2350
	0    -1   -1   0   
$EndComp
$Comp
L GND #PWR016
U 1 1 5BD220D3
P 12825 2500
F 0 "#PWR016" H 12825 2250 50  0001 C CNN
F 1 "GND" H 12825 2350 50  0000 C CNN
F 2 "" H 12825 2500 50  0001 C CNN
F 3 "" H 12825 2500 50  0001 C CNN
	1    12825 2500
	1    0    0    -1  
$EndComp
Text GLabel 12775 1725 2    60   Output ~ 0
3.3V_LDO
Wire Wire Line
	12725 1900 12725 1725
Wire Wire Line
	12625 1725 12775 1725
Connection ~ 12725 1900
Text GLabel 8650 725  2    60   Input ~ 0
3.3V_LDO
Wire Wire Line
	8550 725  8650 725 
Text GLabel 10700 3575 0    60   Input ~ 0
3.3V_LDO
Wire Wire Line
	10825 3575 10700 3575
Text GLabel 11600 3525 0    60   Input ~ 0
3.3V_LDO
Text GLabel 14425 5500 0    60   Input ~ 0
3.3V_LDO
Text GLabel 14425 3825 0    60   Input ~ 0
3.3V_LDO
NoConn ~ 15175 1325
NoConn ~ 15175 1925
NoConn ~ 15175 2025
NoConn ~ 15175 2225
NoConn ~ 15175 2125
NoConn ~ 15175 2325
NoConn ~ 15175 1825
NoConn ~ 15175 1425
NoConn ~ 15175 2425
NoConn ~ 15175 2525
NoConn ~ 15175 2625
NoConn ~ 15175 2725
NoConn ~ 15175 2825
NoConn ~ 15175 2925
NoConn ~ 15175 3025
NoConn ~ 14675 1825
NoConn ~ 14675 1925
NoConn ~ 14675 2025
NoConn ~ 14675 2125
NoConn ~ 14675 2225
NoConn ~ 14675 2325
NoConn ~ 14675 2525
NoConn ~ 14675 2625
NoConn ~ 14675 2725
NoConn ~ 14675 2925
NoConn ~ 14675 3025
$Comp
L GND #PWR017
U 1 1 5BD252C0
P 14300 3125
F 0 "#PWR017" H 14300 2875 50  0001 C CNN
F 1 "GND" H 14300 2975 50  0000 C CNN
F 2 "" H 14300 3125 50  0001 C CNN
F 3 "" H 14300 3125 50  0001 C CNN
	1    14300 3125
	0    1    1    0   
$EndComp
$Comp
L GND #PWR018
U 1 1 5BD25376
P 14675 2425
F 0 "#PWR018" H 14675 2175 50  0001 C CNN
F 1 "GND" H 14675 2275 50  0000 C CNN
F 2 "" H 14675 2425 50  0001 C CNN
F 3 "" H 14675 2425 50  0001 C CNN
	1    14675 2425
	0    1    1    0   
$EndComp
NoConn ~ 14675 1225
Wire Wire Line
	14625 4125 14625 4275
Wire Wire Line
	14625 4275 14750 4275
Wire Wire Line
	14750 4275 14750 4725
Connection ~ 14750 4500
Wire Wire Line
	14375 4500 14750 4500
Wire Wire Line
	14425 3825 14625 3825
Text GLabel 15350 1525 2    60   Output ~ 0
Inh_2
Wire Wire Line
	15175 1525 15350 1525
Text GLabel 14125 1525 0    60   Output ~ 0
Inh_1
Wire Wire Line
	14375 1425 14675 1425
Wire Wire Line
	14125 1525 14675 1525
Text GLabel 14275 2825 0    60   Output ~ 0
Inh_3
Text GLabel 15350 4275 2    60   Input ~ 0
Inh_1
Text GLabel 15350 4500 2    60   Input ~ 0
Inh_2
Text GLabel 15350 4725 2    60   Input ~ 0
Inh_3
Text GLabel 1450 650  2    60   Output ~ 0
A0
Text GLabel 10050 4200 0    60   Input ~ 0
A0
Text GLabel 11425 7700 2    60   Output ~ 0
A1
Text GLabel 10050 4350 0    60   Input ~ 0
A1
Text GLabel 3425 9600 2    60   Output ~ 0
A2
Text GLabel 3425 9925 2    60   Output ~ 0
A3
Wire Wire Line
	3100 9950 3100 9925
Wire Wire Line
	3100 9925 3425 9925
Connection ~ 3100 9950
Text GLabel 10050 4500 0    60   Input ~ 0
A2
Text GLabel 10050 4650 0    60   Input ~ 0
A3
Text GLabel 11650 1900 1    60   Input ~ 0
5V_filtered
Wire Wire Line
	11650 1900 11750 1900
Wire Wire Line
	13175 925  13175 975 
Connection ~ 12875 925 
Wire Notes Line
	11575 650  13300 650 
Wire Notes Line
	13300 650  13300 2700
Wire Notes Line
	13300 2700 11575 2700
Wire Notes Line
	11575 2700 11575 650 
Wire Notes Line
	8450 575  10850 575 
Wire Notes Line
	10850 575  10850 2025
Wire Notes Line
	10850 2025 8450 2025
Wire Notes Line
	8450 2025 8450 575 
Wire Notes Line
	13875 3700 15750 3700
Wire Notes Line
	15750 3700 15750 4900
Wire Notes Line
	15750 4900 13875 4900
Wire Notes Line
	13875 4900 13875 3700
Wire Notes Line
	9850 3200 9850 5850
Wire Notes Line
	9850 5850 13100 5850
Wire Notes Line
	13100 5850 13100 4550
Wire Notes Line
	13100 4550 13350 4550
Wire Notes Line
	13350 4550 13350 3175
Wire Notes Line
	13350 3175 9850 3175
$Comp
L R R2
U 1 1 5BD301E8
P 3100 10275
F 0 "R2" V 3180 10275 50  0000 C CNN
F 1 "100" V 3100 10275 50  0000 C CNN
F 2 "Resistors_THT:R_Axial_DIN0207_L6.3mm_D2.5mm_P2.54mm_Vertical" V 3030 10275 50  0001 C CNN
F 3 "" H 3100 10275 50  0001 C CNN
	1    3100 10275
	-1   0    0    1   
$EndComp
$Comp
L GND #PWR019
U 1 1 5BD305A2
P 3100 10425
F 0 "#PWR019" H 3100 10175 50  0001 C CNN
F 1 "GND" H 3100 10275 50  0000 C CNN
F 2 "" H 3100 10425 50  0001 C CNN
F 3 "" H 3100 10425 50  0001 C CNN
	1    3100 10425
	1    0    0    -1  
$EndComp
Wire Wire Line
	10000 9000 10000 8900
Wire Wire Line
	10000 8900 10025 8900
Wire Wire Line
	9900 9000 9900 8800
Wire Wire Line
	9900 8800 10025 8800
Wire Wire Line
	9800 9000 9800 8700
Wire Wire Line
	9800 8700 10025 8700
Wire Wire Line
	9700 9000 9700 8600
Wire Wire Line
	9700 8600 10025 8600
Text GLabel 4400 1975 3    60   Output ~ 0
CC_1
Text GLabel 4500 1975 3    60   Output ~ 0
CC_2
Text GLabel 4600 1975 3    60   Output ~ 0
CC_3
Text GLabel 4700 1975 3    60   Output ~ 0
CC_4
Text GLabel 4800 1975 3    60   Output ~ 0
CC_5
Text GLabel 4900 1975 3    60   Output ~ 0
CC_6
Text GLabel 5000 1975 3    60   Output ~ 0
CC_7
Text GLabel 5100 1975 3    60   Output ~ 0
CC_8
Text GLabel 1450 2050 3    60   Input ~ 0
CC_1
Text GLabel 1550 2050 3    60   Input ~ 0
CC_2
Text GLabel 1650 2050 3    60   Input ~ 0
CC_3
Text GLabel 1750 2050 3    60   Input ~ 0
CC_4
Text GLabel 1850 2050 3    60   Input ~ 0
CC_5
Text GLabel 1950 2050 3    60   Input ~ 0
CC_6
Text GLabel 2050 2050 3    60   Input ~ 0
CC_7
Text GLabel 2150 2050 3    60   Input ~ 0
CC_8
Text GLabel 3200 4150 2    60   Input ~ 0
CC_1
$Comp
L C_Small C7
U 1 1 5BD36146
P 2925 4700
F 0 "C7" H 2935 4770 50  0000 L CNN
F 1 "1nF" H 2935 4620 50  0000 L CNN
F 2 "Capacitors_THT:C_Disc_D5.0mm_W2.5mm_P2.50mm" H 2925 4700 50  0001 C CNN
F 3 "" H 2925 4700 50  0001 C CNN
	1    2925 4700
	-1   0    0    1   
$EndComp
$Comp
L D_TVS D6
U 1 1 5BD366FF
P 3075 4650
F 0 "D6" H 3075 4750 50  0000 C CNN
F 1 "D_TVS 3.3V" V 2850 4550 50  0000 C CNN
F 2 "Diodes_THT:D_A-405_P2.54mm_Vertical_KathodeUp" H 3075 4650 50  0001 C CNN
F 3 "" H 3075 4650 50  0001 C CNN
	1    3075 4650
	0    1    1    0   
$EndComp
$Comp
L C_Small C3
U 1 1 5BD3805D
P 2500 4700
F 0 "C3" H 2510 4770 50  0000 L CNN
F 1 "1nF" H 2510 4620 50  0000 L CNN
F 2 "Capacitors_THT:C_Disc_D5.0mm_W2.5mm_P2.50mm" H 2500 4700 50  0001 C CNN
F 3 "" H 2500 4700 50  0001 C CNN
	1    2500 4700
	-1   0    0    1   
$EndComp
Text GLabel 3225 4250 2    60   Output ~ 0
A1_1
Text GLabel 10025 7700 0    60   Input ~ 0
A1_1
$Comp
L D_TVS D1
U 1 1 5BD3A3A7
P 2650 4650
F 0 "D1" H 2650 4750 50  0000 C CNN
F 1 "D_TVS 3.3V" V 2425 4550 50  0000 C CNN
F 2 "Diodes_THT:D_A-405_P2.54mm_Vertical_KathodeUp" H 2650 4650 50  0001 C CNN
F 3 "" H 2650 4650 50  0001 C CNN
	1    2650 4650
	0    1    1    0   
$EndComp
Text GLabel 3225 4350 2    60   Output ~ 0
A2_1
Text GLabel 10025 7800 0    60   Input ~ 0
A1_2
Text GLabel 10025 7900 0    60   Input ~ 0
A1_3
Text GLabel 10025 8000 0    60   Input ~ 0
A1_4
Text GLabel 10025 8100 0    60   Input ~ 0
A1_5
Text GLabel 10025 8200 0    60   Input ~ 0
A1_6
Text GLabel 10025 8300 0    60   Input ~ 0
A1_7
Text GLabel 10025 8400 0    60   Input ~ 0
A1_8
Text GLabel 10725 7325 0    60   Input ~ 0
3.3V_LDO
Wire Wire Line
	10725 7325 10775 7325
Wire Notes Line
	1925 4150 2100 4150
Wire Notes Line
	1925 4250 2100 4250
Wire Notes Line
	1925 4350 2075 4350
$Comp
L GND #PWR020
U 1 1 5BD3F9A5
P 2775 4800
F 0 "#PWR020" H 2775 4550 50  0001 C CNN
F 1 "GND" H 2775 4650 50  0000 C CNN
F 2 "" H 2775 4800 50  0001 C CNN
F 3 "" H 2775 4800 50  0001 C CNN
	1    2775 4800
	1    0    0    -1  
$EndComp
Wire Wire Line
	2300 4150 3200 4150
Wire Wire Line
	2300 4250 3225 4250
Wire Wire Line
	3225 4350 2300 4350
Wire Wire Line
	3075 4500 3075 4150
Connection ~ 3075 4150
Wire Wire Line
	2925 4600 2925 4150
Connection ~ 2925 4150
Wire Wire Line
	2650 4500 2650 4250
Connection ~ 2650 4250
Wire Wire Line
	2500 4600 2500 4250
Connection ~ 2500 4250
Wire Wire Line
	2500 4800 3075 4800
Connection ~ 2650 4800
Connection ~ 2925 4800
Connection ~ 2775 4800
Text Notes 1575 5175 0    60   ~ 0
PT100
$Comp
L Screw_Terminal_01x03 J2
U 1 1 5BD41DBD
P 2100 5100
F 0 "J2" H 2100 5300 50  0000 C CNN
F 1 "Screw_Terminal_01x03" H 2100 4900 50  0000 C CNN
F 2 "Connectors_Terminal_Blocks:TerminalBlock_Pheonix_MKDS1.5-3pol" H 2100 5100 50  0001 C CNN
F 3 "" H 2100 5100 50  0001 C CNN
	1    2100 5100
	-1   0    0    1   
$EndComp
Wire Notes Line
	1900 5125 1950 5125
Wire Notes Line
	1950 5125 1950 5175
Wire Notes Line
	1950 5175 1875 5175
Wire Notes Line
	1875 5175 1875 5125
Wire Notes Line
	1875 5125 1925 5125
Wire Notes Line
	1925 5125 1925 5000
Wire Notes Line
	1925 5175 1925 5200
Text GLabel 3200 5000 2    60   Input ~ 0
CC_2
$Comp
L C_Small C8
U 1 1 5BD41DCB
P 2925 5550
F 0 "C8" H 2935 5620 50  0000 L CNN
F 1 "1nF" H 2935 5470 50  0000 L CNN
F 2 "Capacitors_THT:C_Disc_D5.0mm_W2.5mm_P2.50mm" H 2925 5550 50  0001 C CNN
F 3 "" H 2925 5550 50  0001 C CNN
	1    2925 5550
	-1   0    0    1   
$EndComp
$Comp
L D_TVS D7
U 1 1 5BD41DD1
P 3075 5500
F 0 "D7" H 3075 5600 50  0000 C CNN
F 1 "D_TVS 3.3V" V 2850 5400 50  0000 C CNN
F 2 "Diodes_THT:D_A-405_P2.54mm_Vertical_KathodeUp" H 3075 5500 50  0001 C CNN
F 3 "" H 3075 5500 50  0001 C CNN
	1    3075 5500
	0    1    1    0   
$EndComp
$Comp
L C_Small C4
U 1 1 5BD41DD7
P 2500 5550
F 0 "C4" H 2510 5620 50  0000 L CNN
F 1 "1nF" H 2510 5470 50  0000 L CNN
F 2 "Capacitors_THT:C_Disc_D5.0mm_W2.5mm_P2.50mm" H 2500 5550 50  0001 C CNN
F 3 "" H 2500 5550 50  0001 C CNN
	1    2500 5550
	-1   0    0    1   
$EndComp
Text GLabel 3225 5100 2    60   Output ~ 0
A1_2
$Comp
L D_TVS D2
U 1 1 5BD41DDE
P 2650 5500
F 0 "D2" H 2650 5600 50  0000 C CNN
F 1 "D_TVS 3.3V" V 2425 5400 50  0000 C CNN
F 2 "Diodes_THT:D_A-405_P2.54mm_Vertical_KathodeUp" H 2650 5500 50  0001 C CNN
F 3 "" H 2650 5500 50  0001 C CNN
	1    2650 5500
	0    1    1    0   
$EndComp
Text GLabel 3225 5200 2    60   Output ~ 0
A2_2
Wire Notes Line
	1925 5000 2100 5000
Wire Notes Line
	1925 5100 2100 5100
Wire Notes Line
	1925 5200 2075 5200
$Comp
L GND #PWR021
U 1 1 5BD41DE8
P 2775 5650
F 0 "#PWR021" H 2775 5400 50  0001 C CNN
F 1 "GND" H 2775 5500 50  0000 C CNN
F 2 "" H 2775 5650 50  0001 C CNN
F 3 "" H 2775 5650 50  0001 C CNN
	1    2775 5650
	1    0    0    -1  
$EndComp
Wire Wire Line
	2300 5000 3200 5000
Wire Wire Line
	2300 5100 3225 5100
Wire Wire Line
	3225 5200 2300 5200
Wire Wire Line
	3075 5350 3075 5000
Connection ~ 3075 5000
Wire Wire Line
	2925 5450 2925 5000
Connection ~ 2925 5000
Wire Wire Line
	2650 5350 2650 5100
Connection ~ 2650 5100
Wire Wire Line
	2500 5450 2500 5100
Connection ~ 2500 5100
Wire Wire Line
	2500 5650 3075 5650
Connection ~ 2650 5650
Connection ~ 2925 5650
Connection ~ 2775 5650
Text Notes 1575 6050 0    60   ~ 0
PT100
$Comp
L Screw_Terminal_01x03 J3
U 1 1 5BD42082
P 2100 5975
F 0 "J3" H 2100 6175 50  0000 C CNN
F 1 "Screw_Terminal_01x03" H 2100 5775 50  0000 C CNN
F 2 "Connectors_Terminal_Blocks:TerminalBlock_Pheonix_MKDS1.5-3pol" H 2100 5975 50  0001 C CNN
F 3 "" H 2100 5975 50  0001 C CNN
	1    2100 5975
	-1   0    0    1   
$EndComp
Wire Notes Line
	1900 6000 1950 6000
Wire Notes Line
	1950 6000 1950 6050
Wire Notes Line
	1950 6050 1875 6050
Wire Notes Line
	1875 6050 1875 6000
Wire Notes Line
	1875 6000 1925 6000
Wire Notes Line
	1925 6000 1925 5875
Wire Notes Line
	1925 6050 1925 6075
Text GLabel 3200 5875 2    60   Input ~ 0
CC_3
$Comp
L C_Small C9
U 1 1 5BD42090
P 2925 6425
F 0 "C9" H 2935 6495 50  0000 L CNN
F 1 "1nF" H 2935 6345 50  0000 L CNN
F 2 "Capacitors_THT:C_Disc_D5.0mm_W2.5mm_P2.50mm" H 2925 6425 50  0001 C CNN
F 3 "" H 2925 6425 50  0001 C CNN
	1    2925 6425
	-1   0    0    1   
$EndComp
$Comp
L D_TVS D8
U 1 1 5BD42096
P 3075 6375
F 0 "D8" H 3075 6475 50  0000 C CNN
F 1 "D_TVS 3.3V" V 2850 6275 50  0000 C CNN
F 2 "Diodes_THT:D_A-405_P2.54mm_Vertical_KathodeUp" H 3075 6375 50  0001 C CNN
F 3 "" H 3075 6375 50  0001 C CNN
	1    3075 6375
	0    1    1    0   
$EndComp
$Comp
L C_Small C5
U 1 1 5BD4209C
P 2500 6425
F 0 "C5" H 2510 6495 50  0000 L CNN
F 1 "1nF" H 2510 6345 50  0000 L CNN
F 2 "Capacitors_THT:C_Disc_D5.0mm_W2.5mm_P2.50mm" H 2500 6425 50  0001 C CNN
F 3 "" H 2500 6425 50  0001 C CNN
	1    2500 6425
	-1   0    0    1   
$EndComp
Text GLabel 3225 5975 2    60   Output ~ 0
A1_3
$Comp
L D_TVS D3
U 1 1 5BD420A3
P 2650 6375
F 0 "D3" H 2650 6475 50  0000 C CNN
F 1 "D_TVS 3.3V" V 2425 6275 50  0000 C CNN
F 2 "Diodes_THT:D_A-405_P2.54mm_Vertical_KathodeUp" H 2650 6375 50  0001 C CNN
F 3 "" H 2650 6375 50  0001 C CNN
	1    2650 6375
	0    1    1    0   
$EndComp
Text GLabel 3225 6075 2    60   Output ~ 0
A2_3
Wire Notes Line
	1925 5875 2100 5875
Wire Notes Line
	1925 5975 2100 5975
Wire Notes Line
	1925 6075 2075 6075
$Comp
L GND #PWR022
U 1 1 5BD420AD
P 2775 6525
F 0 "#PWR022" H 2775 6275 50  0001 C CNN
F 1 "GND" H 2775 6375 50  0000 C CNN
F 2 "" H 2775 6525 50  0001 C CNN
F 3 "" H 2775 6525 50  0001 C CNN
	1    2775 6525
	1    0    0    -1  
$EndComp
Wire Wire Line
	2300 5875 3200 5875
Wire Wire Line
	2300 5975 3225 5975
Wire Wire Line
	3225 6075 2300 6075
Wire Wire Line
	3075 6225 3075 5875
Connection ~ 3075 5875
Wire Wire Line
	2925 6325 2925 5875
Connection ~ 2925 5875
Wire Wire Line
	2650 6225 2650 5975
Connection ~ 2650 5975
Wire Wire Line
	2500 6325 2500 5975
Connection ~ 2500 5975
Wire Wire Line
	2500 6525 3075 6525
Connection ~ 2650 6525
Connection ~ 2925 6525
Connection ~ 2775 6525
Text Notes 1575 6900 0    60   ~ 0
PT100
$Comp
L Screw_Terminal_01x03 J4
U 1 1 5BD420C3
P 2100 6825
F 0 "J4" H 2100 7025 50  0000 C CNN
F 1 "Screw_Terminal_01x03" H 2100 6625 50  0000 C CNN
F 2 "Connectors_Terminal_Blocks:TerminalBlock_Pheonix_MKDS1.5-3pol" H 2100 6825 50  0001 C CNN
F 3 "" H 2100 6825 50  0001 C CNN
	1    2100 6825
	-1   0    0    1   
$EndComp
Wire Notes Line
	1900 6850 1950 6850
Wire Notes Line
	1950 6850 1950 6900
Wire Notes Line
	1950 6900 1875 6900
Wire Notes Line
	1875 6900 1875 6850
Wire Notes Line
	1875 6850 1925 6850
Wire Notes Line
	1925 6850 1925 6725
Wire Notes Line
	1925 6900 1925 6925
Text GLabel 3200 6725 2    60   Input ~ 0
CC_4
$Comp
L C_Small C10
U 1 1 5BD420D1
P 2925 7275
F 0 "C10" H 2935 7345 50  0000 L CNN
F 1 "1nF" H 2935 7195 50  0000 L CNN
F 2 "Capacitors_THT:C_Disc_D5.0mm_W2.5mm_P2.50mm" H 2925 7275 50  0001 C CNN
F 3 "" H 2925 7275 50  0001 C CNN
	1    2925 7275
	-1   0    0    1   
$EndComp
$Comp
L D_TVS D9
U 1 1 5BD420D7
P 3075 7225
F 0 "D9" H 3075 7325 50  0000 C CNN
F 1 "D_TVS 3.3V" V 2850 7125 50  0000 C CNN
F 2 "Diodes_THT:D_A-405_P2.54mm_Vertical_KathodeUp" H 3075 7225 50  0001 C CNN
F 3 "" H 3075 7225 50  0001 C CNN
	1    3075 7225
	0    1    1    0   
$EndComp
$Comp
L C_Small C6
U 1 1 5BD420DD
P 2500 7275
F 0 "C6" H 2510 7345 50  0000 L CNN
F 1 "1nF" H 2510 7195 50  0000 L CNN
F 2 "Capacitors_THT:C_Disc_D5.0mm_W2.5mm_P2.50mm" H 2500 7275 50  0001 C CNN
F 3 "" H 2500 7275 50  0001 C CNN
	1    2500 7275
	-1   0    0    1   
$EndComp
Text GLabel 3225 6825 2    60   Output ~ 0
A1_4
$Comp
L D_TVS D4
U 1 1 5BD420E4
P 2650 7225
F 0 "D4" H 2650 7325 50  0000 C CNN
F 1 "D_TVS 3.3V" V 2425 7125 50  0000 C CNN
F 2 "Diodes_THT:D_A-405_P2.54mm_Vertical_KathodeUp" H 2650 7225 50  0001 C CNN
F 3 "" H 2650 7225 50  0001 C CNN
	1    2650 7225
	0    1    1    0   
$EndComp
Text GLabel 3225 6925 2    60   Output ~ 0
A2_4
Wire Notes Line
	1925 6725 2100 6725
Wire Notes Line
	1925 6825 2100 6825
Wire Notes Line
	1925 6925 2075 6925
$Comp
L GND #PWR023
U 1 1 5BD420EE
P 2775 7375
F 0 "#PWR023" H 2775 7125 50  0001 C CNN
F 1 "GND" H 2775 7225 50  0000 C CNN
F 2 "" H 2775 7375 50  0001 C CNN
F 3 "" H 2775 7375 50  0001 C CNN
	1    2775 7375
	1    0    0    -1  
$EndComp
Wire Wire Line
	2300 6725 3200 6725
Wire Wire Line
	2300 6825 3225 6825
Wire Wire Line
	3225 6925 2300 6925
Wire Wire Line
	3075 7075 3075 6725
Connection ~ 3075 6725
Wire Wire Line
	2925 7175 2925 6725
Connection ~ 2925 6725
Wire Wire Line
	2650 7075 2650 6825
Connection ~ 2650 6825
Wire Wire Line
	2500 7175 2500 6825
Connection ~ 2500 6825
Wire Wire Line
	2500 7375 3075 7375
Connection ~ 2650 7375
Connection ~ 2925 7375
Connection ~ 2775 7375
Text Notes 3750 4275 0    60   ~ 0
PT100
$Comp
L Screw_Terminal_01x03 J5
U 1 1 5BD425AC
P 4275 4200
F 0 "J5" H 4275 4400 50  0000 C CNN
F 1 "Screw_Terminal_01x03" H 4275 4000 50  0000 C CNN
F 2 "Connectors_Terminal_Blocks:TerminalBlock_Pheonix_MKDS1.5-3pol" H 4275 4200 50  0001 C CNN
F 3 "" H 4275 4200 50  0001 C CNN
	1    4275 4200
	-1   0    0    1   
$EndComp
Wire Notes Line
	4075 4225 4125 4225
Wire Notes Line
	4125 4225 4125 4275
Wire Notes Line
	4125 4275 4050 4275
Wire Notes Line
	4050 4275 4050 4225
Wire Notes Line
	4050 4225 4100 4225
Wire Notes Line
	4100 4225 4100 4100
Wire Notes Line
	4100 4275 4100 4300
Text GLabel 5375 4100 2    60   Input ~ 0
CC_5
$Comp
L C_Small C16
U 1 1 5BD425BA
P 5100 4650
F 0 "C16" H 5110 4720 50  0000 L CNN
F 1 "1nF" H 5110 4570 50  0000 L CNN
F 2 "Capacitors_THT:C_Disc_D5.0mm_W2.5mm_P2.50mm" H 5100 4650 50  0001 C CNN
F 3 "" H 5100 4650 50  0001 C CNN
	1    5100 4650
	-1   0    0    1   
$EndComp
$Comp
L D_TVS D14
U 1 1 5BD425C0
P 5250 4600
F 0 "D14" H 5250 4700 50  0000 C CNN
F 1 "D_TVS 3.3V" V 5025 4500 50  0000 C CNN
F 2 "Diodes_THT:D_A-405_P2.54mm_Vertical_KathodeUp" H 5250 4600 50  0001 C CNN
F 3 "" H 5250 4600 50  0001 C CNN
	1    5250 4600
	0    1    1    0   
$EndComp
$Comp
L C_Small C12
U 1 1 5BD425C6
P 4675 4650
F 0 "C12" H 4685 4720 50  0000 L CNN
F 1 "1nF" H 4685 4570 50  0000 L CNN
F 2 "Capacitors_THT:C_Disc_D5.0mm_W2.5mm_P2.50mm" H 4675 4650 50  0001 C CNN
F 3 "" H 4675 4650 50  0001 C CNN
	1    4675 4650
	-1   0    0    1   
$EndComp
Text GLabel 5400 4200 2    60   Output ~ 0
A1_5
$Comp
L D_TVS D10
U 1 1 5BD425CD
P 4825 4600
F 0 "D10" H 4825 4700 50  0000 C CNN
F 1 "D_TVS 3.3V" V 4600 4500 50  0000 C CNN
F 2 "Diodes_THT:D_A-405_P2.54mm_Vertical_KathodeUp" H 4825 4600 50  0001 C CNN
F 3 "" H 4825 4600 50  0001 C CNN
	1    4825 4600
	0    1    1    0   
$EndComp
Text GLabel 5400 4300 2    60   Output ~ 0
A2_5
Wire Notes Line
	4100 4100 4275 4100
Wire Notes Line
	4100 4200 4275 4200
Wire Notes Line
	4100 4300 4250 4300
$Comp
L GND #PWR024
U 1 1 5BD425D7
P 4950 4750
F 0 "#PWR024" H 4950 4500 50  0001 C CNN
F 1 "GND" H 4950 4600 50  0000 C CNN
F 2 "" H 4950 4750 50  0001 C CNN
F 3 "" H 4950 4750 50  0001 C CNN
	1    4950 4750
	1    0    0    -1  
$EndComp
Wire Wire Line
	4475 4100 5375 4100
Wire Wire Line
	4475 4200 5400 4200
Wire Wire Line
	5400 4300 4475 4300
Wire Wire Line
	5250 4450 5250 4100
Connection ~ 5250 4100
Wire Wire Line
	5100 4550 5100 4100
Connection ~ 5100 4100
Wire Wire Line
	4825 4450 4825 4200
Connection ~ 4825 4200
Wire Wire Line
	4675 4550 4675 4200
Connection ~ 4675 4200
Wire Wire Line
	4675 4750 5250 4750
Connection ~ 4825 4750
Connection ~ 5100 4750
Connection ~ 4950 4750
Text Notes 3750 5125 0    60   ~ 0
PT100
$Comp
L Screw_Terminal_01x03 J6
U 1 1 5BD425ED
P 4275 5050
F 0 "J6" H 4275 5250 50  0000 C CNN
F 1 "Screw_Terminal_01x03" H 4275 4850 50  0000 C CNN
F 2 "Connectors_Terminal_Blocks:TerminalBlock_Pheonix_MKDS1.5-3pol" H 4275 5050 50  0001 C CNN
F 3 "" H 4275 5050 50  0001 C CNN
	1    4275 5050
	-1   0    0    1   
$EndComp
Wire Notes Line
	4075 5075 4125 5075
Wire Notes Line
	4125 5075 4125 5125
Wire Notes Line
	4125 5125 4050 5125
Wire Notes Line
	4050 5125 4050 5075
Wire Notes Line
	4050 5075 4100 5075
Wire Notes Line
	4100 5075 4100 4950
Wire Notes Line
	4100 5125 4100 5150
Text GLabel 5375 4950 2    60   Input ~ 0
CC_6
$Comp
L C_Small C17
U 1 1 5BD425FB
P 5100 5500
F 0 "C17" H 5110 5570 50  0000 L CNN
F 1 "1nF" H 5110 5420 50  0000 L CNN
F 2 "Capacitors_THT:C_Disc_D5.0mm_W2.5mm_P2.50mm" H 5100 5500 50  0001 C CNN
F 3 "" H 5100 5500 50  0001 C CNN
	1    5100 5500
	-1   0    0    1   
$EndComp
$Comp
L D_TVS D15
U 1 1 5BD42601
P 5250 5450
F 0 "D15" H 5250 5550 50  0000 C CNN
F 1 "D_TVS 3.3V" V 5025 5350 50  0000 C CNN
F 2 "Diodes_THT:D_A-405_P2.54mm_Vertical_KathodeUp" H 5250 5450 50  0001 C CNN
F 3 "" H 5250 5450 50  0001 C CNN
	1    5250 5450
	0    1    1    0   
$EndComp
$Comp
L C_Small C13
U 1 1 5BD42607
P 4675 5500
F 0 "C13" H 4685 5570 50  0000 L CNN
F 1 "1nF" H 4685 5420 50  0000 L CNN
F 2 "Capacitors_THT:C_Disc_D5.0mm_W2.5mm_P2.50mm" H 4675 5500 50  0001 C CNN
F 3 "" H 4675 5500 50  0001 C CNN
	1    4675 5500
	-1   0    0    1   
$EndComp
Text GLabel 5400 5050 2    60   Output ~ 0
A1_6
$Comp
L D_TVS D11
U 1 1 5BD4260E
P 4825 5450
F 0 "D11" H 4825 5550 50  0000 C CNN
F 1 "D_TVS 3.3V" V 4600 5350 50  0000 C CNN
F 2 "Diodes_THT:D_A-405_P2.54mm_Vertical_KathodeUp" H 4825 5450 50  0001 C CNN
F 3 "" H 4825 5450 50  0001 C CNN
	1    4825 5450
	0    1    1    0   
$EndComp
Text GLabel 5400 5150 2    60   Output ~ 0
A2_6
Wire Notes Line
	4100 4950 4275 4950
Wire Notes Line
	4100 5050 4275 5050
Wire Notes Line
	4100 5150 4250 5150
$Comp
L GND #PWR025
U 1 1 5BD42618
P 4950 5600
F 0 "#PWR025" H 4950 5350 50  0001 C CNN
F 1 "GND" H 4950 5450 50  0000 C CNN
F 2 "" H 4950 5600 50  0001 C CNN
F 3 "" H 4950 5600 50  0001 C CNN
	1    4950 5600
	1    0    0    -1  
$EndComp
Wire Wire Line
	4475 4950 5375 4950
Wire Wire Line
	4475 5050 5400 5050
Wire Wire Line
	5400 5150 4475 5150
Wire Wire Line
	5250 5300 5250 4950
Connection ~ 5250 4950
Wire Wire Line
	5100 5400 5100 4950
Connection ~ 5100 4950
Wire Wire Line
	4825 5300 4825 5050
Connection ~ 4825 5050
Wire Wire Line
	4675 5400 4675 5050
Connection ~ 4675 5050
Wire Wire Line
	4675 5600 5250 5600
Connection ~ 4825 5600
Connection ~ 5100 5600
Connection ~ 4950 5600
Text Notes 3750 6000 0    60   ~ 0
PT100
$Comp
L Screw_Terminal_01x03 J7
U 1 1 5BD4262E
P 4275 5925
F 0 "J7" H 4275 6125 50  0000 C CNN
F 1 "Screw_Terminal_01x03" H 4275 5725 50  0000 C CNN
F 2 "Connectors_Terminal_Blocks:TerminalBlock_Pheonix_MKDS1.5-3pol" H 4275 5925 50  0001 C CNN
F 3 "" H 4275 5925 50  0001 C CNN
	1    4275 5925
	-1   0    0    1   
$EndComp
Wire Notes Line
	4075 5950 4125 5950
Wire Notes Line
	4125 5950 4125 6000
Wire Notes Line
	4125 6000 4050 6000
Wire Notes Line
	4050 6000 4050 5950
Wire Notes Line
	4050 5950 4100 5950
Wire Notes Line
	4100 5950 4100 5825
Wire Notes Line
	4100 6000 4100 6025
Text GLabel 5375 5825 2    60   Input ~ 0
CC_7
$Comp
L C_Small C18
U 1 1 5BD4263C
P 5100 6375
F 0 "C18" H 5110 6445 50  0000 L CNN
F 1 "1nF" H 5110 6295 50  0000 L CNN
F 2 "Capacitors_THT:C_Disc_D5.0mm_W2.5mm_P2.50mm" H 5100 6375 50  0001 C CNN
F 3 "" H 5100 6375 50  0001 C CNN
	1    5100 6375
	-1   0    0    1   
$EndComp
$Comp
L D_TVS D16
U 1 1 5BD42642
P 5250 6325
F 0 "D16" H 5250 6425 50  0000 C CNN
F 1 "D_TVS 3.3V" V 5025 6225 50  0000 C CNN
F 2 "Diodes_THT:D_A-405_P2.54mm_Vertical_KathodeUp" H 5250 6325 50  0001 C CNN
F 3 "" H 5250 6325 50  0001 C CNN
	1    5250 6325
	0    1    1    0   
$EndComp
$Comp
L C_Small C14
U 1 1 5BD42648
P 4675 6375
F 0 "C14" H 4685 6445 50  0000 L CNN
F 1 "1nF" H 4685 6295 50  0000 L CNN
F 2 "Capacitors_THT:C_Disc_D5.0mm_W2.5mm_P2.50mm" H 4675 6375 50  0001 C CNN
F 3 "" H 4675 6375 50  0001 C CNN
	1    4675 6375
	-1   0    0    1   
$EndComp
Text GLabel 5400 5925 2    60   Output ~ 0
A1_7
$Comp
L D_TVS D12
U 1 1 5BD4264F
P 4825 6325
F 0 "D12" H 4825 6425 50  0000 C CNN
F 1 "D_TVS 3.3V" V 4600 6225 50  0000 C CNN
F 2 "Diodes_THT:D_A-405_P2.54mm_Vertical_KathodeUp" H 4825 6325 50  0001 C CNN
F 3 "" H 4825 6325 50  0001 C CNN
	1    4825 6325
	0    1    1    0   
$EndComp
Text GLabel 5400 6025 2    60   Output ~ 0
A2_7
Wire Notes Line
	4100 5825 4275 5825
Wire Notes Line
	4100 5925 4275 5925
Wire Notes Line
	4100 6025 4250 6025
$Comp
L GND #PWR026
U 1 1 5BD42659
P 4950 6475
F 0 "#PWR026" H 4950 6225 50  0001 C CNN
F 1 "GND" H 4950 6325 50  0000 C CNN
F 2 "" H 4950 6475 50  0001 C CNN
F 3 "" H 4950 6475 50  0001 C CNN
	1    4950 6475
	1    0    0    -1  
$EndComp
Wire Wire Line
	4475 5825 5375 5825
Wire Wire Line
	4475 5925 5400 5925
Wire Wire Line
	5400 6025 4475 6025
Wire Wire Line
	5250 6175 5250 5825
Connection ~ 5250 5825
Wire Wire Line
	5100 6275 5100 5825
Connection ~ 5100 5825
Wire Wire Line
	4825 6175 4825 5925
Connection ~ 4825 5925
Wire Wire Line
	4675 6275 4675 5925
Connection ~ 4675 5925
Wire Wire Line
	4675 6475 5250 6475
Connection ~ 4825 6475
Connection ~ 5100 6475
Connection ~ 4950 6475
Text Notes 3750 6850 0    60   ~ 0
PT100
$Comp
L Screw_Terminal_01x03 J8
U 1 1 5BD4266F
P 4275 6775
F 0 "J8" H 4275 6975 50  0000 C CNN
F 1 "Screw_Terminal_01x03" H 4275 6575 50  0000 C CNN
F 2 "Connectors_Terminal_Blocks:TerminalBlock_Pheonix_MKDS1.5-3pol" H 4275 6775 50  0001 C CNN
F 3 "" H 4275 6775 50  0001 C CNN
	1    4275 6775
	-1   0    0    1   
$EndComp
Wire Notes Line
	4075 6800 4125 6800
Wire Notes Line
	4125 6800 4125 6850
Wire Notes Line
	4125 6850 4050 6850
Wire Notes Line
	4050 6850 4050 6800
Wire Notes Line
	4050 6800 4100 6800
Wire Notes Line
	4100 6800 4100 6675
Wire Notes Line
	4100 6850 4100 6875
Text GLabel 5375 6675 2    60   Input ~ 0
CC_8
$Comp
L C_Small C19
U 1 1 5BD4267D
P 5100 7225
F 0 "C19" H 5110 7295 50  0000 L CNN
F 1 "1nF" H 5110 7145 50  0000 L CNN
F 2 "Capacitors_THT:C_Disc_D5.0mm_W2.5mm_P2.50mm" H 5100 7225 50  0001 C CNN
F 3 "" H 5100 7225 50  0001 C CNN
	1    5100 7225
	-1   0    0    1   
$EndComp
$Comp
L D_TVS D17
U 1 1 5BD42683
P 5250 7175
F 0 "D17" H 5250 7275 50  0000 C CNN
F 1 "D_TVS 3.3V" V 5025 7075 50  0000 C CNN
F 2 "Diodes_THT:D_A-405_P2.54mm_Vertical_KathodeUp" H 5250 7175 50  0001 C CNN
F 3 "" H 5250 7175 50  0001 C CNN
	1    5250 7175
	0    1    1    0   
$EndComp
$Comp
L C_Small C15
U 1 1 5BD42689
P 4675 7225
F 0 "C15" H 4685 7295 50  0000 L CNN
F 1 "1nF" H 4685 7145 50  0000 L CNN
F 2 "Capacitors_THT:C_Disc_D5.0mm_W2.5mm_P2.50mm" H 4675 7225 50  0001 C CNN
F 3 "" H 4675 7225 50  0001 C CNN
	1    4675 7225
	-1   0    0    1   
$EndComp
Text GLabel 5400 6775 2    60   Output ~ 0
A1_8
$Comp
L D_TVS D13
U 1 1 5BD42690
P 4825 7175
F 0 "D13" H 4825 7275 50  0000 C CNN
F 1 "D_TVS 3.3V" V 4600 7075 50  0000 C CNN
F 2 "Diodes_THT:D_A-405_P2.54mm_Vertical_KathodeUp" H 4825 7175 50  0001 C CNN
F 3 "" H 4825 7175 50  0001 C CNN
	1    4825 7175
	0    1    1    0   
$EndComp
Text GLabel 5400 6875 2    60   Output ~ 0
A2_8
Wire Notes Line
	4100 6675 4275 6675
Wire Notes Line
	4100 6775 4275 6775
Wire Notes Line
	4100 6875 4250 6875
$Comp
L GND #PWR027
U 1 1 5BD4269A
P 4950 7325
F 0 "#PWR027" H 4950 7075 50  0001 C CNN
F 1 "GND" H 4950 7175 50  0000 C CNN
F 2 "" H 4950 7325 50  0001 C CNN
F 3 "" H 4950 7325 50  0001 C CNN
	1    4950 7325
	1    0    0    -1  
$EndComp
Wire Wire Line
	4475 6675 5375 6675
Wire Wire Line
	4475 6775 5400 6775
Wire Wire Line
	5400 6875 4475 6875
Wire Wire Line
	5250 7025 5250 6675
Connection ~ 5250 6675
Wire Wire Line
	5100 7125 5100 6675
Connection ~ 5100 6675
Wire Wire Line
	4825 7025 4825 6775
Connection ~ 4825 6775
Wire Wire Line
	4675 7125 4675 6775
Connection ~ 4675 6775
Wire Wire Line
	4675 7325 5250 7325
Connection ~ 4825 7325
Connection ~ 5100 7325
Connection ~ 4950 7325
Text GLabel 1900 9250 0    60   Input ~ 0
A2_1
Text GLabel 1900 9350 0    60   Input ~ 0
A2_2
Text GLabel 1900 9450 0    60   Input ~ 0
A2_3
Text GLabel 1900 9550 0    60   Input ~ 0
A2_4
Text GLabel 1900 9650 0    60   Input ~ 0
A2_5
Text GLabel 1900 9750 0    60   Input ~ 0
A2_6
Text GLabel 1900 9850 0    60   Input ~ 0
A2_7
Text GLabel 1900 9950 0    60   Input ~ 0
A2_8
Wire Wire Line
	1900 9250 2100 9250
Wire Wire Line
	2100 9250 2100 9950
Wire Wire Line
	2100 9950 1900 9950
Wire Wire Line
	1900 9350 2100 9350
Connection ~ 2100 9350
Wire Wire Line
	1900 9450 2100 9450
Connection ~ 2100 9450
Wire Wire Line
	1900 9550 2100 9550
Connection ~ 2100 9550
Wire Wire Line
	1900 9650 2100 9650
Connection ~ 2100 9650
Wire Wire Line
	1900 9750 2100 9750
Connection ~ 2100 9750
Wire Wire Line
	1900 9850 2100 9850
Connection ~ 2100 9850
Wire Wire Line
	2100 9600 3425 9600
Connection ~ 2100 9600
$Comp
L C_Small C2
U 1 1 5BD47BAB
P 2325 9775
F 0 "C2" H 2335 9845 50  0000 L CNN
F 1 "1nF" H 2335 9695 50  0000 L CNN
F 2 "Capacitors_THT:C_Disc_D5.0mm_W2.5mm_P2.50mm" H 2325 9775 50  0001 C CNN
F 3 "" H 2325 9775 50  0001 C CNN
	1    2325 9775
	-1   0    0    1   
$EndComp
$Comp
L D_TVS D5
U 1 1 5BD47EEF
P 2700 9825
F 0 "D5" H 2700 9925 50  0000 C CNN
F 1 "D_TVS 3.3V" H 2775 10025 50  0000 C CNN
F 2 "Diodes_THT:D_A-405_P2.54mm_Vertical_KathodeUp" H 2700 9825 50  0001 C CNN
F 3 "" H 2700 9825 50  0001 C CNN
	1    2700 9825
	0    1    1    0   
$EndComp
$Comp
L GND #PWR028
U 1 1 5BD4817B
P 2475 10000
F 0 "#PWR028" H 2475 9750 50  0001 C CNN
F 1 "GND" H 2475 9850 50  0000 C CNN
F 2 "" H 2475 10000 50  0001 C CNN
F 3 "" H 2475 10000 50  0001 C CNN
	1    2475 10000
	1    0    0    -1  
$EndComp
Wire Wire Line
	2325 9875 2325 10000
Wire Wire Line
	2325 10000 2700 10000
Wire Wire Line
	2700 10000 2700 9975
Connection ~ 2475 10000
Wire Wire Line
	2325 9675 2325 9600
Connection ~ 2325 9600
Wire Wire Line
	2700 9675 2700 9600
Connection ~ 2700 9600
Connection ~ 3100 9600
Text GLabel 950  1250 1    60   Input ~ 0
3.3V_LDO
Connection ~ 4000 1275
Wire Wire Line
	950  1250 950  1350
Text GLabel 4000 1200 1    60   Input ~ 0
3.3V_LDO
Wire Notes Line
	475  450  6375 450 
Wire Notes Line
	6375 450  6375 2550
Wire Notes Line
	6375 2550 475  2550
Wire Notes Line
	475  2550 475  450 
Wire Notes Line
	1450 9125 3700 9125
Wire Notes Line
	3700 9125 3700 10700
Wire Notes Line
	3700 10700 1450 10700
Wire Notes Line
	1450 10700 1450 9125
NoConn ~ 15175 3125
$Comp
L +3.3V #PWR029
U 1 1 5BD5BD93
P 12625 1725
F 0 "#PWR029" H 12625 1575 50  0001 C CNN
F 1 "+3.3V" H 12625 1865 50  0000 C CNN
F 2 "" H 12625 1725 50  0001 C CNN
F 3 "" H 12625 1725 50  0001 C CNN
	1    12625 1725
	1    0    0    -1  
$EndComp
Connection ~ 12725 1725
Wire Wire Line
	15350 1225 15350 1150
Connection ~ 15350 1225
$Comp
L PWR_FLAG #FLG030
U 1 1 5BD5DE75
P 14400 3125
F 0 "#FLG030" H 14400 3200 50  0001 C CNN
F 1 "PWR_FLAG" H 14400 3275 50  0000 C CNN
F 2 "" H 14400 3125 50  0001 C CNN
F 3 "" H 14400 3125 50  0001 C CNN
	1    14400 3125
	-1   0    0    1   
$EndComp
Wire Wire Line
	14300 3125 14675 3125
Connection ~ 14400 3125
$Comp
L PWR_FLAG #FLG031
U 1 1 5BD5F81D
P 11775 1400
F 0 "#FLG031" H 11775 1475 50  0001 C CNN
F 1 "PWR_FLAG" H 11775 1550 50  0000 C CNN
F 2 "" H 11775 1400 50  0001 C CNN
F 3 "" H 11775 1400 50  0001 C CNN
	1    11775 1400
	1    0    0    -1  
$EndComp
Wire Wire Line
	11750 1900 11750 1400
Wire Wire Line
	11750 1400 11775 1400
$Comp
L PWR_FLAG #FLG032
U 1 1 5BD5FF61
P 15350 1150
F 0 "#FLG032" H 15350 1225 50  0001 C CNN
F 1 "PWR_FLAG" H 15350 1300 50  0000 C CNN
F 2 "" H 15350 1150 50  0001 C CNN
F 3 "" H 15350 1150 50  0001 C CNN
	1    15350 1150
	1    0    0    -1  
$EndComp
Text Notes 9475 2150 0    60   ~ 0
1N457 / 1N914 / 1N4148
$EndSCHEMATC
