EESchema Schematic File Version 2
LIBS:power
LIBS:device
LIBS:switches
LIBS:relays
LIBS:motors
LIBS:transistors
LIBS:conn
LIBS:linear
LIBS:regul
LIBS:74xx
LIBS:cmos4000
LIBS:adc-dac
LIBS:memory
LIBS:xilinx
LIBS:microcontrollers
LIBS:dsp
LIBS:microchip
LIBS:analog_switches
LIBS:motorola
LIBS:texas
LIBS:intel
LIBS:audio
LIBS:interface
LIBS:digital-audio
LIBS:philips
LIBS:display
LIBS:cypress
LIBS:siliconi
LIBS:opto
LIBS:atmel
LIBS:contrib
LIBS:valves
LIBS:4N35-TTL-Serial-Optoisolator-cache
LIBS:TOPI_MCP23017_DO_V2-cache
EELAYER 25 0
EELAYER END
$Descr A4 11693 8268
encoding utf-8
Sheet 1 1
Title ""
Date ""
Rev ""
Comp ""
Comment1 ""
Comment2 ""
Comment3 ""
Comment4 ""
$EndDescr
$Comp
L MCP23017 U1
U 1 1 5AEB1B63
P 6050 3500
F 0 "U1" H 5950 4525 50  0000 R CNN
F 1 "MCP23017" H 5950 4450 50  0000 R CNN
F 2 "Housings_DIP:DIP-28_W7.62mm" H 6100 2550 50  0001 L CNN
F 3 "" H 6300 4500 50  0001 C CNN
	1    6050 3500
	1    0    0    -1  
$EndComp
$Comp
L Conn_02x20_Odd_Even J1
U 1 1 5AEB1BD4
P 8525 3175
F 0 "J1" H 8575 4175 50  0000 C CNN
F 1 "Conn_02x20_Odd_Even" H 8575 2075 50  0000 C CNN
F 2 "Pin_Headers:Pin_Header_Angled_2x20_Pitch2.54mm" H 8525 3175 50  0001 C CNN
F 3 "" H 8525 3175 50  0001 C CNN
	1    8525 3175
	1    0    0    -1  
$EndComp
$Comp
L GND #PWR01
U 1 1 5AEB1C99
P 8050 2700
F 0 "#PWR01" H 8050 2450 50  0001 C CNN
F 1 "GND" H 8050 2550 50  0000 C CNN
F 2 "" H 8050 2700 50  0001 C CNN
F 3 "" H 8050 2700 50  0001 C CNN
	1    8050 2700
	1    0    0    -1  
$EndComp
$Comp
L GND #PWR02
U 1 1 5AEB1CD9
P 6050 4650
F 0 "#PWR02" H 6050 4400 50  0001 C CNN
F 1 "GND" H 6050 4500 50  0000 C CNN
F 2 "" H 6050 4650 50  0001 C CNN
F 3 "" H 6050 4650 50  0001 C CNN
	1    6050 4650
	1    0    0    -1  
$EndComp
$Comp
L Jumper_NC_Dual JP1
U 1 1 5AEB246B
P 7475 4075
F 0 "JP1" H 7525 3975 50  0000 L CNN
F 1 "Jumper_NC_Dual" H 7475 4175 50  0000 C BNN
F 2 "Pin_Headers:Pin_Header_Straight_1x03_Pitch2.54mm" H 7475 4075 50  0001 C CNN
F 3 "" H 7475 4075 50  0001 C CNN
	1    7475 4075
	0    1    1    0   
$EndComp
$Comp
L Jumper_NC_Dual JP2
U 1 1 5AEB24F5
P 7475 4700
F 0 "JP2" H 7525 4600 50  0000 L CNN
F 1 "Jumper_NC_Dual" H 7475 4800 50  0000 C BNN
F 2 "Pin_Headers:Pin_Header_Straight_1x03_Pitch2.54mm" H 7475 4700 50  0001 C CNN
F 3 "" H 7475 4700 50  0001 C CNN
	1    7475 4700
	0    1    1    0   
$EndComp
$Comp
L Jumper_NC_Dual JP3
U 1 1 5AEB2567
P 7475 5325
F 0 "JP3" H 7525 5225 50  0000 L CNN
F 1 "Jumper_NC_Dual" H 7475 5425 50  0000 C BNN
F 2 "Pin_Headers:Pin_Header_Straight_1x03_Pitch2.54mm" H 7475 5325 50  0001 C CNN
F 3 "" H 7475 5325 50  0001 C CNN
	1    7475 5325
	0    1    1    0   
$EndComp
$Comp
L GND #PWR03
U 1 1 5AEB26D8
P 8200 4800
F 0 "#PWR03" H 8200 4550 50  0001 C CNN
F 1 "GND" H 8200 4650 50  0000 C CNN
F 2 "" H 8200 4800 50  0001 C CNN
F 3 "" H 8200 4800 50  0001 C CNN
	1    8200 4800
	1    0    0    -1  
$EndComp
Text GLabel 7800 2375 0    60   BiDi ~ 0
SDA_3.3V
Text GLabel 7800 2475 0    60   BiDi ~ 0
SCL_3.3V
Text GLabel 6825 3900 2    60   BiDi ~ 0
SDA_5V
Text GLabel 6825 3800 2    60   BiDi ~ 0
SCL_5V
Text GLabel 7975 3675 1    60   Input ~ 0
5V
$Comp
L ULN2803A U3
U 1 1 5B0415B3
P 2975 1975
F 0 "U3" H 2975 2500 50  0000 C CNN
F 1 "ULN2803A" H 2975 2425 50  0000 C CNN
F 2 "Housings_DIP:DIP-18_W7.62mm_Socket" H 3025 1325 50  0001 L CNN
F 3 "" H 3075 1875 50  0001 C CNN
	1    2975 1975
	-1   0    0    1   
$EndComp
$Comp
L ULN2803A U2
U 1 1 5B0416D5
P 2975 3300
F 0 "U2" H 2975 3825 50  0000 C CNN
F 1 "ULN2803A" H 2975 3750 50  0000 C CNN
F 2 "Housings_DIP:DIP-18_W7.62mm_Socket" H 3025 2650 50  0001 L CNN
F 3 "" H 3075 3200 50  0001 C CNN
	1    2975 3300
	-1   0    0    1   
$EndComp
NoConn ~ 6550 3100
NoConn ~ 6550 3200
$Comp
L C C1
U 1 1 5B070EC0
P 6300 4575
F 0 "C1" H 6325 4675 50  0000 L CNN
F 1 "0.1uF" H 6325 4475 50  0000 L CNN
F 2 "Capacitors_THT:C_Disc_D8.0mm_W5.0mm_P5.00mm" H 6338 4425 50  0001 C CNN
F 3 "" H 6300 4575 50  0001 C CNN
	1    6300 4575
	0    1    1    0   
$EndComp
NoConn ~ 8825 2375
NoConn ~ 8825 2575
NoConn ~ 8825 2675
NoConn ~ 8825 2775
NoConn ~ 8825 2975
NoConn ~ 8825 3075
NoConn ~ 8825 3275
NoConn ~ 8825 3375
NoConn ~ 8825 3475
NoConn ~ 8825 3575
NoConn ~ 8825 3775
NoConn ~ 8825 3975
NoConn ~ 8825 4075
NoConn ~ 8825 4175
NoConn ~ 8325 4075
NoConn ~ 8325 3975
NoConn ~ 8325 3875
NoConn ~ 8325 3775
NoConn ~ 8325 3675
NoConn ~ 8325 3575
NoConn ~ 8325 3375
NoConn ~ 8325 3175
NoConn ~ 8325 3275
NoConn ~ 8325 3075
NoConn ~ 8325 2975
NoConn ~ 8325 2875
NoConn ~ 8325 2775
NoConn ~ 8325 2575
$Comp
L PWR_FLAG #FLG04
U 1 1 5B18B7F7
P 8150 2650
F 0 "#FLG04" H 8150 2725 50  0001 C CNN
F 1 "PWR_FLAG" H 8150 2800 50  0000 C CNN
F 2 "" H 8150 2650 50  0001 C CNN
F 3 "" H 8150 2650 50  0001 C CNN
	1    8150 2650
	1    0    0    -1  
$EndComp
$Comp
L R R1
U 1 1 5BC6C693
P 2000 4475
F 0 "R1" V 2080 4475 50  0000 C CNN
F 1 "680" V 2000 4475 50  0000 C CNN
F 2 "Resistors_THT:R_Axial_DIN0207_L6.3mm_D2.5mm_P2.54mm_Vertical" V 1930 4475 50  0001 C CNN
F 3 "" H 2000 4475 50  0001 C CNN
	1    2000 4475
	0    1    1    0   
$EndComp
$Comp
L Screw_Terminal_01x08 J3
U 1 1 5BC6CA28
P 1875 1975
F 0 "J3" H 1875 2375 50  0000 C CNN
F 1 "Screw_Terminal_01x08" H 1875 1475 50  0000 C CNN
F 2 "Connectors_Terminal_Blocks:TerminalBlock_Pheonix_MKDS1.5-8pol" H 1875 1975 50  0001 C CNN
F 3 "" H 1875 1975 50  0001 C CNN
	1    1875 1975
	-1   0    0    1   
$EndComp
$Comp
L Screw_Terminal_01x08 J2
U 1 1 5BC6CCDE
P 1925 3300
F 0 "J2" H 1925 3700 50  0000 C CNN
F 1 "Screw_Terminal_01x08" H 1925 2800 50  0000 C CNN
F 2 "Connectors_Terminal_Blocks:TerminalBlock_Pheonix_MKDS1.5-8pol" H 1925 3300 50  0001 C CNN
F 3 "" H 1925 3300 50  0001 C CNN
	1    1925 3300
	-1   0    0    1   
$EndComp
$Comp
L Screw_Terminal_01x02 J4
U 1 1 5BC6CEB2
P 675 975
F 0 "J4" H 675 1075 50  0000 C CNN
F 1 "Screw_Terminal_01x02" H 675 775 50  0000 C CNN
F 2 "Connectors_Terminal_Blocks:TerminalBlock_Pheonix_MKDS1.5-2pol" H 675 975 50  0001 C CNN
F 3 "" H 675 975 50  0001 C CNN
	1    675  975 
	-1   0    0    1   
$EndComp
Text GLabel 1975 650  2    60   Output ~ 0
COM
Text GLabel 2375 1475 0    60   Input ~ 0
COM
Text GLabel 2525 2800 0    60   Input ~ 0
COM
Text GLabel 2000 1075 2    60   Input ~ 0
COM_GND
Text GLabel 2875 1200 0    60   Output ~ 0
COM_GND
Text GLabel 3050 2575 2    60   Output ~ 0
COM_GND
Text GLabel 1250 4475 0    60   Input ~ 0
COM_B0
$Comp
L R_Network08 RN1
U 1 1 5BC6F791
P 9075 1200
F 0 "RN1" V 8575 1200 50  0000 C CNN
F 1 "22k" V 9475 1200 50  0000 C CNN
F 2 "Resistors_THT:R_Array_SIP9" V 9550 1200 50  0001 C CNN
F 3 "" H 9075 1200 50  0001 C CNN
	1    9075 1200
	1    0    0    -1  
$EndComp
Text GLabel 8675 925  1    60   Input ~ 0
COM
$Comp
L R_Network08 RN2
U 1 1 5BC6F982
P 10050 1200
F 0 "RN2" V 9550 1200 50  0000 C CNN
F 1 "22k" V 10450 1200 50  0000 C CNN
F 2 "Resistors_THT:R_Array_SIP9" V 10525 1200 50  0001 C CNN
F 3 "" H 10050 1200 50  0001 C CNN
	1    10050 1200
	1    0    0    -1  
$EndComp
Text GLabel 8675 1400 3    60   Output ~ 0
COM_B0
Text GLabel 8775 1400 3    60   Output ~ 0
COM_B1
Text GLabel 8875 1400 3    60   Output ~ 0
COM_B2
Text GLabel 8975 1400 3    60   Output ~ 0
COM_B3
Text GLabel 9075 1400 3    60   Output ~ 0
COM_B4
Text GLabel 9175 1400 3    60   Output ~ 0
COM_B5
Text GLabel 9275 1400 3    60   Output ~ 0
COM_B6
Text GLabel 9375 1400 3    60   Output ~ 0
COM_B7
Text GLabel 9650 1400 3    60   Output ~ 0
COM_A0
Text GLabel 9750 1400 3    60   Output ~ 0
COM_A1
Text GLabel 9850 1400 3    60   Output ~ 0
COM_A2
Text GLabel 9950 1400 3    60   Output ~ 0
COM_A3
Text GLabel 10050 1400 3    60   Output ~ 0
COM_A4
Text GLabel 10150 1400 3    60   Output ~ 0
COM_A5
Text GLabel 10250 1400 3    60   Output ~ 0
COM_A6
Text GLabel 10350 1400 3    60   Output ~ 0
COM_A7
Text GLabel 1250 4275 0    60   Output ~ 0
B_ULN0
Text GLabel 2150 4475 2    60   Input ~ 0
B0
$Comp
L R R2
U 1 1 5BC70A33
P 2000 4925
F 0 "R2" V 2080 4925 50  0000 C CNN
F 1 "680" V 2000 4925 50  0000 C CNN
F 2 "Resistors_THT:R_Axial_DIN0207_L6.3mm_D2.5mm_P2.54mm_Vertical" V 1930 4925 50  0001 C CNN
F 3 "" H 2000 4925 50  0001 C CNN
	1    2000 4925
	0    1    1    0   
$EndComp
Text GLabel 1250 4925 0    60   Input ~ 0
COM_B1
Text GLabel 1250 4725 0    60   Output ~ 0
B_ULN1
Text GLabel 2150 4925 2    60   Input ~ 0
B1
$Comp
L R R3
U 1 1 5BC70F91
P 2000 5400
F 0 "R3" V 2080 5400 50  0000 C CNN
F 1 "680" V 2000 5400 50  0000 C CNN
F 2 "Resistors_THT:R_Axial_DIN0207_L6.3mm_D2.5mm_P2.54mm_Vertical" V 1930 5400 50  0001 C CNN
F 3 "" H 2000 5400 50  0001 C CNN
	1    2000 5400
	0    1    1    0   
$EndComp
Text GLabel 1250 5400 0    60   Input ~ 0
COM_B2
Text GLabel 1250 5200 0    60   Output ~ 0
B_ULN2
Text GLabel 2150 5400 2    60   Input ~ 0
B2
$Comp
L R R4
U 1 1 5BC70FA1
P 2000 5850
F 0 "R4" V 2080 5850 50  0000 C CNN
F 1 "680" V 2000 5850 50  0000 C CNN
F 2 "Resistors_THT:R_Axial_DIN0207_L6.3mm_D2.5mm_P2.54mm_Vertical" V 1930 5850 50  0001 C CNN
F 3 "" H 2000 5850 50  0001 C CNN
	1    2000 5850
	0    1    1    0   
$EndComp
Text GLabel 1250 5850 0    60   Input ~ 0
COM_B3
Text GLabel 1250 5650 0    60   Output ~ 0
B_ULN3
Text GLabel 2150 5850 2    60   Input ~ 0
B3
$Comp
L R R5
U 1 1 5BC71141
P 2000 6275
F 0 "R5" V 2080 6275 50  0000 C CNN
F 1 "680" V 2000 6275 50  0000 C CNN
F 2 "Resistors_THT:R_Axial_DIN0207_L6.3mm_D2.5mm_P2.54mm_Vertical" V 1930 6275 50  0001 C CNN
F 3 "" H 2000 6275 50  0001 C CNN
	1    2000 6275
	0    1    1    0   
$EndComp
Text GLabel 1250 6275 0    60   Input ~ 0
COM_B4
Text GLabel 1250 6075 0    60   Output ~ 0
B_ULN4
Text GLabel 2150 6275 2    60   Input ~ 0
B4
$Comp
L R R6
U 1 1 5BC71151
P 2000 6725
F 0 "R6" V 2080 6725 50  0000 C CNN
F 1 "680" V 2000 6725 50  0000 C CNN
F 2 "Resistors_THT:R_Axial_DIN0207_L6.3mm_D2.5mm_P2.54mm_Vertical" V 1930 6725 50  0001 C CNN
F 3 "" H 2000 6725 50  0001 C CNN
	1    2000 6725
	0    1    1    0   
$EndComp
Text GLabel 1250 6725 0    60   Input ~ 0
COM_B5
Text GLabel 1250 6525 0    60   Output ~ 0
B_ULN5
Text GLabel 2150 6725 2    60   Input ~ 0
B5
$Comp
L R R7
U 1 1 5BC71161
P 2000 7200
F 0 "R7" V 2080 7200 50  0000 C CNN
F 1 "680" V 2000 7200 50  0000 C CNN
F 2 "Resistors_THT:R_Axial_DIN0207_L6.3mm_D2.5mm_P2.54mm_Vertical" V 1930 7200 50  0001 C CNN
F 3 "" H 2000 7200 50  0001 C CNN
	1    2000 7200
	0    1    1    0   
$EndComp
Text GLabel 1250 7200 0    60   Input ~ 0
COM_B6
Text GLabel 1250 7000 0    60   Output ~ 0
B_ULN6
Text GLabel 2150 7200 2    60   Input ~ 0
B6
$Comp
L R R8
U 1 1 5BC71171
P 2000 7650
F 0 "R8" V 2080 7650 50  0000 C CNN
F 1 "680" V 2000 7650 50  0000 C CNN
F 2 "Resistors_THT:R_Axial_DIN0207_L6.3mm_D2.5mm_P2.54mm_Vertical" V 1930 7650 50  0001 C CNN
F 3 "" H 2000 7650 50  0001 C CNN
	1    2000 7650
	0    1    1    0   
$EndComp
Text GLabel 1250 7650 0    60   Input ~ 0
COM_B7
Text GLabel 1250 7450 0    60   Output ~ 0
B_ULN7
Text GLabel 2150 7650 2    60   Input ~ 0
B7
$Comp
L R R9
U 1 1 5BC72534
P 4025 4500
F 0 "R9" V 4105 4500 50  0000 C CNN
F 1 "680" V 4025 4500 50  0000 C CNN
F 2 "Resistors_THT:R_Axial_DIN0207_L6.3mm_D2.5mm_P2.54mm_Vertical" V 3955 4500 50  0001 C CNN
F 3 "" H 4025 4500 50  0001 C CNN
	1    4025 4500
	0    1    1    0   
$EndComp
Text GLabel 3275 4500 0    60   Input ~ 0
COM_A0
Text GLabel 3275 4300 0    60   Output ~ 0
A_ULN0
Text GLabel 4175 4500 2    60   Input ~ 0
A0
$Comp
L R R10
U 1 1 5BC72544
P 4025 4950
F 0 "R10" V 4105 4950 50  0000 C CNN
F 1 "680" V 4025 4950 50  0000 C CNN
F 2 "Resistors_THT:R_Axial_DIN0207_L6.3mm_D2.5mm_P2.54mm_Vertical" V 3955 4950 50  0001 C CNN
F 3 "" H 4025 4950 50  0001 C CNN
	1    4025 4950
	0    1    1    0   
$EndComp
Text GLabel 3275 4950 0    60   Input ~ 0
COM_A1
Text GLabel 3275 4750 0    60   Output ~ 0
A_ULN1
Text GLabel 4175 4950 2    60   Input ~ 0
A1
$Comp
L R R11
U 1 1 5BC72554
P 4025 5425
F 0 "R11" V 4105 5425 50  0000 C CNN
F 1 "680" V 4025 5425 50  0000 C CNN
F 2 "Resistors_THT:R_Axial_DIN0207_L6.3mm_D2.5mm_P2.54mm_Vertical" V 3955 5425 50  0001 C CNN
F 3 "" H 4025 5425 50  0001 C CNN
	1    4025 5425
	0    1    1    0   
$EndComp
Text GLabel 3275 5425 0    60   Input ~ 0
COM_A2
Text GLabel 3275 5225 0    60   Output ~ 0
A_ULN2
Text GLabel 4175 5425 2    60   Input ~ 0
A2
$Comp
L R R12
U 1 1 5BC72564
P 4025 5875
F 0 "R12" V 4105 5875 50  0000 C CNN
F 1 "680" V 4025 5875 50  0000 C CNN
F 2 "Resistors_THT:R_Axial_DIN0207_L6.3mm_D2.5mm_P2.54mm_Vertical" V 3955 5875 50  0001 C CNN
F 3 "" H 4025 5875 50  0001 C CNN
	1    4025 5875
	0    1    1    0   
$EndComp
Text GLabel 3275 5875 0    60   Input ~ 0
COM_A3
Text GLabel 3275 5675 0    60   Output ~ 0
A_ULN3
Text GLabel 4175 5875 2    60   Input ~ 0
A3
$Comp
L R R13
U 1 1 5BC72574
P 4025 6300
F 0 "R13" V 4105 6300 50  0000 C CNN
F 1 "680" V 4025 6300 50  0000 C CNN
F 2 "Resistors_THT:R_Axial_DIN0207_L6.3mm_D2.5mm_P2.54mm_Vertical" V 3955 6300 50  0001 C CNN
F 3 "" H 4025 6300 50  0001 C CNN
	1    4025 6300
	0    1    1    0   
$EndComp
Text GLabel 3275 6300 0    60   Input ~ 0
COM_A4
Text GLabel 3275 6100 0    60   Output ~ 0
A_ULN4
Text GLabel 4175 6300 2    60   Input ~ 0
A4
$Comp
L R R14
U 1 1 5BC72584
P 4025 6750
F 0 "R14" V 4105 6750 50  0000 C CNN
F 1 "680" V 4025 6750 50  0000 C CNN
F 2 "Resistors_THT:R_Axial_DIN0207_L6.3mm_D2.5mm_P2.54mm_Vertical" V 3955 6750 50  0001 C CNN
F 3 "" H 4025 6750 50  0001 C CNN
	1    4025 6750
	0    1    1    0   
$EndComp
Text GLabel 3275 6750 0    60   Input ~ 0
COM_A5
Text GLabel 3275 6550 0    60   Output ~ 0
A_ULN5
Text GLabel 4175 6750 2    60   Input ~ 0
A5
$Comp
L R R15
U 1 1 5BC72594
P 4025 7225
F 0 "R15" V 4105 7225 50  0000 C CNN
F 1 "680" V 4025 7225 50  0000 C CNN
F 2 "Resistors_THT:R_Axial_DIN0207_L6.3mm_D2.5mm_P2.54mm_Vertical" V 3955 7225 50  0001 C CNN
F 3 "" H 4025 7225 50  0001 C CNN
	1    4025 7225
	0    1    1    0   
$EndComp
Text GLabel 3275 7225 0    60   Input ~ 0
COM_A6
Text GLabel 3275 7025 0    60   Output ~ 0
A_ULN6
Text GLabel 4175 7225 2    60   Input ~ 0
A6
$Comp
L R R16
U 1 1 5BC725A4
P 4025 7675
F 0 "R16" V 4105 7675 50  0000 C CNN
F 1 "680" V 4025 7675 50  0000 C CNN
F 2 "Resistors_THT:R_Axial_DIN0207_L6.3mm_D2.5mm_P2.54mm_Vertical" V 3955 7675 50  0001 C CNN
F 3 "" H 4025 7675 50  0001 C CNN
	1    4025 7675
	0    1    1    0   
$EndComp
Text GLabel 3275 7675 0    60   Input ~ 0
COM_A7
Text GLabel 3275 7475 0    60   Output ~ 0
A_ULN7
Text GLabel 4175 7675 2    60   Input ~ 0
A7
Text GLabel 5550 3600 0    60   Output ~ 0
A0
Text GLabel 5550 3700 0    60   Output ~ 0
A1
Text GLabel 5550 3800 0    60   Output ~ 0
A2
Text GLabel 5550 3900 0    60   Output ~ 0
A3
Text GLabel 5550 4000 0    60   Output ~ 0
A4
Text GLabel 5550 4100 0    60   Output ~ 0
A5
Text GLabel 5550 4200 0    60   Output ~ 0
A6
Text GLabel 5550 4300 0    60   Output ~ 0
A7
Text GLabel 5550 2700 0    60   Output ~ 0
B0
Text GLabel 5550 2800 0    60   Output ~ 0
B1
Text GLabel 5550 2900 0    60   Output ~ 0
B2
Text GLabel 5550 3000 0    60   Output ~ 0
B3
Text GLabel 5550 3100 0    60   Output ~ 0
B4
Text GLabel 5550 3200 0    60   Output ~ 0
B5
Text GLabel 5550 3300 0    60   Output ~ 0
B6
Text GLabel 5550 3400 0    60   Output ~ 0
B7
Text GLabel 3450 3600 2    60   Input ~ 0
A_ULN0
Text GLabel 3450 3500 2    60   Input ~ 0
A_ULN1
Text GLabel 3450 3400 2    60   Input ~ 0
A_ULN2
Text GLabel 3450 3300 2    60   Input ~ 0
A_ULN3
Text GLabel 3450 3200 2    60   Input ~ 0
A_ULN4
Text GLabel 3450 3100 2    60   Input ~ 0
A_ULN5
Text GLabel 3450 3000 2    60   Input ~ 0
A_ULN6
Text GLabel 3450 2900 2    60   Input ~ 0
A_ULN7
Text GLabel 3475 2275 2    60   Input ~ 0
B_ULN0
Text GLabel 3475 2175 2    60   Input ~ 0
B_ULN1
Text GLabel 3475 2075 2    60   Input ~ 0
B_ULN2
Text GLabel 3475 1975 2    60   Input ~ 0
B_ULN3
Text GLabel 3475 1875 2    60   Input ~ 0
B_ULN4
Text GLabel 3475 1775 2    60   Input ~ 0
B_ULN5
Text GLabel 3475 1675 2    60   Input ~ 0
B_ULN6
Text GLabel 3475 1575 2    60   Input ~ 0
B_ULN7
Wire Wire Line
	6050 4500 6050 4650
Wire Wire Line
	6550 4100 7375 4100
Wire Wire Line
	7375 4100 7375 4075
Wire Wire Line
	6550 4200 7275 4200
Wire Wire Line
	7275 4200 7275 4700
Wire Wire Line
	7275 4700 7375 4700
Wire Wire Line
	6550 4300 7175 4300
Wire Wire Line
	7175 4300 7175 5325
Wire Wire Line
	7175 5325 7375 5325
Wire Wire Line
	7975 3825 7475 3825
Connection ~ 7975 3825
Wire Wire Line
	7975 5075 7475 5075
Connection ~ 7975 4450
Wire Wire Line
	7475 4325 8200 4325
Wire Wire Line
	8200 4325 8200 4800
Wire Wire Line
	7475 4950 7850 4950
Wire Wire Line
	7850 4950 7850 4650
Wire Wire Line
	7850 4650 8200 4650
Connection ~ 8200 4650
Wire Wire Line
	7475 5575 8050 5575
Wire Wire Line
	8050 5575 8050 4700
Wire Wire Line
	8050 4700 8200 4700
Connection ~ 8200 4700
Wire Wire Line
	6550 3800 6825 3800
Wire Wire Line
	6550 3900 6825 3900
Wire Wire Line
	7975 3675 7975 5075
Wire Wire Line
	7475 4450 7975 4450
Wire Wire Line
	6150 4575 6150 4550
Wire Wire Line
	6150 4550 6050 4550
Connection ~ 6050 4550
Wire Wire Line
	8050 2675 8325 2675
Wire Wire Line
	8050 2675 8050 2700
Wire Wire Line
	8150 2650 8200 2650
Wire Wire Line
	8200 2650 8200 2675
Connection ~ 8200 2675
Wire Wire Line
	2375 1475 2575 1475
Wire Wire Line
	2525 2800 2575 2800
Wire Wire Line
	2975 2600 2975 2575
Wire Wire Line
	2975 2575 3050 2575
Wire Wire Line
	2875 1200 2975 1200
Wire Wire Line
	2975 1200 2975 1275
Wire Wire Line
	8675 925  8675 1000
Wire Wire Line
	8675 950  9650 950 
Wire Wire Line
	9650 950  9650 1000
Connection ~ 8675 950 
Wire Wire Line
	3375 2900 3450 2900
Wire Wire Line
	3375 3000 3450 3000
Wire Wire Line
	3375 3100 3450 3100
Wire Wire Line
	3375 3200 3450 3200
Wire Wire Line
	3375 3300 3450 3300
Wire Wire Line
	3375 3400 3450 3400
Wire Wire Line
	3375 3500 3450 3500
Wire Wire Line
	3375 3600 3450 3600
Wire Wire Line
	3375 1575 3475 1575
Wire Wire Line
	3375 1675 3475 1675
Wire Wire Line
	3375 1775 3475 1775
Wire Wire Line
	3375 1875 3475 1875
Wire Wire Line
	3375 1975 3475 1975
Wire Wire Line
	3375 2075 3475 2075
Wire Wire Line
	3375 2175 3475 2175
Wire Wire Line
	3375 2275 3475 2275
Wire Wire Line
	2125 3600 2575 3600
Wire Wire Line
	2125 3500 2575 3500
Wire Wire Line
	2125 3400 2575 3400
Wire Wire Line
	2125 3300 2575 3300
Wire Wire Line
	2125 3200 2575 3200
Wire Wire Line
	2125 3100 2575 3100
Wire Wire Line
	2125 3000 2575 3000
Wire Wire Line
	2125 2900 2575 2900
Wire Wire Line
	2075 2275 2575 2275
Wire Wire Line
	2075 2175 2575 2175
Wire Wire Line
	2075 2075 2575 2075
Wire Wire Line
	2075 1975 2575 1975
Wire Wire Line
	2075 1875 2575 1875
Wire Wire Line
	2075 1775 2575 1775
Wire Wire Line
	2075 1675 2575 1675
Wire Wire Line
	2075 1575 2575 1575
Wire Wire Line
	7800 2375 8325 2375
Wire Wire Line
	7800 2475 8325 2475
$Comp
L GND #PWR05
U 1 1 5BC7AD04
P 3875 4300
F 0 "#PWR05" H 3875 4050 50  0001 C CNN
F 1 "GND" H 3875 4150 50  0000 C CNN
F 2 "" H 3875 4300 50  0001 C CNN
F 3 "" H 3875 4300 50  0001 C CNN
	1    3875 4300
	-1   0    0    1   
$EndComp
$Comp
L GND #PWR06
U 1 1 5BC7AE4A
P 3875 4750
F 0 "#PWR06" H 3875 4500 50  0001 C CNN
F 1 "GND" H 3875 4600 50  0000 C CNN
F 2 "" H 3875 4750 50  0001 C CNN
F 3 "" H 3875 4750 50  0001 C CNN
	1    3875 4750
	-1   0    0    1   
$EndComp
$Comp
L GND #PWR07
U 1 1 5BC7AF90
P 3875 5225
F 0 "#PWR07" H 3875 4975 50  0001 C CNN
F 1 "GND" H 3875 5075 50  0000 C CNN
F 2 "" H 3875 5225 50  0001 C CNN
F 3 "" H 3875 5225 50  0001 C CNN
	1    3875 5225
	-1   0    0    1   
$EndComp
$Comp
L GND #PWR08
U 1 1 5BC7B04F
P 3875 5675
F 0 "#PWR08" H 3875 5425 50  0001 C CNN
F 1 "GND" H 3875 5525 50  0000 C CNN
F 2 "" H 3875 5675 50  0001 C CNN
F 3 "" H 3875 5675 50  0001 C CNN
	1    3875 5675
	-1   0    0    1   
$EndComp
$Comp
L GND #PWR09
U 1 1 5BC7B0E1
P 3875 6100
F 0 "#PWR09" H 3875 5850 50  0001 C CNN
F 1 "GND" H 3875 5950 50  0000 C CNN
F 2 "" H 3875 6100 50  0001 C CNN
F 3 "" H 3875 6100 50  0001 C CNN
	1    3875 6100
	-1   0    0    1   
$EndComp
$Comp
L GND #PWR010
U 1 1 5BC7B1FA
P 3875 6550
F 0 "#PWR010" H 3875 6300 50  0001 C CNN
F 1 "GND" H 3875 6400 50  0000 C CNN
F 2 "" H 3875 6550 50  0001 C CNN
F 3 "" H 3875 6550 50  0001 C CNN
	1    3875 6550
	-1   0    0    1   
$EndComp
$Comp
L GND #PWR011
U 1 1 5BC7B313
P 3875 7025
F 0 "#PWR011" H 3875 6775 50  0001 C CNN
F 1 "GND" H 3875 6875 50  0000 C CNN
F 2 "" H 3875 7025 50  0001 C CNN
F 3 "" H 3875 7025 50  0001 C CNN
	1    3875 7025
	-1   0    0    1   
$EndComp
$Comp
L GND #PWR012
U 1 1 5BC7B3A5
P 3875 7475
F 0 "#PWR012" H 3875 7225 50  0001 C CNN
F 1 "GND" H 3875 7325 50  0000 C CNN
F 2 "" H 3875 7475 50  0001 C CNN
F 3 "" H 3875 7475 50  0001 C CNN
	1    3875 7475
	-1   0    0    1   
$EndComp
$Comp
L GND #PWR013
U 1 1 5BC7B4BE
P 1850 7450
F 0 "#PWR013" H 1850 7200 50  0001 C CNN
F 1 "GND" H 1850 7300 50  0000 C CNN
F 2 "" H 1850 7450 50  0001 C CNN
F 3 "" H 1850 7450 50  0001 C CNN
	1    1850 7450
	-1   0    0    1   
$EndComp
$Comp
L GND #PWR014
U 1 1 5BC7B631
P 1850 7000
F 0 "#PWR014" H 1850 6750 50  0001 C CNN
F 1 "GND" H 1850 6850 50  0000 C CNN
F 2 "" H 1850 7000 50  0001 C CNN
F 3 "" H 1850 7000 50  0001 C CNN
	1    1850 7000
	-1   0    0    1   
$EndComp
$Comp
L GND #PWR015
U 1 1 5BC7B7A4
P 1850 6525
F 0 "#PWR015" H 1850 6275 50  0001 C CNN
F 1 "GND" H 1850 6375 50  0000 C CNN
F 2 "" H 1850 6525 50  0001 C CNN
F 3 "" H 1850 6525 50  0001 C CNN
	1    1850 6525
	-1   0    0    1   
$EndComp
$Comp
L GND #PWR016
U 1 1 5BC7B836
P 1850 6075
F 0 "#PWR016" H 1850 5825 50  0001 C CNN
F 1 "GND" H 1850 5925 50  0000 C CNN
F 2 "" H 1850 6075 50  0001 C CNN
F 3 "" H 1850 6075 50  0001 C CNN
	1    1850 6075
	-1   0    0    1   
$EndComp
$Comp
L GND #PWR017
U 1 1 5BC7BA5D
P 1850 5650
F 0 "#PWR017" H 1850 5400 50  0001 C CNN
F 1 "GND" H 1850 5500 50  0000 C CNN
F 2 "" H 1850 5650 50  0001 C CNN
F 3 "" H 1850 5650 50  0001 C CNN
	1    1850 5650
	-1   0    0    1   
$EndComp
$Comp
L GND #PWR018
U 1 1 5BC7BB76
P 1850 5200
F 0 "#PWR018" H 1850 4950 50  0001 C CNN
F 1 "GND" H 1850 5050 50  0000 C CNN
F 2 "" H 1850 5200 50  0001 C CNN
F 3 "" H 1850 5200 50  0001 C CNN
	1    1850 5200
	-1   0    0    1   
$EndComp
$Comp
L GND #PWR019
U 1 1 5BC7BD16
P 1850 4725
F 0 "#PWR019" H 1850 4475 50  0001 C CNN
F 1 "GND" H 1850 4575 50  0000 C CNN
F 2 "" H 1850 4725 50  0001 C CNN
F 3 "" H 1850 4725 50  0001 C CNN
	1    1850 4725
	-1   0    0    1   
$EndComp
$Comp
L GND #PWR020
U 1 1 5BC7BEE3
P 1850 4275
F 0 "#PWR020" H 1850 4025 50  0001 C CNN
F 1 "GND" H 1850 4125 50  0000 C CNN
F 2 "" H 1850 4275 50  0001 C CNN
F 3 "" H 1850 4275 50  0001 C CNN
	1    1850 4275
	-1   0    0    1   
$EndComp
Text GLabel 6050 2175 1    60   Input ~ 0
5V
Wire Wire Line
	6050 2175 6050 2500
Wire Wire Line
	6050 2225 6550 2225
Wire Wire Line
	6550 2225 6550 2700
Connection ~ 6050 2225
Text GLabel 6450 4575 2    60   Input ~ 0
5V
$Comp
L PWR_FLAG #FLG021
U 1 1 5BC80F4B
P 1300 1075
F 0 "#FLG021" H 1300 1150 50  0001 C CNN
F 1 "PWR_FLAG" H 1300 1225 50  0000 C CNN
F 2 "" H 1300 1075 50  0001 C CNN
F 3 "" H 1300 1075 50  0001 C CNN
	1    1300 1075
	-1   0    0    1   
$EndComp
$Comp
L PWR_FLAG #FLG022
U 1 1 5BC811CC
P 1750 650
F 0 "#FLG022" H 1750 725 50  0001 C CNN
F 1 "PWR_FLAG" H 1750 800 50  0000 C CNN
F 2 "" H 1750 650 50  0001 C CNN
F 3 "" H 1750 650 50  0001 C CNN
	1    1750 650 
	1    0    0    -1  
$EndComp
$Comp
L D D1
U 1 1 5BC8068B
P 1025 650
F 0 "D1" H 1025 750 50  0000 C CNN
F 1 "IN4007" H 1025 550 50  0000 C CNN
F 2 "Diodes_THT:D_DO-15_P10.16mm_Horizontal" H 1025 650 50  0001 C CNN
F 3 "" H 1025 650 50  0001 C CNN
	1    1025 650 
	-1   0    0    1   
$EndComp
$Comp
L Polyfuse F1
U 1 1 5BC80D15
P 1350 650
F 0 "F1" V 1250 650 50  0000 C CNN
F 1 "0.4A" V 1450 650 50  0000 C CNN
F 2 "Fuse_Holders_and_Fuses:Fuse_TE5_Littlefuse-395Series" H 1400 450 50  0001 L CNN
F 3 "" H 1350 650 50  0001 C CNN
	1    1350 650 
	0    1    1    0   
$EndComp
Wire Wire Line
	875  875  875  650 
Wire Wire Line
	1175 650  1200 650 
Wire Wire Line
	1500 650  1975 650 
Wire Wire Line
	875  975  875  1075
Wire Wire Line
	875  1075 2000 1075
Connection ~ 1750 650 
$Comp
L PC817 U4
U 1 1 5BC9238A
P 1550 4375
F 0 "U4" H 1350 4575 50  0000 L CNN
F 1 "PC817" H 1550 4575 50  0000 L CNN
F 2 "Housings_DIP:DIP-4_W7.62mm" H 1350 4175 50  0001 L CIN
F 3 "" H 1550 4375 50  0001 L CNN
	1    1550 4375
	-1   0    0    1   
$EndComp
$Comp
L PC817 U5
U 1 1 5BC926E0
P 1550 4825
F 0 "U5" H 1350 5025 50  0000 L CNN
F 1 "PC817" H 1550 5025 50  0000 L CNN
F 2 "Housings_DIP:DIP-4_W7.62mm" H 1350 4625 50  0001 L CIN
F 3 "" H 1550 4825 50  0001 L CNN
	1    1550 4825
	-1   0    0    1   
$EndComp
$Comp
L PC817 U6
U 1 1 5BC92836
P 1550 5300
F 0 "U6" H 1350 5500 50  0000 L CNN
F 1 "PC817" H 1550 5500 50  0000 L CNN
F 2 "Housings_DIP:DIP-4_W7.62mm" H 1350 5100 50  0001 L CIN
F 3 "" H 1550 5300 50  0001 L CNN
	1    1550 5300
	-1   0    0    1   
$EndComp
$Comp
L PC817 U7
U 1 1 5BC929B7
P 1550 5750
F 0 "U7" H 1350 5950 50  0000 L CNN
F 1 "PC817" H 1550 5950 50  0000 L CNN
F 2 "Housings_DIP:DIP-4_W7.62mm" H 1350 5550 50  0001 L CIN
F 3 "" H 1550 5750 50  0001 L CNN
	1    1550 5750
	-1   0    0    1   
$EndComp
$Comp
L PC817 U8
U 1 1 5BC92A85
P 1550 6175
F 0 "U8" H 1350 6375 50  0000 L CNN
F 1 "PC817" H 1550 6375 50  0000 L CNN
F 2 "Housings_DIP:DIP-4_W7.62mm" H 1350 5975 50  0001 L CIN
F 3 "" H 1550 6175 50  0001 L CNN
	1    1550 6175
	-1   0    0    1   
$EndComp
$Comp
L PC817 U9
U 1 1 5BC92B26
P 1550 6625
F 0 "U9" H 1350 6825 50  0000 L CNN
F 1 "PC817" H 1550 6825 50  0000 L CNN
F 2 "Housings_DIP:DIP-4_W7.62mm" H 1350 6425 50  0001 L CIN
F 3 "" H 1550 6625 50  0001 L CNN
	1    1550 6625
	-1   0    0    1   
$EndComp
$Comp
L PC817 U10
U 1 1 5BC92CC4
P 1550 7100
F 0 "U10" H 1350 7300 50  0000 L CNN
F 1 "PC817" H 1550 7300 50  0000 L CNN
F 2 "Housings_DIP:DIP-4_W7.62mm" H 1350 6900 50  0001 L CIN
F 3 "" H 1550 7100 50  0001 L CNN
	1    1550 7100
	-1   0    0    1   
$EndComp
$Comp
L PC817 U11
U 1 1 5BC92E1F
P 1550 7550
F 0 "U11" H 1350 7750 50  0000 L CNN
F 1 "PC817" H 1550 7750 50  0000 L CNN
F 2 "Housings_DIP:DIP-4_W7.62mm" H 1350 7350 50  0001 L CIN
F 3 "" H 1550 7550 50  0001 L CNN
	1    1550 7550
	-1   0    0    1   
$EndComp
$Comp
L PC817 U12
U 1 1 5BC92F7D
P 3575 4400
F 0 "U12" H 3375 4600 50  0000 L CNN
F 1 "PC817" H 3575 4600 50  0000 L CNN
F 2 "Housings_DIP:DIP-4_W7.62mm" H 3375 4200 50  0001 L CIN
F 3 "" H 3575 4400 50  0001 L CNN
	1    3575 4400
	-1   0    0    1   
$EndComp
$Comp
L PC817 U13
U 1 1 5BC9331F
P 3575 4850
F 0 "U13" H 3375 5050 50  0000 L CNN
F 1 "PC817" H 3575 5050 50  0000 L CNN
F 2 "Housings_DIP:DIP-4_W7.62mm" H 3375 4650 50  0001 L CIN
F 3 "" H 3575 4850 50  0001 L CNN
	1    3575 4850
	-1   0    0    1   
$EndComp
$Comp
L PC817 U14
U 1 1 5BC934B5
P 3575 5325
F 0 "U14" H 3375 5525 50  0000 L CNN
F 1 "PC817" H 3575 5525 50  0000 L CNN
F 2 "Housings_DIP:DIP-4_W7.62mm" H 3375 5125 50  0001 L CIN
F 3 "" H 3575 5325 50  0001 L CNN
	1    3575 5325
	-1   0    0    1   
$EndComp
$Comp
L PC817 U15
U 1 1 5BC93636
P 3575 5775
F 0 "U15" H 3375 5975 50  0000 L CNN
F 1 "PC817" H 3575 5975 50  0000 L CNN
F 2 "Housings_DIP:DIP-4_W7.62mm" H 3375 5575 50  0001 L CIN
F 3 "" H 3575 5775 50  0001 L CNN
	1    3575 5775
	-1   0    0    1   
$EndComp
$Comp
L PC817 U16
U 1 1 5BC937F4
P 3575 6200
F 0 "U16" H 3375 6400 50  0000 L CNN
F 1 "PC817" H 3575 6400 50  0000 L CNN
F 2 "Housings_DIP:DIP-4_W7.62mm" H 3375 6000 50  0001 L CIN
F 3 "" H 3575 6200 50  0001 L CNN
	1    3575 6200
	-1   0    0    1   
$EndComp
$Comp
L PC817 U17
U 1 1 5BC9396D
P 3575 6650
F 0 "U17" H 3375 6850 50  0000 L CNN
F 1 "PC817" H 3575 6850 50  0000 L CNN
F 2 "Housings_DIP:DIP-4_W7.62mm" H 3375 6450 50  0001 L CIN
F 3 "" H 3575 6650 50  0001 L CNN
	1    3575 6650
	-1   0    0    1   
$EndComp
$Comp
L PC817 U18
U 1 1 5BC93A8F
P 3575 7125
F 0 "U18" H 3375 7325 50  0000 L CNN
F 1 "PC817" H 3575 7325 50  0000 L CNN
F 2 "Housings_DIP:DIP-4_W7.62mm" H 3375 6925 50  0001 L CIN
F 3 "" H 3575 7125 50  0001 L CNN
	1    3575 7125
	-1   0    0    1   
$EndComp
$Comp
L PC817 U19
U 1 1 5BC93C12
P 3575 7575
F 0 "U19" H 3375 7775 50  0000 L CNN
F 1 "PC817" H 3575 7775 50  0000 L CNN
F 2 "Housings_DIP:DIP-4_W7.62mm" H 3375 7375 50  0001 L CIN
F 3 "" H 3575 7575 50  0001 L CNN
	1    3575 7575
	-1   0    0    1   
$EndComp
Text GLabel 8325 2100 1    60   Output ~ 0
3.3V
Wire Wire Line
	8325 2100 8325 2275
$Comp
L PWR_FLAG #FLG023
U 1 1 5BCFF449
P 8075 2250
F 0 "#FLG023" H 8075 2325 50  0001 C CNN
F 1 "PWR_FLAG" H 8075 2400 50  0000 C CNN
F 2 "" H 8075 2250 50  0001 C CNN
F 3 "" H 8075 2250 50  0001 C CNN
	1    8075 2250
	1    0    0    -1  
$EndComp
Wire Wire Line
	8075 2250 8325 2250
Connection ~ 8325 2250
Wire Wire Line
	1575 725  1575 650 
Connection ~ 1575 650 
Wire Wire Line
	1575 1075 1575 1025
Connection ~ 1575 1075
Connection ~ 1300 1075
$Comp
L GND #PWR024
U 1 1 5BD03F45
P 8325 4175
F 0 "#PWR024" H 8325 3925 50  0001 C CNN
F 1 "GND" H 8325 4025 50  0000 C CNN
F 2 "" H 8325 4175 50  0001 C CNN
F 3 "" H 8325 4175 50  0001 C CNN
	1    8325 4175
	0    1    1    0   
$EndComp
$Comp
L GND #PWR025
U 1 1 5BD040A0
P 8325 3475
F 0 "#PWR025" H 8325 3225 50  0001 C CNN
F 1 "GND" H 8325 3325 50  0000 C CNN
F 2 "" H 8325 3475 50  0001 C CNN
F 3 "" H 8325 3475 50  0001 C CNN
	1    8325 3475
	0    1    1    0   
$EndComp
NoConn ~ 8825 2475
NoConn ~ 8825 2875
NoConn ~ 8825 3175
NoConn ~ 8825 3675
NoConn ~ 8825 3875
$Comp
L D_TVS D2
U 1 1 5BD053CA
P 1575 875
F 0 "D2" H 1575 975 50  0000 C CNN
F 1 "24V TVS SMAJ22A" H 1575 775 50  0000 C CNN
F 2 "Diodes_THT:D_DO-15_P10.16mm_Horizontal" H 1575 875 50  0001 C CNN
F 3 "" H 1575 875 50  0001 C CNN
	1    1575 875 
	0    1    1    0   
$EndComp
$Comp
L 2N7000 Q2
U 1 1 5BD07B5D
P 9425 5200
F 0 "Q2" H 9625 5275 50  0000 L CNN
F 1 "2N7000" H 9625 5200 50  0000 L CNN
F 2 "TO_SOT_Packages_THT:TO-92_Molded_Narrow" H 9625 5125 50  0001 L CIN
F 3 "" H 9425 5200 50  0001 L CNN
	1    9425 5200
	0    1    1    0   
$EndComp
$Comp
L R R18
U 1 1 5BD081DB
P 9050 5025
F 0 "R18" V 9130 5025 50  0000 C CNN
F 1 "10k" V 9050 5025 50  0000 C CNN
F 2 "Resistors_THT:R_Axial_DIN0207_L6.3mm_D2.5mm_P2.54mm_Vertical" V 8980 5025 50  0001 C CNN
F 3 "" H 9050 5025 50  0001 C CNN
	1    9050 5025
	1    0    0    -1  
$EndComp
$Comp
L R R19
U 1 1 5BD086A1
P 9800 5025
F 0 "R19" V 9880 5025 50  0000 C CNN
F 1 "10k" V 9800 5025 50  0000 C CNN
F 2 "Resistors_THT:R_Axial_DIN0207_L6.3mm_D2.5mm_P2.54mm_Vertical" V 9730 5025 50  0001 C CNN
F 3 "" H 9800 5025 50  0001 C CNN
	1    9800 5025
	1    0    0    -1  
$EndComp
Wire Wire Line
	9050 5175 9050 5300
Wire Wire Line
	8775 5300 9225 5300
Wire Wire Line
	9625 5300 10125 5300
Wire Wire Line
	9800 5300 9800 5175
Wire Wire Line
	8875 4875 9425 4875
Wire Wire Line
	9425 4875 9425 5000
Text GLabel 9050 4750 1    60   Input ~ 0
3.3V
Wire Wire Line
	9050 4750 9050 4875
Text GLabel 9800 4725 1    60   Input ~ 0
5V
Wire Wire Line
	9800 4725 9800 4875
Text GLabel 8775 5300 0    60   BiDi ~ 0
SCL_3.3V
Connection ~ 9050 5300
Text GLabel 10125 5300 2    60   BiDi ~ 0
SCL_5V
Connection ~ 9800 5300
$Comp
L 2N7000 Q1
U 1 1 5BD0951A
P 9300 5750
F 0 "Q1" H 9500 5825 50  0000 L CNN
F 1 "2N7000" H 9500 5750 50  0000 L CNN
F 2 "TO_SOT_Packages_THT:TO-92_Molded_Narrow" H 9500 5675 50  0001 L CIN
F 3 "" H 9300 5750 50  0001 L CNN
	1    9300 5750
	0    1    1    0   
$EndComp
$Comp
L R R17
U 1 1 5BD09602
P 8875 5025
F 0 "R17" V 8955 5025 50  0000 C CNN
F 1 "10k" V 8875 5025 50  0000 C CNN
F 2 "Resistors_THT:R_Axial_DIN0207_L6.3mm_D2.5mm_P2.54mm_Vertical" V 8805 5025 50  0001 C CNN
F 3 "" H 8875 5025 50  0001 C CNN
	1    8875 5025
	1    0    0    -1  
$EndComp
Wire Wire Line
	9225 4875 9225 5550
Wire Wire Line
	9225 5550 9300 5550
Connection ~ 9225 4875
Connection ~ 9050 4875
Wire Wire Line
	8875 5175 8875 5850
Wire Wire Line
	8775 5850 9100 5850
$Comp
L R R20
U 1 1 5BD09C88
P 10000 5025
F 0 "R20" V 10080 5025 50  0000 C CNN
F 1 "10k" V 10000 5025 50  0000 C CNN
F 2 "Resistors_THT:R_Axial_DIN0207_L6.3mm_D2.5mm_P2.54mm_Vertical" V 9930 5025 50  0001 C CNN
F 3 "" H 10000 5025 50  0001 C CNN
	1    10000 5025
	1    0    0    -1  
$EndComp
Wire Wire Line
	9800 4850 10000 4850
Wire Wire Line
	10000 4850 10000 4875
Connection ~ 9800 4850
Wire Wire Line
	10000 5175 10000 5850
Wire Wire Line
	9500 5850 10125 5850
Text GLabel 8775 5850 0    60   BiDi ~ 0
SDA_3.3V
Connection ~ 8875 5850
Text GLabel 10125 5850 2    60   BiDi ~ 0
SDA_5V
Connection ~ 10000 5850
Text GLabel 8950 2075 1    60   Output ~ 0
5V
Wire Wire Line
	8825 2275 9250 2275
Wire Wire Line
	8950 2275 8950 2075
$Comp
L PWR_FLAG #FLG026
U 1 1 5BD0AD3B
P 9250 2250
F 0 "#FLG026" H 9250 2325 50  0001 C CNN
F 1 "PWR_FLAG" H 9250 2400 50  0000 C CNN
F 2 "" H 9250 2250 50  0001 C CNN
F 3 "" H 9250 2250 50  0001 C CNN
	1    9250 2250
	1    0    0    -1  
$EndComp
Wire Wire Line
	9250 2275 9250 2250
Connection ~ 8950 2275
$EndSCHEMATC
