EESchema Schematic File Version 2
LIBS:power
LIBS:device
LIBS:switches
LIBS:relays
LIBS:motors
LIBS:transistors
LIBS:conn
LIBS:linear
LIBS:regul
LIBS:74xx
LIBS:cmos4000
LIBS:adc-dac
LIBS:memory
LIBS:xilinx
LIBS:microcontrollers
LIBS:dsp
LIBS:microchip
LIBS:analog_switches
LIBS:motorola
LIBS:texas
LIBS:intel
LIBS:audio
LIBS:interface
LIBS:digital-audio
LIBS:philips
LIBS:display
LIBS:cypress
LIBS:siliconi
LIBS:opto
LIBS:atmel
LIBS:contrib
LIBS:valves
LIBS:TOPI_MCP23017_DI_V2-cache
EELAYER 25 0
EELAYER END
$Descr A4 11693 8268
encoding utf-8
Sheet 1 1
Title ""
Date ""
Rev ""
Comp ""
Comment1 ""
Comment2 ""
Comment3 ""
Comment4 ""
$EndDescr
$Comp
L MCP23017 U17
U 1 1 5AEB1B63
P 7375 4300
F 0 "U17" H 7275 5325 50  0000 R CNN
F 1 "MCP23017" H 7275 5250 50  0000 R CNN
F 2 "Housings_DIP:DIP-28_W7.62mm" H 7425 3350 50  0001 L CNN
F 3 "" H 7625 5300 50  0001 C CNN
	1    7375 4300
	1    0    0    -1  
$EndComp
$Comp
L Conn_02x20_Odd_Even J20
U 1 1 5AEB1BD4
P 9875 3300
F 0 "J20" H 9925 4300 50  0000 C CNN
F 1 "Conn_02x20_Odd_Even" H 9925 2200 50  0000 C CNN
F 2 "Pin_Headers:Pin_Header_Angled_2x20_Pitch2.54mm" H 9875 3300 50  0001 C CNN
F 3 "" H 9875 3300 50  0001 C CNN
	1    9875 3300
	1    0    0    -1  
$EndComp
$Comp
L GND #PWR01
U 1 1 5AEB1C99
P 9425 2750
F 0 "#PWR01" H 9425 2500 50  0001 C CNN
F 1 "GND" H 9425 2600 50  0000 C CNN
F 2 "" H 9425 2750 50  0001 C CNN
F 3 "" H 9425 2750 50  0001 C CNN
	1    9425 2750
	1    0    0    -1  
$EndComp
$Comp
L GND #PWR02
U 1 1 5AEB1CD9
P 7375 5450
F 0 "#PWR02" H 7375 5200 50  0001 C CNN
F 1 "GND" H 7375 5300 50  0000 C CNN
F 2 "" H 7375 5450 50  0001 C CNN
F 3 "" H 7375 5450 50  0001 C CNN
	1    7375 5450
	1    0    0    -1  
$EndComp
$Comp
L Jumper_NC_Dual JP1
U 1 1 5AEB246B
P 6200 6450
F 0 "JP1" H 6250 6350 50  0000 L CNN
F 1 "Jumper_NC_Dual" H 6200 6550 50  0000 C BNN
F 2 "Pin_Headers:Pin_Header_Straight_1x03_Pitch2.54mm" H 6200 6450 50  0001 C CNN
F 3 "" H 6200 6450 50  0001 C CNN
	1    6200 6450
	-1   0    0    1   
$EndComp
$Comp
L Jumper_NC_Dual JP2
U 1 1 5AEB24F5
P 6200 6750
F 0 "JP2" H 6250 6650 50  0000 L CNN
F 1 "Jumper_NC_Dual" H 6200 6850 50  0000 C BNN
F 2 "Pin_Headers:Pin_Header_Straight_1x03_Pitch2.54mm" H 6200 6750 50  0001 C CNN
F 3 "" H 6200 6750 50  0001 C CNN
	1    6200 6750
	-1   0    0    1   
$EndComp
$Comp
L Jumper_NC_Dual JP3
U 1 1 5AEB2567
P 6200 7050
F 0 "JP3" H 6250 6950 50  0000 L CNN
F 1 "Jumper_NC_Dual" H 6200 7150 50  0000 C BNN
F 2 "Pin_Headers:Pin_Header_Straight_1x03_Pitch2.54mm" H 6200 7050 50  0001 C CNN
F 3 "" H 6200 7050 50  0001 C CNN
	1    6200 7050
	-1   0    0    1   
$EndComp
$Comp
L GND #PWR03
U 1 1 5AEB26D8
P 5950 7225
F 0 "#PWR03" H 5950 6975 50  0001 C CNN
F 1 "GND" H 5950 7075 50  0000 C CNN
F 2 "" H 5950 7225 50  0001 C CNN
F 3 "" H 5950 7225 50  0001 C CNN
	1    5950 7225
	1    0    0    -1  
$EndComp
Text GLabel 9425 2500 0    60   BiDi ~ 0
SDA_3.3V
Text GLabel 9425 2600 0    60   BiDi ~ 0
SCL_3.3V
Text GLabel 7375 3200 1    60   Input ~ 0
5v
Text GLabel 10575 2150 1    60   Output ~ 0
5v
Text GLabel 8150 4700 2    60   BiDi ~ 0
SDA_5V
Text GLabel 8150 4600 2    60   BiDi ~ 0
SCL_5V
Text GLabel 6450 6250 1    60   Input ~ 0
5v
$Comp
L R_Network08 RN4
U 1 1 5B06936E
P 7225 975
F 0 "RN4" V 6725 975 50  0000 C CNN
F 1 "6.2k" V 7625 975 50  0000 C CNN
F 2 "Resistors_THT:R_Array_SIP9" V 7700 975 50  0001 C CNN
F 3 "" H 7225 975 50  0001 C CNN
	1    7225 975 
	1    0    0    -1  
$EndComp
Text GLabel 9700 5100 0    60   Input ~ 0
INT_3.3V
$Comp
L C C17
U 1 1 5B079817
P 8025 3525
F 0 "C17" H 8050 3625 50  0000 L CNN
F 1 "0.1uF" H 8050 3425 50  0000 L CNN
F 2 "Capacitors_THT:C_Disc_D5.0mm_W2.5mm_P2.50mm" H 8063 3375 50  0001 C CNN
F 3 "" H 8025 3525 50  0001 C CNN
	1    8025 3525
	1    0    0    -1  
$EndComp
$Comp
L GND #PWR04
U 1 1 5B079C9F
P 8025 3675
F 0 "#PWR04" H 8025 3425 50  0001 C CNN
F 1 "GND" H 8025 3525 50  0000 C CNN
F 2 "" H 8025 3675 50  0001 C CNN
F 3 "" H 8025 3675 50  0001 C CNN
	1    8025 3675
	1    0    0    -1  
$EndComp
NoConn ~ 10175 2500
NoConn ~ 10175 2700
NoConn ~ 10175 2800
NoConn ~ 10175 2900
NoConn ~ 10175 3100
NoConn ~ 10175 3500
NoConn ~ 10175 3600
NoConn ~ 10175 3700
NoConn ~ 10175 3900
NoConn ~ 10175 4200
NoConn ~ 10175 4300
NoConn ~ 9675 4100
NoConn ~ 9675 4000
NoConn ~ 9675 3900
NoConn ~ 9675 3800
NoConn ~ 9675 3700
NoConn ~ 9675 3500
NoConn ~ 9675 3400
NoConn ~ 9675 3300
NoConn ~ 9675 3200
NoConn ~ 9675 3100
NoConn ~ 9675 3000
NoConn ~ 9675 2900
NoConn ~ 9675 2700
$Comp
L PWR_FLAG #FLG05
U 1 1 5B19E2F0
P 10800 2350
F 0 "#FLG05" H 10800 2425 50  0001 C CNN
F 1 "PWR_FLAG" H 10800 2500 50  0000 C CNN
F 2 "" H 10800 2350 50  0001 C CNN
F 3 "" H 10800 2350 50  0001 C CNN
	1    10800 2350
	1    0    0    -1  
$EndComp
$Comp
L PWR_FLAG #FLG06
U 1 1 5B19E798
P 9275 3075
F 0 "#FLG06" H 9275 3150 50  0001 C CNN
F 1 "PWR_FLAG" H 9275 3225 50  0000 C CNN
F 2 "" H 9275 3075 50  0001 C CNN
F 3 "" H 9275 3075 50  0001 C CNN
	1    9275 3075
	1    0    0    -1  
$EndComp
$Comp
L PC817 U1
U 1 1 5BC89FF0
P 2175 975
F 0 "U1" H 1975 1175 50  0000 L CNN
F 1 "PC817" H 2175 1175 50  0000 L CNN
F 2 "Housings_DIP:DIP-4_W7.62mm" H 1975 775 50  0001 L CIN
F 3 "" H 2175 975 50  0001 L CNN
	1    2175 975 
	1    0    0    -1  
$EndComp
Text GLabel 4375 775  2    60   Output ~ 0
24V
Text GLabel 6825 725  1    60   Input ~ 0
5v
$Comp
L GND #PWR07
U 1 1 5BCAC492
P 2475 1075
F 0 "#PWR07" H 2475 825 50  0001 C CNN
F 1 "GND" H 2475 925 50  0000 C CNN
F 2 "" H 2475 1075 50  0001 C CNN
F 3 "" H 2475 1075 50  0001 C CNN
	1    2475 1075
	1    0    0    -1  
$EndComp
$Comp
L Screw_Terminal_01x08 J19
U 1 1 5BCB094A
P 9450 1275
F 0 "J19" H 9450 1675 50  0000 C CNN
F 1 "Screw_Terminal_01x08" H 9450 775 50  0000 C CNN
F 2 "Connectors_Terminal_Blocks:TerminalBlock_Pheonix_MKDS1.5-8pol" H 9450 1275 50  0001 C CNN
F 3 "" H 9450 1275 50  0001 C CNN
	1    9450 1275
	-1   0    0    1   
$EndComp
Text GLabel 6825 1175 3    60   Output ~ 0
PU_B0
Text GLabel 6925 1175 3    60   Output ~ 0
PU_B1
Text GLabel 7025 1175 3    60   Output ~ 0
PU_B2
Text GLabel 7125 1175 3    60   Output ~ 0
PU_B3
Text GLabel 7225 1175 3    60   Output ~ 0
PU_B4
Text GLabel 7325 1175 3    60   Output ~ 0
PU_B5
Text GLabel 7425 1175 3    60   Output ~ 0
PU_B6
Text GLabel 7525 1175 3    60   Output ~ 0
PU_B7
Text GLabel 2475 875  2    60   Input ~ 0
PU_B0
Text Notes -2025 400  0    60   Italic 0
Cal:\nInput to Opto=24V\nPC817 CTR@ 5mA = 80=120%. \nAlso forward IRED drop=1.2V\nSo: (24-1.2)/5mA =4.5K input resistor.\n\nOutput:\nPullup resistor=0V if PC817 ON.\nAt CTR=80%, max I from transistor =4mA.\nTherefore: Pullup R=5V/4mA=1.2 k 
$Comp
L Screw_Terminal_01x02 J17
U 1 1 5BCC811B
P 3850 775
F 0 "J17" H 3850 875 50  0000 C CNN
F 1 "Screw_Terminal_01x02" H 3850 575 50  0000 C CNN
F 2 "Connectors_Terminal_Blocks:TerminalBlock_Pheonix_MKDS1.5-2pol" H 3850 775 50  0001 C CNN
F 3 "" H 3850 775 50  0001 C CNN
	1    3850 775 
	-1   0    0    1   
$EndComp
Text GLabel 4350 675  2    60   Input ~ 0
24V_GND
Text Notes 3100 -200 0    60   ~ 0
https://www.digikey.in/en/articles/techzone/2012/apr/protecting-inputs-in-digital-electronics
Wire Wire Line
	7375 5300 7375 5450
Wire Wire Line
	7875 4600 8150 4600
Wire Wire Line
	7875 4700 8150 4700
Wire Wire Line
	10575 2400 10175 2400
Wire Wire Line
	10575 2150 10575 2400
Wire Wire Line
	6825 725  6825 775 
Wire Wire Line
	9425 2750 9625 2750
Wire Wire Line
	9625 2750 9625 2800
Wire Wire Line
	9625 2800 9675 2800
Wire Wire Line
	10575 2350 10800 2350
Connection ~ 10575 2350
Wire Wire Line
	9575 2750 9575 3075
Wire Wire Line
	9575 3075 9275 3075
Connection ~ 9575 2750
Wire Wire Line
	7375 3200 7375 3300
Wire Wire Line
	7375 3300 7875 3300
Wire Wire Line
	7875 3300 7875 3500
Wire Wire Line
	7875 3350 8025 3350
Wire Wire Line
	8025 3350 8025 3375
Connection ~ 7875 3350
Text Notes -2000 -675 0    60   ~ 0
No need of Zener protection as Optos are \ntough enough for ESD and spikes (see ref).\nHowever, reverse diode is a must.\n(ref: https://electronics.stackexchange.com/questions/293715/common-anode-optocouplers-protection)
$Comp
L Conn_02x03_Odd_Even J1
U 1 1 5BCD8BCA
P 1025 875
F 0 "J1" H 1075 1075 50  0000 C CNN
F 1 "Conn_02x03_Odd_Even" H 1075 675 50  0000 C CNN
F 2 "Pin_Headers:Pin_Header_Straight_2x03_Pitch2.54mm" H 1025 875 50  0001 C CNN
F 3 "" H 1025 875 50  0001 C CNN
	1    1025 875 
	1    0    0    -1  
$EndComp
$Comp
L R_Network08 RN1
U 1 1 5BCD8D57
P 5975 975
F 0 "RN1" V 5475 975 50  0000 C CNN
F 1 "4.5k" V 6375 975 50  0000 C CNN
F 2 "Resistors_THT:R_Array_SIP9" V 6450 975 50  0001 C CNN
F 3 "" H 5975 975 50  0001 C CNN
	1    5975 975 
	1    0    0    -1  
$EndComp
Text GLabel 5575 775  1    60   Input ~ 0
24V
$Comp
L D_ALT D1
U 1 1 5BCDCD19
P 1575 1025
F 0 "D1" H 1575 1125 50  0000 C CNN
F 1 "IN4001" H 1575 925 50  0000 C CNN
F 2 "Diodes_THT:D_A-405_P2.54mm_Vertical_KathodeUp" H 1575 1025 50  0001 C CNN
F 3 "" H 1575 1025 50  0001 C CNN
	1    1575 1025
	0    1    1    0   
$EndComp
$Comp
L C C1
U 1 1 5BCDD405
P 1750 1025
F 0 "C1" H 1775 1125 50  0000 L CNN
F 1 "1nF" H 1775 925 50  0000 L CNN
F 2 "Capacitors_THT:C_Disc_D5.0mm_W2.5mm_P2.50mm" H 1788 875 50  0001 C CNN
F 3 "" H 1750 1025 50  0001 C CNN
	1    1750 1025
	-1   0    0    1   
$EndComp
Wire Wire Line
	1325 875  1875 875 
Connection ~ 1750 875 
Wire Wire Line
	1575 1175 1875 1175
Wire Wire Line
	1875 1175 1875 1075
Connection ~ 1750 1175
$Comp
L R R1
U 1 1 5BCDE0FD
P 1075 1200
F 0 "R1" V 1155 1200 50  0000 C CNN
F 1 "4.5k" V 1075 1200 50  0000 C CNN
F 2 "Resistors_THT:R_Axial_DIN0207_L6.3mm_D2.5mm_P2.54mm_Vertical" V 1005 1200 50  0001 C CNN
F 3 "" H 1075 1200 50  0001 C CNN
	1    1075 1200
	0    1    1    0   
$EndComp
Wire Wire Line
	1325 975  1325 1200
Wire Wire Line
	1325 1200 1225 1200
Connection ~ 1575 875 
Text GLabel 5575 1175 3    60   Output ~ 0
OCB_B0
Wire Wire Line
	825  975  825  1200
Wire Wire Line
	825  1200 925  1200
Text GLabel 5675 1175 3    60   Output ~ 0
OCB_B1
Text GLabel 5775 1175 3    60   Output ~ 0
OCB_B2
Text GLabel 5875 1175 3    60   Output ~ 0
OCB_B3
Text GLabel 5975 1175 3    60   Output ~ 0
OCB_B4
Text GLabel 6075 1175 3    60   Output ~ 0
OCB_B5
Text GLabel 6175 1175 3    60   Output ~ 0
OCB_B6
Text GLabel 6275 1175 3    60   Output ~ 0
OCB_B7
Text GLabel 1350 650  2    60   Input ~ 0
OCB_B0
Wire Wire Line
	825  775  825  650 
Wire Wire Line
	825  650  1350 650 
Wire Wire Line
	1325 775  1325 650 
Connection ~ 1325 650 
Text GLabel 1700 1275 0    60   Output ~ 0
24V_GND
Wire Wire Line
	1700 1275 1750 1275
Wire Wire Line
	1750 1275 1750 1175
Text GLabel 825  875  0    60   Input ~ 0
DI_B0
Text GLabel 9650 1575 2    60   BiDi ~ 0
DI_B0
Text GLabel 9650 1475 2    60   BiDi ~ 0
DI_B1
Text GLabel 9650 1375 2    60   BiDi ~ 0
DI_B2
Text GLabel 9650 1275 2    60   BiDi ~ 0
DI_B3
Text GLabel 9650 1175 2    60   BiDi ~ 0
DI_B4
Text GLabel 9650 1075 2    60   BiDi ~ 0
DI_B5
Text GLabel 9650 975  2    60   BiDi ~ 0
DI_B6
Text GLabel 9650 875  2    60   BiDi ~ 0
DI_B7
$Comp
L PC817 U2
U 1 1 5BCE4FD2
P 2175 1775
F 0 "U2" H 1975 1975 50  0000 L CNN
F 1 "PC817" H 2175 1975 50  0000 L CNN
F 2 "Housings_DIP:DIP-4_W7.62mm" H 1975 1575 50  0001 L CIN
F 3 "" H 2175 1775 50  0001 L CNN
	1    2175 1775
	1    0    0    -1  
$EndComp
$Comp
L GND #PWR08
U 1 1 5BCE4FD8
P 2475 1875
F 0 "#PWR08" H 2475 1625 50  0001 C CNN
F 1 "GND" H 2475 1725 50  0000 C CNN
F 2 "" H 2475 1875 50  0001 C CNN
F 3 "" H 2475 1875 50  0001 C CNN
	1    2475 1875
	1    0    0    -1  
$EndComp
Text GLabel 2475 1675 2    60   Input ~ 0
PU_B1
$Comp
L Conn_02x03_Odd_Even J2
U 1 1 5BCE4FDF
P 1025 1675
F 0 "J2" H 1075 1875 50  0000 C CNN
F 1 "Conn_02x03_Odd_Even" H 1075 1475 50  0000 C CNN
F 2 "Pin_Headers:Pin_Header_Straight_2x03_Pitch2.54mm" H 1025 1675 50  0001 C CNN
F 3 "" H 1025 1675 50  0001 C CNN
	1    1025 1675
	1    0    0    -1  
$EndComp
$Comp
L D_ALT D2
U 1 1 5BCE4FE5
P 1575 1825
F 0 "D2" H 1575 1925 50  0000 C CNN
F 1 "IN4001" H 1575 1725 50  0000 C CNN
F 2 "Diodes_THT:D_A-405_P2.54mm_Vertical_KathodeUp" H 1575 1825 50  0001 C CNN
F 3 "" H 1575 1825 50  0001 C CNN
	1    1575 1825
	0    1    1    0   
$EndComp
$Comp
L C C2
U 1 1 5BCE4FEB
P 1750 1825
F 0 "C2" H 1775 1925 50  0000 L CNN
F 1 "1nF" H 1775 1725 50  0000 L CNN
F 2 "Capacitors_THT:C_Disc_D5.0mm_W2.5mm_P2.50mm" H 1788 1675 50  0001 C CNN
F 3 "" H 1750 1825 50  0001 C CNN
	1    1750 1825
	-1   0    0    1   
$EndComp
Wire Wire Line
	1325 1675 1875 1675
Connection ~ 1750 1675
Wire Wire Line
	1575 1975 1875 1975
Wire Wire Line
	1875 1975 1875 1875
Connection ~ 1750 1975
$Comp
L R R2
U 1 1 5BCE4FF6
P 1075 2000
F 0 "R2" V 1155 2000 50  0000 C CNN
F 1 "4.5k" V 1075 2000 50  0000 C CNN
F 2 "Resistors_THT:R_Axial_DIN0207_L6.3mm_D2.5mm_P2.54mm_Vertical" V 1005 2000 50  0001 C CNN
F 3 "" H 1075 2000 50  0001 C CNN
	1    1075 2000
	0    1    1    0   
$EndComp
Wire Wire Line
	1325 1775 1325 2000
Wire Wire Line
	1325 2000 1225 2000
Connection ~ 1575 1675
Wire Wire Line
	825  1775 825  2000
Wire Wire Line
	825  2000 925  2000
Text GLabel 1350 1450 2    60   Input ~ 0
OCB_B1
Wire Wire Line
	825  1575 825  1450
Wire Wire Line
	825  1450 1350 1450
Wire Wire Line
	1325 1575 1325 1450
Connection ~ 1325 1450
Text GLabel 1700 2075 0    60   Output ~ 0
24V_GND
Wire Wire Line
	1700 2075 1750 2075
Wire Wire Line
	1750 2075 1750 1975
Text GLabel 825  1675 0    60   Input ~ 0
DI_B1
$Comp
L PC817 U5
U 1 1 5BCE533E
P 2225 4250
F 0 "U5" H 2025 4450 50  0000 L CNN
F 1 "PC817" H 2225 4450 50  0000 L CNN
F 2 "Housings_DIP:DIP-4_W7.62mm" H 2025 4050 50  0001 L CIN
F 3 "" H 2225 4250 50  0001 L CNN
	1    2225 4250
	1    0    0    -1  
$EndComp
$Comp
L GND #PWR09
U 1 1 5BCE5344
P 2525 4350
F 0 "#PWR09" H 2525 4100 50  0001 C CNN
F 1 "GND" H 2525 4200 50  0000 C CNN
F 2 "" H 2525 4350 50  0001 C CNN
F 3 "" H 2525 4350 50  0001 C CNN
	1    2525 4350
	1    0    0    -1  
$EndComp
Text GLabel 2475 2550 2    60   Input ~ 0
PU_B2
$Comp
L Conn_02x03_Odd_Even J5
U 1 1 5BCE534B
P 1075 4150
F 0 "J5" H 1125 4350 50  0000 C CNN
F 1 "Conn_02x03_Odd_Even" H 1125 3950 50  0000 C CNN
F 2 "Pin_Headers:Pin_Header_Straight_2x03_Pitch2.54mm" H 1075 4150 50  0001 C CNN
F 3 "" H 1075 4150 50  0001 C CNN
	1    1075 4150
	1    0    0    -1  
$EndComp
$Comp
L D_ALT D5
U 1 1 5BCE5351
P 1625 4300
F 0 "D5" H 1625 4400 50  0000 C CNN
F 1 "IN4001" H 1625 4200 50  0000 C CNN
F 2 "Diodes_THT:D_A-405_P2.54mm_Vertical_KathodeUp" H 1625 4300 50  0001 C CNN
F 3 "" H 1625 4300 50  0001 C CNN
	1    1625 4300
	0    1    1    0   
$EndComp
$Comp
L C C5
U 1 1 5BCE5357
P 1800 4300
F 0 "C5" H 1825 4400 50  0000 L CNN
F 1 "1nF" H 1825 4200 50  0000 L CNN
F 2 "Capacitors_THT:C_Disc_D5.0mm_W2.5mm_P2.50mm" H 1838 4150 50  0001 C CNN
F 3 "" H 1800 4300 50  0001 C CNN
	1    1800 4300
	-1   0    0    1   
$EndComp
Wire Wire Line
	1375 4150 1925 4150
Connection ~ 1800 4150
Wire Wire Line
	1625 4450 1925 4450
Wire Wire Line
	1925 4450 1925 4350
Connection ~ 1800 4450
$Comp
L R R5
U 1 1 5BCE5362
P 1125 4475
F 0 "R5" V 1205 4475 50  0000 C CNN
F 1 "4.5k" V 1125 4475 50  0000 C CNN
F 2 "Resistors_THT:R_Axial_DIN0207_L6.3mm_D2.5mm_P2.54mm_Vertical" V 1055 4475 50  0001 C CNN
F 3 "" H 1125 4475 50  0001 C CNN
	1    1125 4475
	0    1    1    0   
$EndComp
Wire Wire Line
	1375 4250 1375 4475
Wire Wire Line
	1375 4475 1275 4475
Connection ~ 1625 4150
Wire Wire Line
	875  4250 875  4475
Wire Wire Line
	875  4475 975  4475
Text GLabel 1350 2325 2    60   Input ~ 0
OCB_B2
Wire Wire Line
	875  4050 875  3925
Wire Wire Line
	875  3925 1400 3925
Wire Wire Line
	1375 4050 1375 3925
Connection ~ 1375 3925
Text GLabel 1750 4550 0    60   Output ~ 0
24V_GND
Wire Wire Line
	1750 4550 1800 4550
Wire Wire Line
	1800 4550 1800 4450
Text GLabel 825  2550 0    60   Input ~ 0
DI_B2
$Comp
L PC817 U6
U 1 1 5BCE5376
P 2200 5050
F 0 "U6" H 2000 5250 50  0000 L CNN
F 1 "PC817" H 2200 5250 50  0000 L CNN
F 2 "Housings_DIP:DIP-4_W7.62mm" H 2000 4850 50  0001 L CIN
F 3 "" H 2200 5050 50  0001 L CNN
	1    2200 5050
	1    0    0    -1  
$EndComp
$Comp
L GND #PWR010
U 1 1 5BCE537C
P 2500 5150
F 0 "#PWR010" H 2500 4900 50  0001 C CNN
F 1 "GND" H 2500 5000 50  0000 C CNN
F 2 "" H 2500 5150 50  0001 C CNN
F 3 "" H 2500 5150 50  0001 C CNN
	1    2500 5150
	1    0    0    -1  
$EndComp
Text GLabel 2475 3350 2    60   Input ~ 0
PU_B3
$Comp
L Conn_02x03_Odd_Even J6
U 1 1 5BCE5383
P 1050 4950
F 0 "J6" H 1100 5150 50  0000 C CNN
F 1 "Conn_02x03_Odd_Even" H 1100 4750 50  0000 C CNN
F 2 "Pin_Headers:Pin_Header_Straight_2x03_Pitch2.54mm" H 1050 4950 50  0001 C CNN
F 3 "" H 1050 4950 50  0001 C CNN
	1    1050 4950
	1    0    0    -1  
$EndComp
$Comp
L D_ALT D6
U 1 1 5BCE5389
P 1600 5100
F 0 "D6" H 1600 5200 50  0000 C CNN
F 1 "IN4001" H 1600 5000 50  0000 C CNN
F 2 "Diodes_THT:D_A-405_P2.54mm_Vertical_KathodeUp" H 1600 5100 50  0001 C CNN
F 3 "" H 1600 5100 50  0001 C CNN
	1    1600 5100
	0    1    1    0   
$EndComp
$Comp
L C C6
U 1 1 5BCE538F
P 1775 5100
F 0 "C6" H 1800 5200 50  0000 L CNN
F 1 "1nF" H 1800 5000 50  0000 L CNN
F 2 "Capacitors_THT:C_Disc_D5.0mm_W2.5mm_P2.50mm" H 1813 4950 50  0001 C CNN
F 3 "" H 1775 5100 50  0001 C CNN
	1    1775 5100
	-1   0    0    1   
$EndComp
Wire Wire Line
	1350 4950 1900 4950
Connection ~ 1775 4950
Wire Wire Line
	1600 5250 1900 5250
Wire Wire Line
	1900 5250 1900 5150
Connection ~ 1775 5250
$Comp
L R R6
U 1 1 5BCE539A
P 1100 5275
F 0 "R6" V 1180 5275 50  0000 C CNN
F 1 "4.5k" V 1100 5275 50  0000 C CNN
F 2 "Resistors_THT:R_Axial_DIN0207_L6.3mm_D2.5mm_P2.54mm_Vertical" V 1030 5275 50  0001 C CNN
F 3 "" H 1100 5275 50  0001 C CNN
	1    1100 5275
	0    1    1    0   
$EndComp
Wire Wire Line
	1350 5050 1350 5275
Wire Wire Line
	1350 5275 1250 5275
Connection ~ 1600 4950
Wire Wire Line
	850  5050 850  5275
Wire Wire Line
	850  5275 950  5275
Text GLabel 1350 3125 2    60   Input ~ 0
OCB_B3
Wire Wire Line
	850  4850 850  4725
Wire Wire Line
	850  4725 1375 4725
Wire Wire Line
	1350 4850 1350 4725
Connection ~ 1350 4725
Text GLabel 1725 5350 0    60   Output ~ 0
24V_GND
Wire Wire Line
	1725 5350 1775 5350
Wire Wire Line
	1775 5350 1775 5250
Text GLabel 825  3350 0    60   Input ~ 0
DI_B3
$Comp
L PC817 U3
U 1 1 5BCE61D4
P 2175 2650
F 0 "U3" H 1975 2850 50  0000 L CNN
F 1 "PC817" H 2175 2850 50  0000 L CNN
F 2 "Housings_DIP:DIP-4_W7.62mm" H 1975 2450 50  0001 L CIN
F 3 "" H 2175 2650 50  0001 L CNN
	1    2175 2650
	1    0    0    -1  
$EndComp
$Comp
L GND #PWR011
U 1 1 5BCE61DA
P 2475 2750
F 0 "#PWR011" H 2475 2500 50  0001 C CNN
F 1 "GND" H 2475 2600 50  0000 C CNN
F 2 "" H 2475 2750 50  0001 C CNN
F 3 "" H 2475 2750 50  0001 C CNN
	1    2475 2750
	1    0    0    -1  
$EndComp
Text GLabel 2525 4150 2    60   Input ~ 0
PU_B4
$Comp
L Conn_02x03_Odd_Even J3
U 1 1 5BCE61E1
P 1025 2550
F 0 "J3" H 1075 2750 50  0000 C CNN
F 1 "Conn_02x03_Odd_Even" H 1075 2350 50  0000 C CNN
F 2 "Pin_Headers:Pin_Header_Straight_2x03_Pitch2.54mm" H 1025 2550 50  0001 C CNN
F 3 "" H 1025 2550 50  0001 C CNN
	1    1025 2550
	1    0    0    -1  
$EndComp
$Comp
L D_ALT D3
U 1 1 5BCE61E7
P 1575 2700
F 0 "D3" H 1575 2800 50  0000 C CNN
F 1 "IN4001" H 1575 2600 50  0000 C CNN
F 2 "Diodes_THT:D_A-405_P2.54mm_Vertical_KathodeUp" H 1575 2700 50  0001 C CNN
F 3 "" H 1575 2700 50  0001 C CNN
	1    1575 2700
	0    1    1    0   
$EndComp
$Comp
L C C3
U 1 1 5BCE61ED
P 1750 2700
F 0 "C3" H 1775 2800 50  0000 L CNN
F 1 "1nF" H 1775 2600 50  0000 L CNN
F 2 "Capacitors_THT:C_Disc_D5.0mm_W2.5mm_P2.50mm" H 1788 2550 50  0001 C CNN
F 3 "" H 1750 2700 50  0001 C CNN
	1    1750 2700
	-1   0    0    1   
$EndComp
Wire Wire Line
	1325 2550 1875 2550
Connection ~ 1750 2550
Wire Wire Line
	1575 2850 1875 2850
Wire Wire Line
	1875 2850 1875 2750
Connection ~ 1750 2850
$Comp
L R R3
U 1 1 5BCE61F8
P 1075 2875
F 0 "R3" V 1155 2875 50  0000 C CNN
F 1 "4.5k" V 1075 2875 50  0000 C CNN
F 2 "Resistors_THT:R_Axial_DIN0207_L6.3mm_D2.5mm_P2.54mm_Vertical" V 1005 2875 50  0001 C CNN
F 3 "" H 1075 2875 50  0001 C CNN
	1    1075 2875
	0    1    1    0   
$EndComp
Wire Wire Line
	1325 2650 1325 2875
Wire Wire Line
	1325 2875 1225 2875
Connection ~ 1575 2550
Wire Wire Line
	825  2650 825  2875
Wire Wire Line
	825  2875 925  2875
Text GLabel 1400 3925 2    60   Input ~ 0
OCB_B4
Wire Wire Line
	825  2450 825  2325
Wire Wire Line
	825  2325 1350 2325
Wire Wire Line
	1325 2450 1325 2325
Connection ~ 1325 2325
Text GLabel 1700 2950 0    60   Output ~ 0
24V_GND
Wire Wire Line
	1700 2950 1750 2950
Wire Wire Line
	1750 2950 1750 2850
Text GLabel 875  4150 0    60   Input ~ 0
DI_B4
$Comp
L PC817 U4
U 1 1 5BCE620C
P 2175 3450
F 0 "U4" H 1975 3650 50  0000 L CNN
F 1 "PC817" H 2175 3650 50  0000 L CNN
F 2 "Housings_DIP:DIP-4_W7.62mm" H 1975 3250 50  0001 L CIN
F 3 "" H 2175 3450 50  0001 L CNN
	1    2175 3450
	1    0    0    -1  
$EndComp
$Comp
L GND #PWR012
U 1 1 5BCE6212
P 2475 3550
F 0 "#PWR012" H 2475 3300 50  0001 C CNN
F 1 "GND" H 2475 3400 50  0000 C CNN
F 2 "" H 2475 3550 50  0001 C CNN
F 3 "" H 2475 3550 50  0001 C CNN
	1    2475 3550
	1    0    0    -1  
$EndComp
Text GLabel 2500 4950 2    60   Input ~ 0
PU_B5
$Comp
L Conn_02x03_Odd_Even J4
U 1 1 5BCE6219
P 1025 3350
F 0 "J4" H 1075 3550 50  0000 C CNN
F 1 "Conn_02x03_Odd_Even" H 1075 3150 50  0000 C CNN
F 2 "Pin_Headers:Pin_Header_Straight_2x03_Pitch2.54mm" H 1025 3350 50  0001 C CNN
F 3 "" H 1025 3350 50  0001 C CNN
	1    1025 3350
	1    0    0    -1  
$EndComp
$Comp
L D_ALT D4
U 1 1 5BCE621F
P 1575 3500
F 0 "D4" H 1575 3600 50  0000 C CNN
F 1 "IN4001" H 1575 3400 50  0000 C CNN
F 2 "Diodes_THT:D_A-405_P2.54mm_Vertical_KathodeUp" H 1575 3500 50  0001 C CNN
F 3 "" H 1575 3500 50  0001 C CNN
	1    1575 3500
	0    1    1    0   
$EndComp
$Comp
L C C4
U 1 1 5BCE6225
P 1750 3500
F 0 "C4" H 1775 3600 50  0000 L CNN
F 1 "1nF" H 1775 3400 50  0000 L CNN
F 2 "Capacitors_THT:C_Disc_D5.0mm_W2.5mm_P2.50mm" H 1788 3350 50  0001 C CNN
F 3 "" H 1750 3500 50  0001 C CNN
	1    1750 3500
	-1   0    0    1   
$EndComp
Wire Wire Line
	1325 3350 1875 3350
Connection ~ 1750 3350
Wire Wire Line
	1575 3650 1875 3650
Wire Wire Line
	1875 3650 1875 3550
Connection ~ 1750 3650
$Comp
L R R4
U 1 1 5BCE6230
P 1075 3675
F 0 "R4" V 1155 3675 50  0000 C CNN
F 1 "4.5k" V 1075 3675 50  0000 C CNN
F 2 "Resistors_THT:R_Axial_DIN0207_L6.3mm_D2.5mm_P2.54mm_Vertical" V 1005 3675 50  0001 C CNN
F 3 "" H 1075 3675 50  0001 C CNN
	1    1075 3675
	0    1    1    0   
$EndComp
Wire Wire Line
	1325 3450 1325 3675
Wire Wire Line
	1325 3675 1225 3675
Connection ~ 1575 3350
Wire Wire Line
	825  3450 825  3675
Wire Wire Line
	825  3675 925  3675
Text GLabel 1375 4725 2    60   Input ~ 0
OCB_B5
Wire Wire Line
	825  3250 825  3125
Wire Wire Line
	825  3125 1350 3125
Wire Wire Line
	1325 3250 1325 3125
Connection ~ 1325 3125
Text GLabel 1700 3750 0    60   Output ~ 0
24V_GND
Wire Wire Line
	1700 3750 1750 3750
Wire Wire Line
	1750 3750 1750 3650
Text GLabel 850  4950 0    60   Input ~ 0
DI_B5
$Comp
L PC817 U7
U 1 1 5BCE6244
P 2200 5850
F 0 "U7" H 2000 6050 50  0000 L CNN
F 1 "PC817" H 2200 6050 50  0000 L CNN
F 2 "Housings_DIP:DIP-4_W7.62mm" H 2000 5650 50  0001 L CIN
F 3 "" H 2200 5850 50  0001 L CNN
	1    2200 5850
	1    0    0    -1  
$EndComp
$Comp
L GND #PWR013
U 1 1 5BCE624A
P 2500 5950
F 0 "#PWR013" H 2500 5700 50  0001 C CNN
F 1 "GND" H 2500 5800 50  0000 C CNN
F 2 "" H 2500 5950 50  0001 C CNN
F 3 "" H 2500 5950 50  0001 C CNN
	1    2500 5950
	1    0    0    -1  
$EndComp
Text GLabel 2500 5750 2    60   Input ~ 0
PU_B6
$Comp
L Conn_02x03_Odd_Even J7
U 1 1 5BCE6251
P 1050 5750
F 0 "J7" H 1100 5950 50  0000 C CNN
F 1 "Conn_02x03_Odd_Even" H 1100 5550 50  0000 C CNN
F 2 "Pin_Headers:Pin_Header_Straight_2x03_Pitch2.54mm" H 1050 5750 50  0001 C CNN
F 3 "" H 1050 5750 50  0001 C CNN
	1    1050 5750
	1    0    0    -1  
$EndComp
$Comp
L D_ALT D7
U 1 1 5BCE6257
P 1600 5900
F 0 "D7" H 1600 6000 50  0000 C CNN
F 1 "IN4001" H 1600 5800 50  0000 C CNN
F 2 "Diodes_THT:D_A-405_P2.54mm_Vertical_KathodeUp" H 1600 5900 50  0001 C CNN
F 3 "" H 1600 5900 50  0001 C CNN
	1    1600 5900
	0    1    1    0   
$EndComp
$Comp
L C C7
U 1 1 5BCE625D
P 1775 5900
F 0 "C7" H 1800 6000 50  0000 L CNN
F 1 "1nF" H 1800 5800 50  0000 L CNN
F 2 "Capacitors_THT:C_Disc_D5.0mm_W2.5mm_P2.50mm" H 1813 5750 50  0001 C CNN
F 3 "" H 1775 5900 50  0001 C CNN
	1    1775 5900
	-1   0    0    1   
$EndComp
Wire Wire Line
	1350 5750 1900 5750
Connection ~ 1775 5750
Wire Wire Line
	1600 6050 1900 6050
Wire Wire Line
	1900 6050 1900 5950
Connection ~ 1775 6050
$Comp
L R R7
U 1 1 5BCE6268
P 1100 6075
F 0 "R7" V 1180 6075 50  0000 C CNN
F 1 "4.5k" V 1100 6075 50  0000 C CNN
F 2 "Resistors_THT:R_Axial_DIN0207_L6.3mm_D2.5mm_P2.54mm_Vertical" V 1030 6075 50  0001 C CNN
F 3 "" H 1100 6075 50  0001 C CNN
	1    1100 6075
	0    1    1    0   
$EndComp
Wire Wire Line
	1350 5850 1350 6075
Wire Wire Line
	1350 6075 1250 6075
Connection ~ 1600 5750
Wire Wire Line
	850  5850 850  6075
Wire Wire Line
	850  6075 950  6075
Text GLabel 1375 5525 2    60   Input ~ 0
OCB_B6
Wire Wire Line
	850  5650 850  5525
Wire Wire Line
	850  5525 1375 5525
Wire Wire Line
	1350 5650 1350 5525
Connection ~ 1350 5525
Text GLabel 1725 6150 0    60   Output ~ 0
24V_GND
Wire Wire Line
	1725 6150 1775 6150
Wire Wire Line
	1775 6150 1775 6050
Text GLabel 850  5750 0    60   Input ~ 0
DI_B6
$Comp
L PC817 U8
U 1 1 5BCE627C
P 2200 6650
F 0 "U8" H 2000 6850 50  0000 L CNN
F 1 "PC817" H 2200 6850 50  0000 L CNN
F 2 "Housings_DIP:DIP-4_W7.62mm" H 2000 6450 50  0001 L CIN
F 3 "" H 2200 6650 50  0001 L CNN
	1    2200 6650
	1    0    0    -1  
$EndComp
$Comp
L GND #PWR014
U 1 1 5BCE6282
P 2500 6750
F 0 "#PWR014" H 2500 6500 50  0001 C CNN
F 1 "GND" H 2500 6600 50  0000 C CNN
F 2 "" H 2500 6750 50  0001 C CNN
F 3 "" H 2500 6750 50  0001 C CNN
	1    2500 6750
	1    0    0    -1  
$EndComp
Text GLabel 2500 6550 2    60   Input ~ 0
PU_B7
$Comp
L Conn_02x03_Odd_Even J8
U 1 1 5BCE6289
P 1050 6550
F 0 "J8" H 1100 6750 50  0000 C CNN
F 1 "Conn_02x03_Odd_Even" H 1100 6350 50  0000 C CNN
F 2 "Pin_Headers:Pin_Header_Straight_2x03_Pitch2.54mm" H 1050 6550 50  0001 C CNN
F 3 "" H 1050 6550 50  0001 C CNN
	1    1050 6550
	1    0    0    -1  
$EndComp
$Comp
L D_ALT D8
U 1 1 5BCE628F
P 1600 6700
F 0 "D8" H 1600 6800 50  0000 C CNN
F 1 "IN4001" H 1600 6600 50  0000 C CNN
F 2 "Diodes_THT:D_A-405_P2.54mm_Vertical_KathodeUp" H 1600 6700 50  0001 C CNN
F 3 "" H 1600 6700 50  0001 C CNN
	1    1600 6700
	0    1    1    0   
$EndComp
$Comp
L C C8
U 1 1 5BCE6295
P 1775 6700
F 0 "C8" H 1800 6800 50  0000 L CNN
F 1 "1nF" H 1800 6600 50  0000 L CNN
F 2 "Capacitors_THT:C_Disc_D5.0mm_W2.5mm_P2.50mm" H 1813 6550 50  0001 C CNN
F 3 "" H 1775 6700 50  0001 C CNN
	1    1775 6700
	-1   0    0    1   
$EndComp
Wire Wire Line
	1350 6550 1900 6550
Connection ~ 1775 6550
Wire Wire Line
	1600 6850 1900 6850
Wire Wire Line
	1900 6850 1900 6750
Connection ~ 1775 6850
$Comp
L R R8
U 1 1 5BCE62A0
P 1100 6875
F 0 "R8" V 1180 6875 50  0000 C CNN
F 1 "4.5k" V 1100 6875 50  0000 C CNN
F 2 "Resistors_THT:R_Axial_DIN0207_L6.3mm_D2.5mm_P2.54mm_Vertical" V 1030 6875 50  0001 C CNN
F 3 "" H 1100 6875 50  0001 C CNN
	1    1100 6875
	0    1    1    0   
$EndComp
Wire Wire Line
	1350 6650 1350 6875
Wire Wire Line
	1350 6875 1250 6875
Connection ~ 1600 6550
Wire Wire Line
	850  6650 850  6875
Wire Wire Line
	850  6875 950  6875
Text GLabel 1375 6325 2    60   Input ~ 0
OCB_B7
Wire Wire Line
	850  6450 850  6325
Wire Wire Line
	850  6325 1375 6325
Wire Wire Line
	1350 6450 1350 6325
Connection ~ 1350 6325
Text GLabel 1725 6950 0    60   Output ~ 0
24V_GND
Wire Wire Line
	1725 6950 1775 6950
Wire Wire Line
	1775 6950 1775 6850
Text GLabel 850  6550 0    60   Input ~ 0
DI_B7
$Comp
L PC817 U9
U 1 1 5BCE99B9
P 4575 1500
F 0 "U9" H 4375 1700 50  0000 L CNN
F 1 "PC817" H 4575 1700 50  0000 L CNN
F 2 "Housings_DIP:DIP-4_W7.62mm" H 4375 1300 50  0001 L CIN
F 3 "" H 4575 1500 50  0001 L CNN
	1    4575 1500
	1    0    0    -1  
$EndComp
$Comp
L GND #PWR015
U 1 1 5BCE99BF
P 4875 1600
F 0 "#PWR015" H 4875 1350 50  0001 C CNN
F 1 "GND" H 4875 1450 50  0000 C CNN
F 2 "" H 4875 1600 50  0001 C CNN
F 3 "" H 4875 1600 50  0001 C CNN
	1    4875 1600
	1    0    0    -1  
$EndComp
Text GLabel 4875 1400 2    60   Input ~ 0
PU_A0
$Comp
L Conn_02x03_Odd_Even J9
U 1 1 5BCE99C6
P 3425 1400
F 0 "J9" H 3475 1600 50  0000 C CNN
F 1 "Conn_02x03_Odd_Even" H 3475 1200 50  0000 C CNN
F 2 "Pin_Headers:Pin_Header_Straight_2x03_Pitch2.54mm" H 3425 1400 50  0001 C CNN
F 3 "" H 3425 1400 50  0001 C CNN
	1    3425 1400
	1    0    0    -1  
$EndComp
$Comp
L D_ALT D9
U 1 1 5BCE99CC
P 3975 1550
F 0 "D9" H 3975 1650 50  0000 C CNN
F 1 "IN4001" H 3975 1450 50  0000 C CNN
F 2 "Diodes_THT:D_A-405_P2.54mm_Vertical_KathodeUp" H 3975 1550 50  0001 C CNN
F 3 "" H 3975 1550 50  0001 C CNN
	1    3975 1550
	0    1    1    0   
$EndComp
$Comp
L C C9
U 1 1 5BCE99D2
P 4150 1550
F 0 "C9" H 4175 1650 50  0000 L CNN
F 1 "1nF" H 4175 1450 50  0000 L CNN
F 2 "Capacitors_THT:C_Disc_D5.0mm_W2.5mm_P2.50mm" H 4188 1400 50  0001 C CNN
F 3 "" H 4150 1550 50  0001 C CNN
	1    4150 1550
	-1   0    0    1   
$EndComp
Wire Wire Line
	3725 1400 4275 1400
Connection ~ 4150 1400
Wire Wire Line
	3975 1700 4275 1700
Wire Wire Line
	4275 1700 4275 1600
Connection ~ 4150 1700
$Comp
L R R9
U 1 1 5BCE99DD
P 3475 1725
F 0 "R9" V 3555 1725 50  0000 C CNN
F 1 "4.5k" V 3475 1725 50  0000 C CNN
F 2 "Resistors_THT:R_Axial_DIN0207_L6.3mm_D2.5mm_P2.54mm_Vertical" V 3405 1725 50  0001 C CNN
F 3 "" H 3475 1725 50  0001 C CNN
	1    3475 1725
	0    1    1    0   
$EndComp
Wire Wire Line
	3725 1500 3725 1725
Wire Wire Line
	3725 1725 3625 1725
Connection ~ 3975 1400
Wire Wire Line
	3225 1500 3225 1725
Wire Wire Line
	3225 1725 3325 1725
Text GLabel 3750 1175 2    60   Input ~ 0
OCB_A0
Wire Wire Line
	3225 1300 3225 1175
Wire Wire Line
	3225 1175 3750 1175
Wire Wire Line
	3725 1300 3725 1175
Connection ~ 3725 1175
Text GLabel 4100 1800 0    60   Output ~ 0
24V_GND
Wire Wire Line
	4100 1800 4150 1800
Wire Wire Line
	4150 1800 4150 1700
Text GLabel 3225 1400 0    60   Input ~ 0
DI_A0
$Comp
L PC817 U10
U 1 1 5BCE99F1
P 4575 2300
F 0 "U10" H 4375 2500 50  0000 L CNN
F 1 "PC817" H 4575 2500 50  0000 L CNN
F 2 "Housings_DIP:DIP-4_W7.62mm" H 4375 2100 50  0001 L CIN
F 3 "" H 4575 2300 50  0001 L CNN
	1    4575 2300
	1    0    0    -1  
$EndComp
$Comp
L GND #PWR016
U 1 1 5BCE99F7
P 4875 2400
F 0 "#PWR016" H 4875 2150 50  0001 C CNN
F 1 "GND" H 4875 2250 50  0000 C CNN
F 2 "" H 4875 2400 50  0001 C CNN
F 3 "" H 4875 2400 50  0001 C CNN
	1    4875 2400
	1    0    0    -1  
$EndComp
Text GLabel 4875 2200 2    60   Input ~ 0
PU_A1
$Comp
L Conn_02x03_Odd_Even J10
U 1 1 5BCE99FE
P 3425 2200
F 0 "J10" H 3475 2400 50  0000 C CNN
F 1 "Conn_02x03_Odd_Even" H 3475 2000 50  0000 C CNN
F 2 "Pin_Headers:Pin_Header_Straight_2x03_Pitch2.54mm" H 3425 2200 50  0001 C CNN
F 3 "" H 3425 2200 50  0001 C CNN
	1    3425 2200
	1    0    0    -1  
$EndComp
$Comp
L D_ALT D10
U 1 1 5BCE9A04
P 3975 2350
F 0 "D10" H 3975 2450 50  0000 C CNN
F 1 "IN4001" H 3975 2250 50  0000 C CNN
F 2 "Diodes_THT:D_A-405_P2.54mm_Vertical_KathodeUp" H 3975 2350 50  0001 C CNN
F 3 "" H 3975 2350 50  0001 C CNN
	1    3975 2350
	0    1    1    0   
$EndComp
$Comp
L C C10
U 1 1 5BCE9A0A
P 4150 2350
F 0 "C10" H 4175 2450 50  0000 L CNN
F 1 "1nF" H 4175 2250 50  0000 L CNN
F 2 "Capacitors_THT:C_Disc_D5.0mm_W2.5mm_P2.50mm" H 4188 2200 50  0001 C CNN
F 3 "" H 4150 2350 50  0001 C CNN
	1    4150 2350
	-1   0    0    1   
$EndComp
Wire Wire Line
	3725 2200 4275 2200
Connection ~ 4150 2200
Wire Wire Line
	3975 2500 4275 2500
Wire Wire Line
	4275 2500 4275 2400
Connection ~ 4150 2500
$Comp
L R R10
U 1 1 5BCE9A15
P 3475 2525
F 0 "R10" V 3555 2525 50  0000 C CNN
F 1 "4.5k" V 3475 2525 50  0000 C CNN
F 2 "Resistors_THT:R_Axial_DIN0207_L6.3mm_D2.5mm_P2.54mm_Vertical" V 3405 2525 50  0001 C CNN
F 3 "" H 3475 2525 50  0001 C CNN
	1    3475 2525
	0    1    1    0   
$EndComp
Wire Wire Line
	3725 2300 3725 2525
Wire Wire Line
	3725 2525 3625 2525
Connection ~ 3975 2200
Wire Wire Line
	3225 2300 3225 2525
Wire Wire Line
	3225 2525 3325 2525
Text GLabel 3750 1975 2    60   Input ~ 0
OCB_A1
Wire Wire Line
	3225 2100 3225 1975
Wire Wire Line
	3225 1975 3750 1975
Wire Wire Line
	3725 2100 3725 1975
Connection ~ 3725 1975
Text GLabel 4100 2600 0    60   Output ~ 0
24V_GND
Wire Wire Line
	4100 2600 4150 2600
Wire Wire Line
	4150 2600 4150 2500
Text GLabel 3225 2200 0    60   Input ~ 0
DI_A1
$Comp
L PC817 U13
U 1 1 5BCE9A29
P 4600 4750
F 0 "U13" H 4400 4950 50  0000 L CNN
F 1 "PC817" H 4600 4950 50  0000 L CNN
F 2 "Housings_DIP:DIP-4_W7.62mm" H 4400 4550 50  0001 L CIN
F 3 "" H 4600 4750 50  0001 L CNN
	1    4600 4750
	1    0    0    -1  
$EndComp
$Comp
L GND #PWR017
U 1 1 5BCE9A2F
P 4900 4850
F 0 "#PWR017" H 4900 4600 50  0001 C CNN
F 1 "GND" H 4900 4700 50  0000 C CNN
F 2 "" H 4900 4850 50  0001 C CNN
F 3 "" H 4900 4850 50  0001 C CNN
	1    4900 4850
	1    0    0    -1  
$EndComp
Text GLabel 4875 3000 2    60   Input ~ 0
PU_A2
$Comp
L Conn_02x03_Odd_Even J13
U 1 1 5BCE9A36
P 3450 4650
F 0 "J13" H 3500 4850 50  0000 C CNN
F 1 "Conn_02x03_Odd_Even" H 3500 4450 50  0000 C CNN
F 2 "Pin_Headers:Pin_Header_Straight_2x03_Pitch2.54mm" H 3450 4650 50  0001 C CNN
F 3 "" H 3450 4650 50  0001 C CNN
	1    3450 4650
	1    0    0    -1  
$EndComp
$Comp
L D_ALT D13
U 1 1 5BCE9A3C
P 4000 4800
F 0 "D13" H 4000 4900 50  0000 C CNN
F 1 "IN4001" H 4000 4700 50  0000 C CNN
F 2 "Diodes_THT:D_A-405_P2.54mm_Vertical_KathodeUp" H 4000 4800 50  0001 C CNN
F 3 "" H 4000 4800 50  0001 C CNN
	1    4000 4800
	0    1    1    0   
$EndComp
$Comp
L C C13
U 1 1 5BCE9A42
P 4175 4800
F 0 "C13" H 4200 4900 50  0000 L CNN
F 1 "1nF" H 4200 4700 50  0000 L CNN
F 2 "Capacitors_THT:C_Disc_D5.0mm_W2.5mm_P2.50mm" H 4213 4650 50  0001 C CNN
F 3 "" H 4175 4800 50  0001 C CNN
	1    4175 4800
	-1   0    0    1   
$EndComp
Wire Wire Line
	3750 4650 4300 4650
Connection ~ 4175 4650
Wire Wire Line
	4000 4950 4300 4950
Wire Wire Line
	4300 4950 4300 4850
Connection ~ 4175 4950
$Comp
L R R13
U 1 1 5BCE9A4D
P 3500 4975
F 0 "R13" V 3580 4975 50  0000 C CNN
F 1 "4.5k" V 3500 4975 50  0000 C CNN
F 2 "Resistors_THT:R_Axial_DIN0207_L6.3mm_D2.5mm_P2.54mm_Vertical" V 3430 4975 50  0001 C CNN
F 3 "" H 3500 4975 50  0001 C CNN
	1    3500 4975
	0    1    1    0   
$EndComp
Wire Wire Line
	3750 4750 3750 4975
Wire Wire Line
	3750 4975 3650 4975
Connection ~ 4000 4650
Wire Wire Line
	3250 4750 3250 4975
Wire Wire Line
	3250 4975 3350 4975
Text GLabel 3750 2775 2    60   Input ~ 0
OCB_A2
Wire Wire Line
	3250 4550 3250 4425
Wire Wire Line
	3250 4425 3775 4425
Wire Wire Line
	3750 4550 3750 4425
Connection ~ 3750 4425
Text GLabel 4125 5050 0    60   Output ~ 0
24V_GND
Wire Wire Line
	4125 5050 4175 5050
Wire Wire Line
	4175 5050 4175 4950
Text GLabel 3225 3000 0    60   Input ~ 0
DI_A2
$Comp
L PC817 U14
U 1 1 5BCE9A61
P 4600 5550
F 0 "U14" H 4400 5750 50  0000 L CNN
F 1 "PC817" H 4600 5750 50  0000 L CNN
F 2 "Housings_DIP:DIP-4_W7.62mm" H 4400 5350 50  0001 L CIN
F 3 "" H 4600 5550 50  0001 L CNN
	1    4600 5550
	1    0    0    -1  
$EndComp
$Comp
L GND #PWR018
U 1 1 5BCE9A67
P 4900 5650
F 0 "#PWR018" H 4900 5400 50  0001 C CNN
F 1 "GND" H 4900 5500 50  0000 C CNN
F 2 "" H 4900 5650 50  0001 C CNN
F 3 "" H 4900 5650 50  0001 C CNN
	1    4900 5650
	1    0    0    -1  
$EndComp
Text GLabel 4875 3800 2    60   Input ~ 0
PU_A3
$Comp
L Conn_02x03_Odd_Even J14
U 1 1 5BCE9A6E
P 3450 5450
F 0 "J14" H 3500 5650 50  0000 C CNN
F 1 "Conn_02x03_Odd_Even" H 3500 5250 50  0000 C CNN
F 2 "Pin_Headers:Pin_Header_Straight_2x03_Pitch2.54mm" H 3450 5450 50  0001 C CNN
F 3 "" H 3450 5450 50  0001 C CNN
	1    3450 5450
	1    0    0    -1  
$EndComp
$Comp
L D_ALT D14
U 1 1 5BCE9A74
P 4000 5600
F 0 "D14" H 4000 5700 50  0000 C CNN
F 1 "IN4001" H 4000 5500 50  0000 C CNN
F 2 "Diodes_THT:D_A-405_P2.54mm_Vertical_KathodeUp" H 4000 5600 50  0001 C CNN
F 3 "" H 4000 5600 50  0001 C CNN
	1    4000 5600
	0    1    1    0   
$EndComp
$Comp
L C C14
U 1 1 5BCE9A7A
P 4175 5600
F 0 "C14" H 4200 5700 50  0000 L CNN
F 1 "1nF" H 4200 5500 50  0000 L CNN
F 2 "Capacitors_THT:C_Disc_D5.0mm_W2.5mm_P2.50mm" H 4213 5450 50  0001 C CNN
F 3 "" H 4175 5600 50  0001 C CNN
	1    4175 5600
	-1   0    0    1   
$EndComp
Wire Wire Line
	3750 5450 4300 5450
Connection ~ 4175 5450
Wire Wire Line
	4000 5750 4300 5750
Wire Wire Line
	4300 5750 4300 5650
Connection ~ 4175 5750
$Comp
L R R14
U 1 1 5BCE9A85
P 3500 5775
F 0 "R14" V 3580 5775 50  0000 C CNN
F 1 "4.5k" V 3500 5775 50  0000 C CNN
F 2 "Resistors_THT:R_Axial_DIN0207_L6.3mm_D2.5mm_P2.54mm_Vertical" V 3430 5775 50  0001 C CNN
F 3 "" H 3500 5775 50  0001 C CNN
	1    3500 5775
	0    1    1    0   
$EndComp
Wire Wire Line
	3750 5550 3750 5775
Wire Wire Line
	3750 5775 3650 5775
Connection ~ 4000 5450
Wire Wire Line
	3250 5550 3250 5775
Wire Wire Line
	3250 5775 3350 5775
Text GLabel 3750 3575 2    60   Input ~ 0
OCB_A3
Wire Wire Line
	3250 5350 3250 5225
Wire Wire Line
	3250 5225 3775 5225
Wire Wire Line
	3750 5350 3750 5225
Connection ~ 3750 5225
Text GLabel 4125 5850 0    60   Output ~ 0
24V_GND
Wire Wire Line
	4125 5850 4175 5850
Wire Wire Line
	4175 5850 4175 5750
Text GLabel 3225 3800 0    60   Input ~ 0
DI_A3
$Comp
L PC817 U11
U 1 1 5BCE9A99
P 4575 3100
F 0 "U11" H 4375 3300 50  0000 L CNN
F 1 "PC817" H 4575 3300 50  0000 L CNN
F 2 "Housings_DIP:DIP-4_W7.62mm" H 4375 2900 50  0001 L CIN
F 3 "" H 4575 3100 50  0001 L CNN
	1    4575 3100
	1    0    0    -1  
$EndComp
$Comp
L GND #PWR019
U 1 1 5BCE9A9F
P 4875 3200
F 0 "#PWR019" H 4875 2950 50  0001 C CNN
F 1 "GND" H 4875 3050 50  0000 C CNN
F 2 "" H 4875 3200 50  0001 C CNN
F 3 "" H 4875 3200 50  0001 C CNN
	1    4875 3200
	1    0    0    -1  
$EndComp
Text GLabel 4900 4650 2    60   Input ~ 0
PU_A4
$Comp
L Conn_02x03_Odd_Even J11
U 1 1 5BCE9AA6
P 3425 3000
F 0 "J11" H 3475 3200 50  0000 C CNN
F 1 "Conn_02x03_Odd_Even" H 3475 2800 50  0000 C CNN
F 2 "Pin_Headers:Pin_Header_Straight_2x03_Pitch2.54mm" H 3425 3000 50  0001 C CNN
F 3 "" H 3425 3000 50  0001 C CNN
	1    3425 3000
	1    0    0    -1  
$EndComp
$Comp
L D_ALT D11
U 1 1 5BCE9AAC
P 3975 3150
F 0 "D11" H 3975 3250 50  0000 C CNN
F 1 "IN4001" H 3975 3050 50  0000 C CNN
F 2 "Diodes_THT:D_A-405_P2.54mm_Vertical_KathodeUp" H 3975 3150 50  0001 C CNN
F 3 "" H 3975 3150 50  0001 C CNN
	1    3975 3150
	0    1    1    0   
$EndComp
$Comp
L C C11
U 1 1 5BCE9AB2
P 4150 3150
F 0 "C11" H 4175 3250 50  0000 L CNN
F 1 "1nF" H 4175 3050 50  0000 L CNN
F 2 "Capacitors_THT:C_Disc_D5.0mm_W2.5mm_P2.50mm" H 4188 3000 50  0001 C CNN
F 3 "" H 4150 3150 50  0001 C CNN
	1    4150 3150
	-1   0    0    1   
$EndComp
Wire Wire Line
	3725 3000 4275 3000
Connection ~ 4150 3000
Wire Wire Line
	3975 3300 4275 3300
Wire Wire Line
	4275 3300 4275 3200
Connection ~ 4150 3300
$Comp
L R R11
U 1 1 5BCE9ABD
P 3475 3325
F 0 "R11" V 3555 3325 50  0000 C CNN
F 1 "4.5k" V 3475 3325 50  0000 C CNN
F 2 "Resistors_THT:R_Axial_DIN0207_L6.3mm_D2.5mm_P2.54mm_Vertical" V 3405 3325 50  0001 C CNN
F 3 "" H 3475 3325 50  0001 C CNN
	1    3475 3325
	0    1    1    0   
$EndComp
Wire Wire Line
	3725 3100 3725 3325
Wire Wire Line
	3725 3325 3625 3325
Connection ~ 3975 3000
Wire Wire Line
	3225 3100 3225 3325
Wire Wire Line
	3225 3325 3325 3325
Text GLabel 3775 4425 2    60   Input ~ 0
OCB_A4
Wire Wire Line
	3225 2900 3225 2775
Wire Wire Line
	3225 2775 3750 2775
Wire Wire Line
	3725 2900 3725 2775
Connection ~ 3725 2775
Text GLabel 4100 3400 0    60   Output ~ 0
24V_GND
Wire Wire Line
	4100 3400 4150 3400
Wire Wire Line
	4150 3400 4150 3300
Text GLabel 3250 4650 0    60   Input ~ 0
DI_A4
$Comp
L PC817 U12
U 1 1 5BCE9AD1
P 4575 3900
F 0 "U12" H 4375 4100 50  0000 L CNN
F 1 "PC817" H 4575 4100 50  0000 L CNN
F 2 "Housings_DIP:DIP-4_W7.62mm" H 4375 3700 50  0001 L CIN
F 3 "" H 4575 3900 50  0001 L CNN
	1    4575 3900
	1    0    0    -1  
$EndComp
$Comp
L GND #PWR020
U 1 1 5BCE9AD7
P 4875 4000
F 0 "#PWR020" H 4875 3750 50  0001 C CNN
F 1 "GND" H 4875 3850 50  0000 C CNN
F 2 "" H 4875 4000 50  0001 C CNN
F 3 "" H 4875 4000 50  0001 C CNN
	1    4875 4000
	1    0    0    -1  
$EndComp
Text GLabel 4900 5450 2    60   Input ~ 0
PU_A5
$Comp
L Conn_02x03_Odd_Even J12
U 1 1 5BCE9ADE
P 3425 3800
F 0 "J12" H 3475 4000 50  0000 C CNN
F 1 "Conn_02x03_Odd_Even" H 3475 3600 50  0000 C CNN
F 2 "Pin_Headers:Pin_Header_Straight_2x03_Pitch2.54mm" H 3425 3800 50  0001 C CNN
F 3 "" H 3425 3800 50  0001 C CNN
	1    3425 3800
	1    0    0    -1  
$EndComp
$Comp
L D_ALT D12
U 1 1 5BCE9AE4
P 3975 3950
F 0 "D12" H 3975 4050 50  0000 C CNN
F 1 "IN4001" H 3975 3850 50  0000 C CNN
F 2 "Diodes_THT:D_A-405_P2.54mm_Vertical_KathodeUp" H 3975 3950 50  0001 C CNN
F 3 "" H 3975 3950 50  0001 C CNN
	1    3975 3950
	0    1    1    0   
$EndComp
$Comp
L C C12
U 1 1 5BCE9AEA
P 4150 3950
F 0 "C12" H 4175 4050 50  0000 L CNN
F 1 "1nF" H 4175 3850 50  0000 L CNN
F 2 "Capacitors_THT:C_Disc_D5.0mm_W2.5mm_P2.50mm" H 4188 3800 50  0001 C CNN
F 3 "" H 4150 3950 50  0001 C CNN
	1    4150 3950
	-1   0    0    1   
$EndComp
Wire Wire Line
	3725 3800 4275 3800
Connection ~ 4150 3800
Wire Wire Line
	3975 4100 4275 4100
Wire Wire Line
	4275 4100 4275 4000
Connection ~ 4150 4100
$Comp
L R R12
U 1 1 5BCE9AF5
P 3475 4125
F 0 "R12" V 3555 4125 50  0000 C CNN
F 1 "4.5k" V 3475 4125 50  0000 C CNN
F 2 "Resistors_THT:R_Axial_DIN0207_L6.3mm_D2.5mm_P2.54mm_Vertical" V 3405 4125 50  0001 C CNN
F 3 "" H 3475 4125 50  0001 C CNN
	1    3475 4125
	0    1    1    0   
$EndComp
Wire Wire Line
	3725 3900 3725 4125
Wire Wire Line
	3725 4125 3625 4125
Connection ~ 3975 3800
Wire Wire Line
	3225 3900 3225 4125
Wire Wire Line
	3225 4125 3325 4125
Text GLabel 3775 5225 2    60   Input ~ 0
OCB_A5
Wire Wire Line
	3225 3700 3225 3575
Wire Wire Line
	3225 3575 3750 3575
Wire Wire Line
	3725 3700 3725 3575
Connection ~ 3725 3575
Text GLabel 4100 4200 0    60   Output ~ 0
24V_GND
Wire Wire Line
	4100 4200 4150 4200
Wire Wire Line
	4150 4200 4150 4100
Text GLabel 3250 5450 0    60   Input ~ 0
DI_A5
$Comp
L PC817 U15
U 1 1 5BCE9B09
P 4600 6375
F 0 "U15" H 4400 6575 50  0000 L CNN
F 1 "PC817" H 4600 6575 50  0000 L CNN
F 2 "Housings_DIP:DIP-4_W7.62mm" H 4400 6175 50  0001 L CIN
F 3 "" H 4600 6375 50  0001 L CNN
	1    4600 6375
	1    0    0    -1  
$EndComp
$Comp
L GND #PWR021
U 1 1 5BCE9B0F
P 4900 6475
F 0 "#PWR021" H 4900 6225 50  0001 C CNN
F 1 "GND" H 4900 6325 50  0000 C CNN
F 2 "" H 4900 6475 50  0001 C CNN
F 3 "" H 4900 6475 50  0001 C CNN
	1    4900 6475
	1    0    0    -1  
$EndComp
Text GLabel 4900 6275 2    60   Input ~ 0
PU_A6
$Comp
L Conn_02x03_Odd_Even J15
U 1 1 5BCE9B16
P 3450 6275
F 0 "J15" H 3500 6475 50  0000 C CNN
F 1 "Conn_02x03_Odd_Even" H 3500 6075 50  0000 C CNN
F 2 "Pin_Headers:Pin_Header_Straight_2x03_Pitch2.54mm" H 3450 6275 50  0001 C CNN
F 3 "" H 3450 6275 50  0001 C CNN
	1    3450 6275
	1    0    0    -1  
$EndComp
$Comp
L D_ALT D15
U 1 1 5BCE9B1C
P 4000 6425
F 0 "D15" H 4000 6525 50  0000 C CNN
F 1 "IN4001" H 4000 6325 50  0000 C CNN
F 2 "Diodes_THT:D_A-405_P2.54mm_Vertical_KathodeUp" H 4000 6425 50  0001 C CNN
F 3 "" H 4000 6425 50  0001 C CNN
	1    4000 6425
	0    1    1    0   
$EndComp
$Comp
L C C15
U 1 1 5BCE9B22
P 4175 6425
F 0 "C15" H 4200 6525 50  0000 L CNN
F 1 "1nF" H 4200 6325 50  0000 L CNN
F 2 "Capacitors_THT:C_Disc_D5.0mm_W2.5mm_P2.50mm" H 4213 6275 50  0001 C CNN
F 3 "" H 4175 6425 50  0001 C CNN
	1    4175 6425
	-1   0    0    1   
$EndComp
Wire Wire Line
	3750 6275 4300 6275
Connection ~ 4175 6275
Wire Wire Line
	4000 6575 4300 6575
Wire Wire Line
	4300 6575 4300 6475
Connection ~ 4175 6575
$Comp
L R R15
U 1 1 5BCE9B2D
P 3500 6600
F 0 "R15" V 3580 6600 50  0000 C CNN
F 1 "4.5k" V 3500 6600 50  0000 C CNN
F 2 "Resistors_THT:R_Axial_DIN0207_L6.3mm_D2.5mm_P2.54mm_Vertical" V 3430 6600 50  0001 C CNN
F 3 "" H 3500 6600 50  0001 C CNN
	1    3500 6600
	0    1    1    0   
$EndComp
Wire Wire Line
	3750 6375 3750 6600
Wire Wire Line
	3750 6600 3650 6600
Connection ~ 4000 6275
Wire Wire Line
	3250 6375 3250 6600
Wire Wire Line
	3250 6600 3350 6600
Text GLabel 3775 6050 2    60   Input ~ 0
OCB_A6
Wire Wire Line
	3250 6175 3250 6050
Wire Wire Line
	3250 6050 3775 6050
Wire Wire Line
	3750 6175 3750 6050
Connection ~ 3750 6050
Text GLabel 4125 6675 0    60   Output ~ 0
24V_GND
Wire Wire Line
	4125 6675 4175 6675
Wire Wire Line
	4175 6675 4175 6575
Text GLabel 3250 6275 0    60   Input ~ 0
DI_A6
$Comp
L PC817 U16
U 1 1 5BCE9B41
P 4600 7175
F 0 "U16" H 4400 7375 50  0000 L CNN
F 1 "PC817" H 4600 7375 50  0000 L CNN
F 2 "Housings_DIP:DIP-4_W7.62mm" H 4400 6975 50  0001 L CIN
F 3 "" H 4600 7175 50  0001 L CNN
	1    4600 7175
	1    0    0    -1  
$EndComp
$Comp
L GND #PWR022
U 1 1 5BCE9B47
P 4900 7275
F 0 "#PWR022" H 4900 7025 50  0001 C CNN
F 1 "GND" H 4900 7125 50  0000 C CNN
F 2 "" H 4900 7275 50  0001 C CNN
F 3 "" H 4900 7275 50  0001 C CNN
	1    4900 7275
	1    0    0    -1  
$EndComp
Text GLabel 4900 7075 2    60   Input ~ 0
PU_A7
$Comp
L Conn_02x03_Odd_Even J16
U 1 1 5BCE9B4E
P 3450 7075
F 0 "J16" H 3500 7275 50  0000 C CNN
F 1 "Conn_02x03_Odd_Even" H 3500 6875 50  0000 C CNN
F 2 "Pin_Headers:Pin_Header_Straight_2x03_Pitch2.54mm" H 3450 7075 50  0001 C CNN
F 3 "" H 3450 7075 50  0001 C CNN
	1    3450 7075
	1    0    0    -1  
$EndComp
$Comp
L D_ALT D16
U 1 1 5BCE9B54
P 4000 7225
F 0 "D16" H 4000 7325 50  0000 C CNN
F 1 "IN4001" H 4000 7125 50  0000 C CNN
F 2 "Diodes_THT:D_A-405_P2.54mm_Vertical_KathodeUp" H 4000 7225 50  0001 C CNN
F 3 "" H 4000 7225 50  0001 C CNN
	1    4000 7225
	0    1    1    0   
$EndComp
$Comp
L C C16
U 1 1 5BCE9B5A
P 4175 7225
F 0 "C16" H 4200 7325 50  0000 L CNN
F 1 "1nF" H 4200 7125 50  0000 L CNN
F 2 "Capacitors_THT:C_Disc_D5.0mm_W2.5mm_P2.50mm" H 4213 7075 50  0001 C CNN
F 3 "" H 4175 7225 50  0001 C CNN
	1    4175 7225
	-1   0    0    1   
$EndComp
Wire Wire Line
	3750 7075 4300 7075
Connection ~ 4175 7075
Wire Wire Line
	4000 7375 4300 7375
Wire Wire Line
	4300 7375 4300 7275
Connection ~ 4175 7375
$Comp
L R R16
U 1 1 5BCE9B65
P 3500 7400
F 0 "R16" V 3580 7400 50  0000 C CNN
F 1 "4.5k" V 3500 7400 50  0000 C CNN
F 2 "Resistors_THT:R_Axial_DIN0207_L6.3mm_D2.5mm_P2.54mm_Vertical" V 3430 7400 50  0001 C CNN
F 3 "" H 3500 7400 50  0001 C CNN
	1    3500 7400
	0    1    1    0   
$EndComp
Wire Wire Line
	3750 7175 3750 7400
Wire Wire Line
	3750 7400 3650 7400
Connection ~ 4000 7075
Wire Wire Line
	3250 7175 3250 7400
Wire Wire Line
	3250 7400 3350 7400
Text GLabel 3775 6850 2    60   Input ~ 0
OCB_A7
Wire Wire Line
	3250 6975 3250 6850
Wire Wire Line
	3250 6850 3775 6850
Wire Wire Line
	3750 6975 3750 6850
Connection ~ 3750 6850
Text GLabel 4125 7475 0    60   Output ~ 0
24V_GND
Wire Wire Line
	4125 7475 4175 7475
Wire Wire Line
	4175 7475 4175 7375
Text GLabel 3250 7075 0    60   Input ~ 0
DI_A7
$Comp
L R_Network08 RN2
U 1 1 5BCEE596
P 6050 2100
F 0 "RN2" V 5550 2100 50  0000 C CNN
F 1 "4.5k" V 6450 2100 50  0000 C CNN
F 2 "Resistors_THT:R_Array_SIP9" V 6525 2100 50  0001 C CNN
F 3 "" H 6050 2100 50  0001 C CNN
	1    6050 2100
	1    0    0    -1  
$EndComp
Text GLabel 5650 1900 1    60   Input ~ 0
24V
Text GLabel 5650 2300 3    60   Output ~ 0
OCB_A0
Text GLabel 5750 2300 3    60   Output ~ 0
OCB_A1
Text GLabel 5850 2300 3    60   Output ~ 0
OCB_A2
Text GLabel 5950 2300 3    60   Output ~ 0
OCB_A3
Text GLabel 6050 2300 3    60   Output ~ 0
OCB_A4
Text GLabel 6150 2300 3    60   Output ~ 0
OCB_A5
Text GLabel 6250 2300 3    60   Output ~ 0
OCB_A6
Text GLabel 6350 2300 3    60   Output ~ 0
OCB_A7
$Comp
L R_Network08 RN3
U 1 1 5BCEEF3B
P 7200 2025
F 0 "RN3" V 6700 2025 50  0000 C CNN
F 1 "6.2k" V 7600 2025 50  0000 C CNN
F 2 "Resistors_THT:R_Array_SIP9" V 7675 2025 50  0001 C CNN
F 3 "" H 7200 2025 50  0001 C CNN
	1    7200 2025
	1    0    0    -1  
$EndComp
Text GLabel 6800 1775 1    60   Input ~ 0
5v
Text GLabel 6800 2225 3    60   Output ~ 0
PU_A0
Text GLabel 6900 2225 3    60   Output ~ 0
PU_A1
Text GLabel 7000 2225 3    60   Output ~ 0
PU_A2
Text GLabel 7100 2225 3    60   Output ~ 0
PU_A3
Text GLabel 7200 2225 3    60   Output ~ 0
PU_A4
Text GLabel 7300 2225 3    60   Output ~ 0
PU_A5
Text GLabel 7400 2225 3    60   Output ~ 0
PU_A6
Text GLabel 7500 2225 3    60   Output ~ 0
PU_A7
Wire Wire Line
	6800 1775 6800 1825
$Comp
L Screw_Terminal_01x08 J18
U 1 1 5BCEFA5F
P 8325 1300
F 0 "J18" H 8325 1700 50  0000 C CNN
F 1 "Screw_Terminal_01x08" H 8325 800 50  0000 C CNN
F 2 "Connectors_Terminal_Blocks:TerminalBlock_Pheonix_MKDS1.5-8pol" H 8325 1300 50  0001 C CNN
F 3 "" H 8325 1300 50  0001 C CNN
	1    8325 1300
	-1   0    0    1   
$EndComp
Text GLabel 8525 1600 2    60   BiDi ~ 0
DI_A0
Text GLabel 8525 1500 2    60   BiDi ~ 0
DI_A1
Text GLabel 8525 1400 2    60   BiDi ~ 0
DI_A2
Text GLabel 8525 1300 2    60   BiDi ~ 0
DI_A3
Text GLabel 8525 1200 2    60   BiDi ~ 0
DI_A4
Text GLabel 8525 1100 2    60   BiDi ~ 0
DI_A5
Text GLabel 8525 1000 2    60   BiDi ~ 0
DI_A6
Text GLabel 8525 900  2    60   BiDi ~ 0
DI_A7
$Comp
L PWR_FLAG #FLG023
U 1 1 5BCF3764
P 4250 675
F 0 "#FLG023" H 4250 750 50  0001 C CNN
F 1 "PWR_FLAG" H 4250 825 50  0000 C CNN
F 2 "" H 4250 675 50  0001 C CNN
F 3 "" H 4250 675 50  0001 C CNN
	1    4250 675 
	1    0    0    -1  
$EndComp
$Comp
L PWR_FLAG #FLG024
U 1 1 5BCF3D4F
P 4125 775
F 0 "#FLG024" H 4125 850 50  0001 C CNN
F 1 "PWR_FLAG" H 4125 925 50  0000 C CNN
F 2 "" H 4125 775 50  0001 C CNN
F 3 "" H 4125 775 50  0001 C CNN
	1    4125 775 
	-1   0    0    1   
$EndComp
Wire Wire Line
	4050 675  4350 675 
Connection ~ 4250 675 
Wire Wire Line
	4050 775  4375 775 
Connection ~ 4125 775 
Text GLabel 6750 4400 0    60   Input ~ 0
PU_A0
Wire Wire Line
	6750 4400 6875 4400
Text GLabel 6750 4500 0    60   Input ~ 0
PU_A1
Wire Wire Line
	6750 4500 6875 4500
Text GLabel 6750 4600 0    60   Input ~ 0
PU_A2
Wire Wire Line
	6750 4600 6875 4600
Text GLabel 6750 4700 0    60   Input ~ 0
PU_A3
Wire Wire Line
	6750 4700 6875 4700
Text GLabel 6750 4800 0    60   Input ~ 0
PU_A4
Wire Wire Line
	6750 4800 6875 4800
Text GLabel 6750 4900 0    60   Input ~ 0
PU_A5
Wire Wire Line
	6750 4900 6875 4900
Text GLabel 6750 5000 0    60   Input ~ 0
PU_A6
Wire Wire Line
	6750 5000 6875 5000
Text GLabel 6750 5100 0    60   Input ~ 0
PU_A7
Wire Wire Line
	6750 5100 6875 5100
Text GLabel 6750 3500 0    60   Input ~ 0
PU_B0
Wire Wire Line
	6750 3500 6875 3500
Text GLabel 6750 3600 0    60   Input ~ 0
PU_B1
Wire Wire Line
	6750 3600 6875 3600
Text GLabel 6750 3700 0    60   Input ~ 0
PU_B2
Wire Wire Line
	6750 3700 6875 3700
Text GLabel 6750 3800 0    60   Input ~ 0
PU_B3
Wire Wire Line
	6750 3800 6875 3800
Text GLabel 6750 3900 0    60   Input ~ 0
PU_B4
Wire Wire Line
	6750 3900 6875 3900
Text GLabel 6750 4000 0    60   Input ~ 0
PU_B5
Wire Wire Line
	6750 4000 6875 4000
Text GLabel 6750 4100 0    60   Input ~ 0
PU_B6
Wire Wire Line
	6750 4100 6875 4100
Text GLabel 6750 4200 0    60   Input ~ 0
PU_B7
Wire Wire Line
	6750 4200 6875 4200
Text Notes 5650 800  0    60   ~ 0
Open Collector Bias\n(OCB)
Text Notes 6925 800  0    60   ~ 0
Pullup\n(PU)
Connection ~ 7825 3300
$Comp
L GND #PWR029
U 1 1 5BCFE05A
P 9675 4300
F 0 "#PWR029" H 9675 4050 50  0001 C CNN
F 1 "GND" H 9675 4150 50  0000 C CNN
F 2 "" H 9675 4300 50  0001 C CNN
F 3 "" H 9675 4300 50  0001 C CNN
	1    9675 4300
	0    1    1    0   
$EndComp
$Comp
L GND #PWR030
U 1 1 5BCFE182
P 9675 3600
F 0 "#PWR030" H 9675 3350 50  0001 C CNN
F 1 "GND" H 9675 3450 50  0000 C CNN
F 2 "" H 9675 3600 50  0001 C CNN
F 3 "" H 9675 3600 50  0001 C CNN
	1    9675 3600
	0    1    1    0   
$EndComp
$Comp
L GND #PWR031
U 1 1 5BCFB43C
P 8150 3100
F 0 "#PWR031" H 8150 2850 50  0001 C CNN
F 1 "GND" H 8150 2950 50  0000 C CNN
F 2 "" H 8150 3100 50  0001 C CNN
F 3 "" H 8150 3100 50  0001 C CNN
	1    8150 3100
	0    -1   -1   0   
$EndComp
Wire Wire Line
	7825 3100 7850 3100
Wire Wire Line
	7825 3300 7825 3100
$Comp
L D_Zener D17
U 1 1 5BCFB12E
P 8000 3100
F 0 "D17" H 8000 3200 50  0000 C CNN
F 1 "5.6V 1W" H 8000 3000 50  0000 C CNN
F 2 "Diodes_THT:D_A-405_P2.54mm_Vertical_KathodeUp" H 8000 3100 50  0001 C CNN
F 3 "" H 8000 3100 50  0001 C CNN
	1    8000 3100
	1    0    0    -1  
$EndComp
Wire Wire Line
	9675 2500 9425 2500
Wire Wire Line
	9675 2600 9425 2600
Wire Wire Line
	6450 6250 6450 7050
Connection ~ 6450 6750
Wire Wire Line
	5950 6450 5950 7225
Connection ~ 5950 6750
Connection ~ 5950 7050
Connection ~ 6450 6450
Text GLabel 8025 4900 2    60   Input ~ 0
A0
Text GLabel 8025 5000 2    60   Input ~ 0
A1
Text GLabel 8025 5100 2    60   Input ~ 0
A2
Wire Wire Line
	7875 4900 8025 4900
Wire Wire Line
	7875 5000 8025 5000
Wire Wire Line
	7875 5100 8025 5100
Text GLabel 6650 6625 2    60   Input ~ 0
A0
Text GLabel 6650 6725 2    60   Input ~ 0
A1
Text GLabel 6650 6825 2    60   Input ~ 0
A2
Wire Wire Line
	6200 6350 6650 6350
Wire Wire Line
	6650 6350 6650 6625
Wire Wire Line
	6200 6950 6650 6950
Wire Wire Line
	6650 6950 6650 6825
Wire Wire Line
	6200 6650 6600 6650
Wire Wire Line
	6600 6650 6600 6725
Wire Wire Line
	6600 6725 6650 6725
$Comp
L 2N7000 Q1
U 1 1 5BD1D4A6
P 8300 5850
F 0 "Q1" H 8500 5925 50  0000 L CNN
F 1 "2N7000" H 8500 5850 50  0000 L CNN
F 2 "TO_SOT_Packages_THT:TO-92_Molded_Narrow" H 8500 5775 50  0001 L CIN
F 3 "" H 8300 5850 50  0001 L CNN
	1    8300 5850
	0    1    1    0   
$EndComp
$Comp
L R R18
U 1 1 5BD1E006
P 8100 5800
F 0 "R18" V 8180 5800 50  0000 C CNN
F 1 "10k" V 8100 5800 50  0000 C CNN
F 2 "Resistors_THT:R_Axial_DIN0207_L6.3mm_D2.5mm_P2.54mm_Vertical" V 8030 5800 50  0001 C CNN
F 3 "" H 8100 5800 50  0001 C CNN
	1    8100 5800
	-1   0    0    1   
$EndComp
$Comp
L R R19
U 1 1 5BD1E842
P 8500 5800
F 0 "R19" V 8580 5800 50  0000 C CNN
F 1 "10k" V 8500 5800 50  0000 C CNN
F 2 "Resistors_THT:R_Axial_DIN0207_L6.3mm_D2.5mm_P2.54mm_Vertical" V 8430 5800 50  0001 C CNN
F 3 "" H 8500 5800 50  0001 C CNN
	1    8500 5800
	-1   0    0    1   
$EndComp
Text GLabel 9575 2175 1    60   Output ~ 0
3.3V
Wire Wire Line
	9575 2400 9675 2400
Wire Wire Line
	9575 2175 9575 2400
Text GLabel 8100 5500 1    60   Input ~ 0
3.3V
Text GLabel 8500 5500 1    60   Input ~ 0
5V
Wire Wire Line
	8100 5650 8100 5500
Wire Wire Line
	7975 5500 8300 5500
Wire Wire Line
	8300 5250 8300 5650
Wire Wire Line
	8500 5500 8500 5650
Text GLabel 8700 5950 2    60   BiDi ~ 0
SDA_5V
Text GLabel 7900 5950 0    60   BiDi ~ 0
SDA_3.3V
$Comp
L 2N7000 Q2
U 1 1 5BD21B22
P 8300 6325
F 0 "Q2" H 8500 6400 50  0000 L CNN
F 1 "2N7000" H 8500 6325 50  0000 L CNN
F 2 "TO_SOT_Packages_THT:TO-92_Molded_Narrow" H 8500 6250 50  0001 L CIN
F 3 "" H 8300 6325 50  0001 L CNN
	1    8300 6325
	0    1    1    0   
$EndComp
$Comp
L R R20
U 1 1 5BD21CDC
P 8625 5650
F 0 "R20" V 8705 5650 50  0000 C CNN
F 1 "10k" V 8625 5650 50  0000 C CNN
F 2 "Resistors_THT:R_Axial_DIN0207_L6.3mm_D2.5mm_P2.54mm_Vertical" V 8555 5650 50  0001 C CNN
F 3 "" H 8625 5650 50  0001 C CNN
	1    8625 5650
	-1   0    0    1   
$EndComp
$Comp
L R R17
U 1 1 5BD21E27
P 7975 5650
F 0 "R17" V 8055 5650 50  0000 C CNN
F 1 "10k" V 7975 5650 50  0000 C CNN
F 2 "Resistors_THT:R_Axial_DIN0207_L6.3mm_D2.5mm_P2.54mm_Vertical" V 7905 5650 50  0001 C CNN
F 3 "" H 7975 5650 50  0001 C CNN
	1    7975 5650
	-1   0    0    1   
$EndComp
Connection ~ 8100 5500
Wire Wire Line
	8625 5500 8500 5500
Wire Wire Line
	7975 5800 7975 6425
Wire Wire Line
	7900 6425 8100 6425
Text GLabel 7900 6425 0    60   BiDi ~ 0
SCL_3.3V
Text GLabel 8700 6425 2    60   BiDi ~ 0
SCL_5V
Wire Wire Line
	7900 5950 8100 5950
Wire Wire Line
	8500 5950 8700 5950
Wire Wire Line
	8625 5800 8625 6425
Wire Wire Line
	8500 6425 8700 6425
Connection ~ 8625 6425
Connection ~ 7975 6425
$Comp
L 2N7000 Q3
U 1 1 5BD25F62
P 10350 6300
F 0 "Q3" H 10550 6375 50  0000 L CNN
F 1 "2N7000" H 10550 6300 50  0000 L CNN
F 2 "TO_SOT_Packages_THT:TO-92_Molded_Narrow" H 10550 6225 50  0001 L CIN
F 3 "" H 10350 6300 50  0001 L CNN
	1    10350 6300
	0    1    1    0   
$EndComp
$Comp
L R R21
U 1 1 5BD25F68
P 10150 6250
F 0 "R21" V 10230 6250 50  0000 C CNN
F 1 "10k" V 10150 6250 50  0000 C CNN
F 2 "Resistors_THT:R_Axial_DIN0207_L6.3mm_D2.5mm_P2.54mm_Vertical" V 10080 6250 50  0001 C CNN
F 3 "" H 10150 6250 50  0001 C CNN
	1    10150 6250
	-1   0    0    1   
$EndComp
$Comp
L R R22
U 1 1 5BD25F6E
P 10550 6250
F 0 "R22" V 10630 6250 50  0000 C CNN
F 1 "10k" V 10550 6250 50  0000 C CNN
F 2 "Resistors_THT:R_Axial_DIN0207_L6.3mm_D2.5mm_P2.54mm_Vertical" V 10480 6250 50  0001 C CNN
F 3 "" H 10550 6250 50  0001 C CNN
	1    10550 6250
	-1   0    0    1   
$EndComp
Text GLabel 10150 5950 1    60   Input ~ 0
3.3V
Text GLabel 10550 5950 1    60   Input ~ 0
5V
Wire Wire Line
	10150 6100 10150 5950
Wire Wire Line
	10350 5950 10350 6100
Wire Wire Line
	10550 5950 10550 6100
Text GLabel 10750 6400 2    60   Input ~ 0
INT_5V
Text GLabel 9950 6400 0    60   Output ~ 0
INT_3.3V
Connection ~ 10150 5950
Wire Wire Line
	9950 6400 10150 6400
Wire Wire Line
	10550 6400 10750 6400
Wire Wire Line
	10150 5950 10350 5950
$Comp
L Conn_02x04_Odd_Even J21
U 1 1 5BD2973D
P 9975 5050
F 0 "J21" H 10025 5250 50  0000 C CNN
F 1 "Conn_02x04_Odd_Even" H 10025 4750 50  0000 C CNN
F 2 "Pin_Headers:Pin_Header_Straight_2x04_Pitch2.54mm" H 9975 5050 50  0001 C CNN
F 3 "" H 9975 5050 50  0001 C CNN
	1    9975 5050
	1    0    0    -1  
$EndComp
Text GLabel 10375 3200 2    60   Input ~ 0
INT_1
Text GLabel 10375 3400 2    60   Input ~ 0
INT_2
Text GLabel 10350 4100 2    60   Input ~ 0
INT_3
Text GLabel 9475 4200 0    60   Input ~ 0
INT_4
Wire Wire Line
	9475 4200 9675 4200
Wire Wire Line
	10350 4100 10175 4100
Wire Wire Line
	10375 3200 10175 3200
Wire Wire Line
	10375 3400 10175 3400
Wire Wire Line
	9775 4950 9775 5250
Connection ~ 9775 5050
Connection ~ 9775 5150
Wire Wire Line
	9700 5100 9775 5100
Connection ~ 9775 5100
Text GLabel 10275 5150 2    60   Output ~ 0
INT_3
Text GLabel 10275 5050 2    60   Output ~ 0
INT_2
Text GLabel 10275 4950 2    60   Output ~ 0
INT_1
Text GLabel 10275 5250 2    60   Output ~ 0
INT_4
$Comp
L PWR_FLAG #FLG033
U 1 1 5BCEB788
P 9300 2325
F 0 "#FLG033" H 9300 2400 50  0001 C CNN
F 1 "PWR_FLAG" H 9300 2475 50  0000 C CNN
F 2 "" H 9300 2325 50  0001 C CNN
F 3 "" H 9300 2325 50  0001 C CNN
	1    9300 2325
	1    0    0    -1  
$EndComp
Wire Wire Line
	9300 2325 9575 2325
Connection ~ 9575 2325
Text Notes 10500 2950 0    60   ~ 0
Grounds\nchecked
Text Notes 10675 5050 0    60   ~ 0
Interrupts\nchecked
Text GLabel 8175 3900 2    60   Output ~ 0
INT_5V
Text Notes 1950 700  0    60   ~ 0
IN4001 is OK. Checked
Text Notes 1925 1525 0    60   ~ 0
1mA for transistor \nof PC817 is OK\nChecked.
Wire Wire Line
	7875 3900 8175 3900
NoConn ~ 7875 4000
Wire Wire Line
	8300 6125 9325 6125
Wire Wire Line
	9325 6125 9325 5250
Wire Wire Line
	9325 5250 8300 5250
Connection ~ 8300 5500
Wire Notes Line
	5350 525  6600 525 
Wire Notes Line
	6600 525  6600 1625
Wire Notes Line
	6600 1625 5350 1625
Wire Notes Line
	5350 1625 5350 525 
Text Notes 5325 325  0    60   ~ 0
Change this bias as per Vdc
Wire Notes Line
	5925 325  5925 525 
NoConn ~ 10175 2600
NoConn ~ 10175 3000
NoConn ~ 10175 3300
NoConn ~ 10175 3800
NoConn ~ 10175 4000
$EndSCHEMATC
